{
"label": "Klassenmerkmaleffekte",
"entries.Effect: Aberrant Blood Magic.name": "Effekt: Aberrationen-Blutmagie",
"entries.Effect: Aberrant Blood Magic.description": "<p>Unverständliches, fremdartiges Flüstern schützt deinen Verstand oder den eines Zieles und verleiht dem Ziel deines Zaubers für 1 Runde einen Zustandsbonus von +2 auf Willenswürfe.</p>",
"entries.Effect: Angelic Blood Magic.name": "Effekt: Engels-Blutmagie",
"entries.Effect: Angelic Blood Magic.description": "<p>Eine Engelsaura umgibt dich oder ein Ziel; die Aura verleiht einen Zustandsbonus von +1 auf Rettungswürfe für 1 Runde.</p>",
"entries.Effect: Demonic Blood Magic (Self).name": "Effekt: Dämonen-Blutmagie (Selbst)",
"entries.Effect: Demonic Blood Magic (Self).description": "<p>Die Last der Sünde macht dich beeindruckender. Du erhältst für 1 Runde einen Zustandsbonus von +1 auf Fertigkeitswürfe für Einschüchtern.</p>",
"entries.Effect: Demonic Blood Magic (Target).name": "Effekt: Dämonen-Blutmagie (Ziel)",
"entries.Effect: Demonic Blood Magic (Target).description": "<p>Die Last der Sünde schwächt die Verteidigungen eines Zieles. Ein Ziel erleidet für 1 Runde einen Zustandsmalus von -1 auf seine RK.</p>",
"entries.Effect: Diabolic Blood Magic (Self).name": "Effekt: Teufels-Blutmagie (Selbst)",
"entries.Effect: Diabolic Blood Magic (Self).description": "<p>Höllenfeuer füllt deinen Mund mit Lügen. Du erlangst einen Zustandsbonus von +1 auf Fertigkeitswürfe für Täuschung für 1 Runde.</p>",
"entries.Effect: Draconic Blood Magic.name": "Effekt: Drachen-Blutmagie",
"entries.Effect: Draconic Blood Magic.description": "<p>Drachenschuppen wachsen kurzfristig auf deiner Haut oder der eines Zieles; dies verleiht dir oder deinem Ziel 1 Runde lang einen Zustandsbonus von +1 auf die RK.</p>",
"entries.Effect: Elemental Blood Magic (Self).name": "Effekt: Elementar-Blutmagie (Selbst)",
"entries.Effect: Elemental Blood Magic (Self).description": "<p>Elementare Energie umgibt dich. Du erhältst 1 Runde lang einen Zustandsbonus von +1 auf Fertigkeitswürfe für Einschüchtern.</p>",
"entries.Effect: Fey Blood Magic.name": "Effekt: Feen-Blutmagie",
"entries.Effect: Fey Blood Magic.description": "<p>Farbenfrohe Feenillusionen umtanzen dich oder ein Ziel; sie verleihen für 1 Runde den Zustand Verborgen, sind aber zu offenkundig, als dass man sie für die Aktion Verstecken nutzen könnte.</p>",
"entries.Effect: Genie Blood Magic (Self).name": "Effekt: Quarin-Blutmagie (Selbst)",
"entries.Effect: Genie Blood Magic (Self).description": "<p>Deine Zauberei verzerrt die Realität und lenkt deine Gegner ab. Du erlangst einen Zustandsbonus von +1 auf Fertigkeitswürfe für Täuschung für 1 Runde.</p>",
"entries.Effect: Genie Blood Magic (Target).name": "Effekt: Quarin-Blutmagie (Ziel)",
"entries.Effect: Genie Blood Magic (Target).description": "<p>Deine Zauberei verzerrt die Realität und lenkt deine Gegner ab. Ein Ziel erleidet einen Zustandsmalus von -1 auf Wahrnehmung für 1 Runde.</p>",
"entries.Effect: Hag Blood Magic.name": "Effekt: Vettel-Blutmagie",
"entries.Effect: Hag Blood Magic.description": "<p>Hasserfüllte Flüche strafen deine Gegner. Die erste Kreatur, welche dir vor dem Ende deines nächsten Zuges Schaden zufügt, erleidet 2 Punkte mentalen Schaden pro Zauberstufe und muss einen Einfachen Willenswurf ablegen.</p>",
"entries.Effect: Imperial Blood Magic.name": "Effekt: Magier-Blutmagie",
"entries.Effect: Imperial Blood Magic.description": "<p>Ein Schub von Erinnerungen deiner Vorfahren verleiht dir oder einem Ziel 1 Runde lang einen Zustandsbonus von +1 auf Fertigkeitswürfe.</p>",
"entries.Effect: Major Battle Curse.name": "Effekt: Mächtiger Schlacht Fluch",
"entries.Effect: Major Battle Curse.description": "<p>Dein Körper stellt sich als in der Lage heraus, wahre Heldentaten zu vollbringen, allerdings auf Kosten deiner geistigen Standfestigkeit.</p>\n<p>Du erleidest Zustandsmali von –2 auf deine RK und Rettungswürfe, doch immer, wenn du einen Angriff ausführst, kannst du diese Mali bis zum Beginn deines nächsten Zuges auf -1 reduzieren.</p>\n<p>Du erhältst einen Zustandsbonus von +6 auf Schadenswürfe mit Waffen und Waffenlosen Angriffen. Weiterhin erhältst du während nicht-trivialer Kampfbegegnungen Schnelle Heilung in Höhe deiner Stufe.</p><hr />\n<p>Du erhältst einen Zustandsbonus von +1 auf Angriffswürfe mit Waffen und Waffenlosen Angriffen, erleidest aber den Zustand @Compendium[pf2e.conditionitems.e1XGnhKNSQIm5IXg]{Benommen 2}.</p>\n<p><em>Hinweis: Den Benommen-Zustand und die Schnelle Heilung musst du manuell zuweisen, der Rest erfolgt automatisch.</em></p>",
"entries.Effect: Major Bones Curse.name": "Effekt: Mächtiger Gebeine Fluch",
"entries.Effect: Major Bones Curse.description": "<p>Du stehst mit einem Bein im Grab.</p>\n<p>Du erhältst von nicht-magischen Effekten, durch die du Trefferpunkte zurückgewinnen würdest, nur die Hälfte der normalen Anzahl an TP zurück.</p>\n<p>Du erhältst den Zustand @Compendium[pf2e.conditionitems.4D2KBtexWXa6oUMR]{Ausgelaugt 1}. Dieser Zustand ist kumulativ mit dem Zustand Ausgelaugt, der dir von anderen Effekten zugefügt wird. Du kannst diesen Zustand nur aufheben, indem du die Handlung Fokus erneuern nutzt. Effekte, die normalerweise deinen Zustand Ausgelaugt aufheben würden, reduzieren deinen Zustandswert für Ausgelaugt auf 1. Weiterhin erlangst du Resistenz gegen Gift in Höhe deiner halben Stufe. Du erhältst einen Zustandsbonus von +4 auf Rettungswürfe gegen Gift, Krankheiten und Todeseffekte und wenn du dabei einen Erfolg erzielst, zählt er stattdessen als Kritischer Erfolg. Wenn du dabei einen Kritischen Fehlschlag erzielst, zählt er stattdessen als Fehlschlag.</p>\n<p>Du erleidest den Zustand @Compendium[pf2e.conditionitems.Yl48xTdMh3aeQYL2]{Verwundet 1}. Du kannst diesen Zustand nur aufheben, indem du die Handlung Fokus erneuern nutzt. Effekte, die normalerweise deinen Zustand Verwundet aufheben würden, reduzieren deinen Zustandswert für Verwundet auf 1. Wenn du einen Erholungswurf ablegen musst, kannst du dich entscheiden, nicht zu würfeln und einen automatischen Erfolg zu erzielen.</p><hr />\n<p><em>Hinweis: Der Bonus auf RW wird automatisch angewendet. Die restlichen Effekte musst du manuell zuweisen.</em></p>",
"entries.Effect: Major Cosmos Curse.name": "Effekt: Mächtiger Kosmos Fluch",
"entries.Effect: Major Cosmos Curse.description": "<p>Dein Körper hebt ab und du schwebst gerade so über dem Boden.</p>\n<p>Du hast den Zustand @Compendium[pf2e.conditionitems.MIRkyAjyBeXivMa7]{Kraftlos 4} und hast einen Malus von –4 auf Rettungswürfe und den SG gegen @Compendium[pf2e.actionspf2e.PMbdMWc2QroouFGD]{Ergreifen}, @Compendium[pf2e.actionspf2e.7blmbDrQFNfdT731]{Fortstossen}, und andere Formen erzwungener Bewegung.</p>\n<p>Für Windeffekte wirst du behandelt als wärest du eine Größenkategorie kleiner. Du erhältst einen Zustandsbonus von +2 gegen @Compendium[pf2e.actionspf2e.ge56Lu1xXVFYUnLP]{Zu Fall bringen}, erleidest nur den halben Schaden von Stürzen und erhältst die Auswirkungen der Fertigkeitstalente @Compendium[pf2e.feats-srd.HJYQlmGTdtyGWr6a]{Mächtiger Sprung} und @Compendium[pf2e.feats-srd.ZBhvJ9O8MvBFAlhq]{Schnelles Springen}. Du wiegst nur die Hälfte und sollte dich jemand tragen müssen, ist auch deine Last halbiert.</p>\n<p>Du kannst auf Flüssigkeiten laufen wie über festen Boden, erhältst die Auswirkungen des Fertigkeitstalents Wolkensprung und hinterlässt keine Spuren, löst keine Druckplatten aus, die durch Belastung ausgelöst werden, und hast auch in anderer Hinsicht keine direkte Verbindung zum Boden.</p><hr />\n<p><em>Hinweis: Der Bonus und die Mali auf RW werden automatisch angewendet. Die restlichen Effekte musst du manuell zuweisen.</em></p>",
"entries.Effect: Major Flames Curse.name": "Effekt: Mächtiger Flammen Fluch",
"entries.Effect: Major Flames Curse.description": "<p>Die Flammen, die dich umhüllen, sind nicht mehr einfach nur Visionen. </p>\n<p>Du erhältst gegenüber anderen Kreaturen den Zustand @Compendium[pf2e.conditionitems.DmAIPqOBomZ7H95W]{Verborgen}. Da diese Kreaturen aber nicht verflucht sind, können sie ganz normal von Effekten profitieren, die es ihnen ermöglichen, diese Tarnung zu umgehen oder zu reduzieren. Alle anderen Kreaturen und Gegenstände haben für dich den Zustand @Compendium[pf2e.conditionitems.DmAIPqOBomZ7H95W]{Verborgen}. Wenn du jedoch einen Zauber der Kategorie Feuer wirkst, gelingt dir der Einfache Wurf, um ein Ziel mit dem Zustand Verborgen auszuwählen, automatisch, sofern es sich innerhalb von 9 m von dir befindet.</p>\n<p>Jenseits von 9 m zählen alle deine Sinne als ungenau. Dies bedeutet, dass alles, was weiter als 9 m von dir entfernt ist, und was du normalerweise sehen könntest, dir gegenüber den Zustand @Compendium[pf2e.conditionitems.iU0fEDdBp3rXpTMC]{Versteckt} hat.</p>\n<p>Eine Feueraura umgibt dich in einem Umkreis von 3 m und fügt am Ende deines jeden Zuges allen Kreaturen, die sich innerhalb der Aura befinden, [[/r 4d6 #Feuer]] Punkte Feuerschaden zu (Einfacher REF). Du verlierst in jeder Runde am Ende deines Zuges [[/r 1d6]] Trefferpunkte ohne Rettungswurf. Wenn du Schwäche gegen Feuer hast, erhöhe die Anzahl der TP, die du verlierst, um den Wert dieser Schwäche.</p>\n<p>Du kannst deine Aura bis zum Beginn deines nächsten Zuges unterdrücken, indem du eine einzelne Aktion mit der Kategorie Konzentration aufwändest. Dadurch schwinden die Flammen und weder du selbst noch sonst jemand innerhalb der Aura nimmt Schaden. Wenn du die Handlung Fokus erneuern nutzt, unterdrückst du die Aura während der gesamten Zeit, sodass du keine TP verlierst. Die Flammen klingen auch ab, wenn du @Compendium[pf2e.conditionitems.fBnFDH2MTzgFijKf]{bewusstlos} wirst, kehren aber zurück, sobald du wieder zu dir kommst, es sei denn, es ist genug Zeit vergangen, dass dein Fluch seine Wirkung verliert. Wie üblich bei Mystikerflüchen kannst du den Verlust von Trefferpunkten nicht abschwächen oder verhindern, du kannst aber die verlorenen TP anschließend auf normale Weise heilen.</p>\n<hr />\n<p><em>Hinweis: Du musst die Effekte dieses Fluchs manuell zuweisen.</em></p>",
"entries.Effect: Major Life Curse.name": "Effekt: Mächtiger Leben Fluch",
"entries.Effect: Major Life Curse.description": "<p>Lebensenergie fährt durch dich hindurch und verstärkt deine Magie. Manche deiner Zauber tragen positive Energie in sich.</p>\n<p>Effekte, über die du Trefferpunkte zurückerhältst, erleiden einen Zustandsmalus in Höhe deiner halben Stufe (mindestens 1) auf die Anzahl der zurückgewonnenen TP</p>\n<p>Zusätzlich kannst du nicht durch magische Effekte, die von anderen Kreaturen ausgehen, geheilt werden. Wenn du jedoch bewusstlos bist, kann ein magischer Effekt dich auf 1 TP zurückbringen (jedoch nicht höher). Elixiere, Tränke und andere Gegenständer, die Heilung gewähren, wirken normal auf dich. Wenn du Heilung wirkst und alle deine Ziele lebende Kreaturen sind, würfelst du für die Höhe der Heilung mit W12 statt W8.</p>\n<p>Wenn du eine Handlung abschließt, mit der du einen Zauber wirkst, bei dem es sich nicht um einen Zaubertrick handelt, erhält – nach deiner Wahl – entweder eines der Ziele des Zaubers oder die Kreatur, welche sich dir am nächsten befindet Trefferpunkte in Höhe des Zaubergrades zurück. Du kannst dich auf diese Weise jedoch nicht selbst heilen, Diese Heilung hat die Kategorien Heilung, Nekromantie und Positiv, sowie die Kategorie der Tradition des Zaubers.</p>\n<p>Immer wenn du einen Zauberplatz verwendest, um einen Zauber des 5. Grades oder höher zu wirken, welcher 2 oder mehr Aktionen erfordert, um ihn zu wirken, strahlst du in einem Umkreis von 9 m positive Energie aus, mit der Wirkung des Zaubers Heilung wie mit 3 Aktionen gewirkt und mit einem um 4 niedrigeren Grad als der Zauber, den du gewirkt hast. Diese Heilung tritt in Kraft unmittelbar, nachdem du die Handlung Zauber wirken abgeschlossen hast. Du selbst kannst von dieser Heilung keinen Nutzen ziehen. Stattdessen verlierst du die doppelte Anzahl an Trefferpunkten, die du für die Heilung erwürfelt hast.</p>\n<hr />\n<p><em>Hinweis: Du musst die Effekte dieses Fluchs manuell zuweisen.</em></p>",
"entries.Effect: Major Lore Curse.name": "Effekt: Mächtiger Wissen Fluch",
"entries.Effect: Major Lore Curse.description": "<p>Die immense Fülle an Informationen, die deinen Verstand durchströmt, überwältigt deine Fähigkeit, mit anderen zu kommunizieren. Du verstehst alle Sprachen, kannst aber nicht sprechen, keine Effekte mit der Kategorie Sprache verwenden und auch sonst nicht mit deinen Verbündeten kommunizieren.</p>\n<p>Du erleidest einen Malus von –4 auf Initiativewürfe, weil die Flut von Informationen darüber, was um dich herum geschieht, deine Fähigkeit, darauf zu reagieren, ausbremst.</p>\n<p>Weil du dieser gewaltigen Menge von Informationen Aufmerksamkeit widmen musst, bist du stets @Compendium[pf2e.conditionitems.AJh5ex99aV6VTggg]{Auf dem Falschen Fuß} betroffen. Zu Beginn deines jeden Zuges kannst du einen Fertigkeitswurf zum @Compendium[pf2e.actionspf2e.KygTSeDvsFoSO6HW]{Wissen abrufen} als freie Aktion ausführen. Dabei kannst du eine Fertigkeit deiner Wahl einsetzen, für die es Wissen abrufen gibt, und dein Ergebnis beträgt automatisch 10 + dein Kompetenzbonus in dieser Fertigkeit (ohne jede sonstige Boni, Mali oder Modifikatoren).</p>\n<p>Wenn du einen Zauber mit verbaler Komponente wirkst, musst du einen Einfachen Wurf gegen SG 5 ablegen. Bei einem Fehlschlag ist der Zauber verloren. Du erhältst einen Zustandsbonus von +4 auf Rettungswürfe gegen Effekte mit der Kategorie Sprache.</p>\n<hr />\n<p><em>Hinweis: Der Bonus auf RW und Malus auf Initiative-Würfe wird automatisch angewendet. Du musst die restlichen Effekte manuell zuweisen.</em></p>",
"entries.Effect: Major Martial Ancestor Curse.name": "Effekt: Mächtiger Kriegerischer Ahnen Fluch",
"entries.Effect: Major Martial Ancestor Curse.description": "<p>Einer deiner kriegerischen Ahnen erlangt die Oberhand bei deren Einmischung. Dieser vorherrschende Ahne geleitet dich dazu, seine bevorzugte Handlung auszuführen, und du erlangst den Vorteil, der in der Tabelle für den vorherrschenden Ahnen aufgeführt ist. Wenn du versuchst eine Handlung auszuführen, die für einen anderen Ahnen aufgeführt ist, musst du einen erfolgreichen Einfachen Wurf gegen SG 8 ablegen. Bei einem Fehlschlag wendest du die Handlung auf, erzielst aber keinen Effekt. (Du verlierst keinen Zauber, wenn du Zauber wirken nutzen wolltest.) Wenn deine Handlung 1 Minute oder länger dauern würde, ist dies lang genug, dass du die Einmischung unterdrücken kannst, und du musst keinen Einfachen Wurf ablegen.</p>\n<p>Im Kampf oder bei anderen angespannten Situationen, die Runde um Runde abgewickelt werden, versuchen andere Ahnen, Einfluss auf deine Handlungen zu erlangen. Wenn du für Initiative würfelst, und dann am Ende deines jeden Zuges in der Begegnung, würfle [[/r 1d4]] und ändere den vorherrschen Ahnen entsprechend. Sobald die Begegnung endet, erlangt wieder der Ahne die Oberhand, den du als Ersten an diesem Tag ausgewürfelt hast.</p>\n<h4>Einfluss der Ahnen</h4>\n<table class=\"pf2-table\" style=\"width: 100%;\">\n<tbody>\n<tr>\n<th style=\"width: 4.5em;\">1W4</th>\n<th style=\"width: 7.4em;\">Ahne</th>\n<th style=\"width: 9em;\">Bevorzugte Aktion</th>\n<th>Vorteil</th>\n</tr>\n<tr>\n<td>1</td>\n<td>Kriegerisch</td>\n<td>Angriffe</td>\n<td>Du erhältst einen Zustandsbonus von +1 auf Angriffswürfe und einen Zustandsbonus von +6 auf Schadenswürfe.</td>\n</tr>\n<tr>\n<td>2</td>\n<td>Fähig</td>\n<td>Wahrnehmung und Fertigkeits- handlungen</td>\n<td>Du erhältst einen Zustandsbonus von +2 auf Fertigkeitswürfe und Wahrnehmungswürfe.</td>\n</tr>\n<tr>\n<td>3</td>\n<td>Zauberei</td>\n<td>Zauber wirken</td>\n<td>Zauber ohne Wirkungsdauer erhalten einen Zustandsbonus auf Schaden und Heilung in Höhe ihrer Stufe +3 (Zaubertricks ausgenommen).</td>\n</tr>\n<tr>\n<td>4</td>\n<td colspan=\"3\">Du wählst aus, welcher Ahne deine Handlungen geleitet.</td>\n</tr>\n</tbody>\n</table>\n<hr />\n<p><em>Hinweis: Du musst den einfachen Wurf bei der Benutzung einer Aktion eines anderen Ahnen manuell ablegen. Die restlichen Effekte dieses Fluchs werden automatisch angewendet.</em></p>",
"entries.Effect: Major Skillful Ancestor Curse.name": "Effekt: Mächtiger Fähiger Ahnen Fluch",
"entries.Effect: Major Skillful Ancestor Curse.description": "<p>Einer deiner kriegerischen Ahnen erlangt die Oberhand bei deren Einmischung. Dieser vorherrschende Ahne geleitet dich dazu, seine bevorzugte Handlung auszuführen, und du erlangst den Vorteil, der in der Tabelle für den vorherrschenden Ahnen aufgeführt ist. Wenn du versuchst eine Handlung auszuführen, die für einen anderen Ahnen aufgeführt ist, musst du einen erfolgreichen Einfachen Wurf gegen SG 8 ablegen. Bei einem Fehlschlag wendest du die Handlung auf, erzielst aber keinen Effekt. (Du verlierst keinen Zauber, wenn du Zauber wirken nutzen wolltest.) Wenn deine Handlung 1 Minute oder länger dauern würde, ist dies lang genug, dass du die Einmischung unterdrücken kannst, und du musst keinen Einfachen Wurf ablegen.</p>\n<p>Im Kampf oder bei anderen angespannten Situationen, die Runde um Runde abgewickelt werden, versuchen andere Ahnen, Einfluss auf deine Handlungen zu erlangen. Wenn du für Initiative würfelst, und dann am Ende deines jeden Zuges in der Begegnung, würfle [[/r 1d4]] und ändere den vorherrschen Ahnen entsprechend. Sobald die Begegnung endet, erlangt wieder der Ahne die Oberhand, den du als Ersten an diesem Tag ausgewürfelt hast.</p>\n<h4>Einfluss der Ahnen</h4>\n<table class=\"pf2-table\" style=\"width: 100%;\">\n<tbody>\n<tr>\n<th style=\"width: 4.5em;\">1W4</th>\n<th style=\"width: 7.4em;\">Ahne</th>\n<th style=\"width: 9em;\">Bevorzugte Aktion</th>\n<th>Vorteil</th>\n</tr>\n<tr>\n<td>1</td>\n<td>Kriegerisch</td>\n<td>Angriffe</td>\n<td>Du erhältst einen Zustandsbonus von +1 auf Angriffswürfe und einen Zustandsbonus von +6 auf Schadenswürfe.</td>\n</tr>\n<tr>\n<td>2</td>\n<td>Fähig</td>\n<td>Wahrnehmung und Fertigkeits- handlungen</td>\n<td>Du erhältst einen Zustandsbonus von +2 auf Fertigkeitswürfe und Wahrnehmungswürfe.</td>\n</tr>\n<tr>\n<td>3</td>\n<td>Zauberei</td>\n<td>Zauber wirken</td>\n<td>Zauber ohne Wirkungsdauer erhalten einen Zustandsbonus auf Schaden und Heilung in Höhe ihrer Stufe +3 (Zaubertricks ausgenommen).</td>\n</tr>\n<tr>\n<td>4</td>\n<td colspan=\"3\">Du wählst aus, welcher Ahne deine Handlungen geleitet.</td>\n</tr>\n</tbody>\n</table>\n<hr />\n<p><em>Hinweis: Du musst den einfachen Wurf bei der Benutzung einer Aktion eines anderen Ahnen manuell ablegen. Die restlichen Effekte dieses Fluchs werden automatisch angewendet.</em></p>",
"entries.Effect: Major Spellcasting Ancestor Curse.name": "Effekt: Mächtiger Zauberei Ahnen Fluch",
"entries.Effect: Major Spellcasting Ancestor Curse.description": "<p>Einer deiner kriegerischen Ahnen erlangt die Oberhand bei deren Einmischung. Dieser vorherrschende Ahne geleitet dich dazu, seine bevorzugte Handlung auszuführen, und du erlangst den Vorteil, der in der Tabelle für den vorherrschenden Ahnen aufgeführt ist. Wenn du versuchst eine Handlung auszuführen, die für einen anderen Ahnen aufgeführt ist, musst du einen erfolgreichen Einfachen Wurf gegen SG 8 ablegen. Bei einem Fehlschlag wendest du die Handlung auf, erzielst aber keinen Effekt. (Du verlierst keinen Zauber, wenn du Zauber wirken nutzen wolltest.) Wenn deine Handlung 1 Minute oder länger dauern würde, ist dies lang genug, dass du die Einmischung unterdrücken kannst, und du musst keinen Einfachen Wurf ablegen.</p>\n<p>Im Kampf oder bei anderen angespannten Situationen, die Runde um Runde abgewickelt werden, versuchen andere Ahnen, Einfluss auf deine Handlungen zu erlangen. Wenn du für Initiative würfelst, und dann am Ende deines jeden Zuges in der Begegnung, würfle [[/r 1d4]] und ändere den vorherrschen Ahnen entsprechend. Sobald die Begegnung endet, erlangt wieder der Ahne die Oberhand, den du als Ersten an diesem Tag ausgewürfelt hast.</p>\n<h4>Einfluss der Ahnen</h4>\n<table class=\"pf2-table\" style=\"width: 100%;\">\n<tbody>\n<tr>\n<th style=\"width: 4.5em;\">1W4</th>\n<th style=\"width: 7.4em;\">Ahne</th>\n<th style=\"width: 9em;\">Bevorzugte Aktion</th>\n<th>Vorteil</th>\n</tr>\n<tr>\n<td>1</td>\n<td>Kriegerisch</td>\n<td>Angriffe</td>\n<td>Du erhältst einen Zustandsbonus von +1 auf Angriffswürfe und einen Zustandsbonus von +6 auf Schadenswürfe.</td>\n</tr>\n<tr>\n<td>2</td>\n<td>Fähig</td>\n<td>Wahrnehmung und Fertigkeits- handlungen</td>\n<td>Du erhältst einen Zustandsbonus von +2 auf Fertigkeitswürfe und Wahrnehmungswürfe.</td>\n</tr>\n<tr>\n<td>3</td>\n<td>Zauberei</td>\n<td>Zauber wirken</td>\n<td>Zauber ohne Wirkungsdauer erhalten einen Zustandsbonus auf Schaden und Heilung in Höhe ihrer Stufe +3 (Zaubertricks ausgenommen).</td>\n</tr>\n<tr>\n<td>4</td>\n<td colspan=\"3\">Du wählst aus, welcher Ahne deine Handlungen geleitet.</td>\n</tr>\n</tbody>\n</table>\n<hr />\n<p><em>Hinweis: Du musst den einfachen Wurf bei der Benutzung einer Aktion eines anderen Ahnen manuell ablegen. Die restlichen Effekte dieses Fluchs werden automatisch angewendet.</em></p>",
"entries.Effect: Major Tempest Curse.name": "Effekt: Mächtiger Sturm Fluch",
"entries.Effect: Major Tempest Curse.description": "<p>Die Aura eines Wirbelsturms manifestiert sich in einem Umkreis von 4,50 m in und um deine Angriffsfläche. Ein kräftiger Wind bläst nach außen und schränkt die Bewegung von Kreaturen ein. Diese Aura löscht kleine, nicht-magische Feuer 1 Runde, nachdem sie entzündet oder in die Aura gebracht wurden. Der wehende Wind legt Fernkampfangriffen mit materieller Munition, die von dir ausgehen oder dich als Ziel haben, einen Situationsmalus von –2 auf.</p>\n<p>In diesem Sturm baut sich elektrische Energie auf, die dich zu einem Blitzableiter macht. Du erhältst Schwäche 5 oder deine halbe Stufe, je nachdem was höher ist, gegen Elektrizität. Für Zauber oder Effekte der Kategorie Elektrizität, die zusätzliche Effekte gegen Kreaturen haben, die Gegenstände aus Metall tragen oder halten, wirst du behandelt, als würdest du Metall tragen. Der sintflutartige Regen gewährt dir jedoch Resistenz gegen Feuer in gleicher Höhe. Jede Kreatur, die dich berührt, auch mit einem Berührungszauber oder einem Waffenlosen Angriff im Nahkampf, erleidet [[/r 1d6 #Elektrizität]] Punkte Elektrizitätsschaden.</p><hr />\n<p><em>Hinweis: Der Malus auf Fernkampfangriffe wird automatisch angewendet. Die restlichen Effekte musst du manuell zuweisen.</em></p>",
"entries.Effect: Minor Battle Curse.name": "Effekt: Schwacher Schlacht Fluch",
"entries.Effect: Minor Battle Curse.description": "<p>Dein Körper schmachtet dahin, wenn du Feinden kein Leid zufügst. Du erleidest Zustandsmali von –2 auf deine RK und Rettungswürfe, doch immer, wenn du einen Angriff ausführst, kannst du diese Mali bis zum Beginn deines nächsten Zuges unterdrücken.</p><hr />\n<p><em>Hinweis: Die Effekte dieses Fluchs werden automatisch angewendet.</em></p>",
"entries.Effect: Minor Bones Curse.name": "Effekt: Schwacher Gebeine Fluch",
"entries.Effect: Minor Bones Curse.description": "<p>Knochen ragen durch deine Haut, dein Fleisch fault und ein Gestank nach Verwesung und eine überirdische Kälte umgeben dich.</p>\n<p>Du erhältst von nicht-magischen Effekten, durch die du Trefferpunkte zurückgewinnen würdest, nur die Hälfte der normalen Anzahl an TP zurück.</p><hr />\n<p><em>Hinweis: Du musst die Effekte dieses Fluchs manuell zuweisen.</em></p>",
"entries.Effect: Minor Cosmos Curse.name": "Effekt: Schwacher Kosmos Fluch",
"entries.Effect: Minor Cosmos Curse.description": "<p>Deine unnatürliche Leichtigkeit erschwert es dir, einen festen Stand zu bewahren und mit materiellen Gegenständen zu hantieren. Du hast den Zustand @Compendium[pf2e.conditionitems.MIRkyAjyBeXivMa7]{Kraftlos 1} und erleidest einen Malus von –2 auf Rettungswürfe und SG gegen @Compendium[pf2e.actionspf2e.PMbdMWc2QroouFGD]{Ergreifen}, @Compendium[pf2e.actionspf2e.7blmbDrQFNfdT731]{Fortstoßen} und andere Arten erzwungener Bewegung.</p><hr />\n<p><em>Hinweis: Du musst die Effekte dieses Fluchs manuell zuweisen</em></p>",
"entries.Effect: Minor Flames Curse.name": "Effekt: Schwacher Flammen Fluch",
"entries.Effect: Minor Flames Curse.description": "<p>Der Rauch, die Hitze und die knisternden Flammen deines Fluches füllen dein Sichtfeld und dringen auch in deine anderen Sinne ein. Kreaturen, die weiter als 9 m von dir entfernt sind, haben für dich den Zustand @Compendium[pf2e.conditionitems.DmAIPqOBomZ7H95W]{Verborgen}. Du kannst von keinem Effekt profitieren, der es dir ermöglichen würde, diese Tarnung zu umgehen oder zu reduzieren, wie es für die Auswirkungen eines Mystikerfluchs üblich ist.</p><hr />\n<p><em>Hinweis: Du musst die Effekte dieses Fluchs manuell zuweisen.</em></p>",
"entries.Effect: Minor Life Curse.name": "Effekt: Schwacher Leben Fluch",
"entries.Effect: Minor Life Curse.description": "<p>Je mehr deine Lebenskraft aus dir hervorquillt, um so schwieriger wird es für deinen Körper, seine Funktionen aufrechtzuerhalten.</p>\n<p>Effekte, über die du Trefferpunkte zurückerhältst, erleiden einen Zustandsmalus in Höhe deiner halben Stufe (mindestens 1) auf die Anzahl der zurückgewonnenen TP</p><hr />\n<p><em>Hinweis: Du musst die Effekte dieses Fluchs manuell zuweisen.</em></p>",
"entries.Effect: Minor Lore Curse.name": "Effekt: Schwacher Wissen Fluch",
"entries.Effect: Minor Lore Curse.description": "<p>Du erleidest einen Malus von –4 auf Initiativewürfe, weil die Flut von Informationen darüber, was um dich herum geschieht, deine Fähigkeit, darauf zu reagieren, ausbremst.</p><hr />\n<p><em>Hinweis: die Effekte dieses Fluchs werden automatisch angewendet.</em></p>",
"entries.Effect: Minor Martial Ancestor Curse.name": "Effekt: Schwacher Kriegerische Ahnen Fluch",
"entries.Effect: Minor Martial Ancestor Curse.description": "<p>Einer deiner kriegerischen Ahnen erlangt die Oberhand bei deren Einmischung. Dieser vorherrschende Ahne geleitet dich dazu, seine bevorzugte Handlung auszuführen. Wenn du versuchst eine Handlung auszuführen, die für einen anderen Ahnen aufgeführt ist, musst du einen erfolgreichen Einfachen Wurf gegen SG 4 ablegen. Bei einem Fehlschlag wendest du die Handlung auf, erzielst aber keinen Effekt. (Du verlierst keinen Zauber, wenn du Zauber wirken nutzen wolltest.) Wenn deine Handlung 1 Minute oder länger dauern würde, ist dies lang genug, dass du die Einmischung unterdrücken kannst, und du musst keinen Einfachen Wurf ablegen.</p>\n<p>Im Kampf oder bei anderen angespannten Situationen, die Runde um Runde abgewickelt werden, versuchen andere Ahnen, Einfluss auf deine Handlungen zu erlangen. Wenn du für Initiative würfelst, und dann am Ende deines jeden Zuges in der Begegnung, würfle [[/r 1d4]] und ändere den vorherrschen Ahnen entsprechend. Sobald die Begegnung endet, erlangt wieder der Ahne die Oberhand, den du als Ersten an diesem Tag ausgewürfelt hast.</p>\n<h4>Einfluss der Ahnen</h4>\n<table class=\"pf2-table\" style=\"width: 100%;\">\n<tr><th style=\"width: 4.5em;\">1W4</th><th style=\"width: 7.4em;\">Ahne</th><th>Bevorzugte Aktion</th></tr>\n<tr><td>1</td><td>Kriegerisch</td><td>Angriffe</td></tr>\n<tr><td>2</td><td>Fähig</td><td>Wahrnehmung und Fertigkeitshandlungen</td></tr>\n<tr><td>3</td><td>Zauberei</td><td>Zauber wirken</td></tr>\n<tr><td>4</td><td colspan=\"2\">Du wählst aus, welcher Ahne deine Handlungen geleitet.</td></tr>\n</table>\n<hr />\n<p><em>Hinweis: Du musst die Effekte dieses Fluchs manuell zuweisen.</em></p>",
"entries.Effect: Minor Skillful Ancestor Curse.name": "Effekt: Schwacher Fähiger Ahnen Fluch",
"entries.Effect: Minor Skillful Ancestor Curse.description": "<p>Einer deiner kriegerischen Ahnen erlangt die Oberhand bei deren Einmischung. Dieser vorherrschende Ahne geleitet dich dazu, seine bevorzugte Handlung auszuführen. Wenn du versuchst eine Handlung auszuführen, die für einen anderen Ahnen aufgeführt ist, musst du einen erfolgreichen Einfachen Wurf gegen SG 4 ablegen. Bei einem Fehlschlag wendest du die Handlung auf, erzielst aber keinen Effekt. (Du verlierst keinen Zauber, wenn du Zauber wirken nutzen wolltest.) Wenn deine Handlung 1 Minute oder länger dauern würde, ist dies lang genug, dass du die Einmischung unterdrücken kannst, und du musst keinen Einfachen Wurf ablegen.</p>\n<p>Im Kampf oder bei anderen angespannten Situationen, die Runde um Runde abgewickelt werden, versuchen andere Ahnen, Einfluss auf deine Handlungen zu erlangen. Wenn du für Initiative würfelst, und dann am Ende deines jeden Zuges in der Begegnung, würfle [[/r 1d4]] und ändere den vorherrschen Ahnen entsprechend. Sobald die Begegnung endet, erlangt wieder der Ahne die Oberhand, den du als Ersten an diesem Tag ausgewürfelt hast.</p>\n<h4>Einfluss der Ahnen</h4>\n<table class=\"pf2-table\" style=\"width: 100%;\">\n<tr><th style=\"width: 4.5em;\">1W4</th><th style=\"width: 7.4em;\">Ahne</th><th>Bevorzugte Aktion</th></tr>\n<tr><td>1</td><td>Kriegerisch</td><td>Angriffe</td></tr>\n<tr><td>2</td><td>Fähig</td><td>Wahrnehmung und Fertigkeitshandlungen</td></tr>\n<tr><td>3</td><td>Zauberei</td><td>Zauber wirken</td></tr>\n<tr><td>4</td><td colspan=\"2\">Du wählst aus, welcher Ahne deine Handlungen geleitet.</td></tr>\n</table>\n<hr />\n<p><em>Hinweis: Du musst die Effekte dieses Fluchs manuell zuweisen.</em></p>",
"entries.Effect: Minor Spellcaster Ancestor Curse.name": "Effekt: Schwacher Zauberei Ahnen Fluch",
"entries.Effect: Minor Spellcaster Ancestor Curse.description": "<p>Einer deiner kriegerischen Ahnen erlangt die Oberhand bei deren Einmischung. Dieser vorherrschende Ahne geleitet dich dazu, seine bevorzugte Handlung auszuführen. Wenn du versuchst eine Handlung auszuführen, die für einen anderen Ahnen aufgeführt ist, musst du einen erfolgreichen Einfachen Wurf gegen SG 4 ablegen. Bei einem Fehlschlag wendest du die Handlung auf, erzielst aber keinen Effekt. (Du verlierst keinen Zauber, wenn du Zauber wirken nutzen wolltest.) Wenn deine Handlung 1 Minute oder länger dauern würde, ist dies lang genug, dass du die Einmischung unterdrücken kannst, und du musst keinen Einfachen Wurf ablegen.</p>\n<p>Im Kampf oder bei anderen angespannten Situationen, die Runde um Runde abgewickelt werden, versuchen andere Ahnen, Einfluss auf deine Handlungen zu erlangen. Wenn du für Initiative würfelst, und dann am Ende deines jeden Zuges in der Begegnung, würfle [[/r 1d4]] und ändere den vorherrschen Ahnen entsprechend. Sobald die Begegnung endet, erlangt wieder der Ahne die Oberhand, den du als Ersten an diesem Tag ausgewürfelt hast.</p>\n<h4>Einfluss der Ahnen</h4>\n<table class=\"pf2-table\" style=\"width: 100%;\">\n<tr><th style=\"width: 4.5em;\">1W4</th><th style=\"width: 7.4em;\">Ahne</th><th>Bevorzugte Aktion</th></tr>\n<tr><td>1</td><td>Kriegerisch</td><td>Angriffe</td></tr>\n<tr><td>2</td><td>Fähig</td><td>Wahrnehmung und Fertigkeitshandlungen</td></tr>\n<tr><td>3</td><td>Zauberei</td><td>Zauber wirken</td></tr>\n<tr><td>4</td><td colspan=\"2\">Du wählst aus, welcher Ahne deine Handlungen geleitet.</td></tr>\n</table>\n<hr />\n<p><em>Hinweis: Du musst die Effekte dieses Fluchs manuell zuweisen.</em></p>",
"entries.Effect: Minor Tempest Curse.name": "Effekt: Schwacher Sturm Fluch",
"entries.Effect: Minor Tempest Curse.description": "<p>Die Aura eines Wirbelsturms manifestiert sich in einem Umkreis von 1,50 m in und um deine Angriffsfläche. Diese Aura löscht kleine, nicht-magische Feuer 1 Runde, nachdem sie entzündet oder in die Aura gebracht wurden.</p>\n<p>In diesem Sturm baut sich elektrische Energie auf, die dich zu einem Blitzableiter macht. Du erhältst Schwäche 2 gegen Elektrizität und für Zauber oder Effekte der Kategorie Elektrizität, die zusätzliche Effekte gegen Kreaturen haben, die Gegenstände aus Metall tragen oder halten, wirst du behandelt, als würdest du Metall tragen.</p><hr />\n<p><em>Hinweis: Du must die Effekte dieses Fluchs manuell zuweisen.</em></p>",
"entries.Effect: Moderate Battle Curse.name": "Effekt: Durchschnittlicher Schlacht Fluch",
"entries.Effect: Moderate Battle Curse.description": "<p>Die Belastungen des Kampfes nehmen deinen Körper in Mitleidenschaft, verleihen dir aber auch Lebenskraft.</p>\n<p>Du erleidest Zustandsmali von –2 auf deine RK und Rettungswürfe, doch immer, wenn du einen Angriff ausführst, kannst du diese Mali bis zum Beginn deines nächsten Zuges auf -1 reduzieren.</p>\n<p>Du erhältst einen Zustandsbonus von +2 auf Schadenswürfe mit Waffen und Waffenlosen Angriffen. Weiterhin erhältst du während nicht-trivialer Kampfbegegnungen Schnelle Heilung in Höhe deiner halben Stufe.</p><hr />\n<p><em>Hinweis: Die Schnelle Heilung musst du manuell zuweisen, der Rest erfolgt automatisch.</em></p>",
"entries.Effect: Moderate Bones Curse.name": "Effekt: Durchschnittlicher Gebeine Fluch",
"entries.Effect: Moderate Bones Curse.description": "<p>Dein totes Fleisch verfault immer weiter und dies beeinflusst deine Gesundheit.</p>\n<p>Du erhältst von nicht-magischen Effekten, durch die du Trefferpunkte zurückgewinnen würdest, nur die Hälfte der normalen Anzahl an TP zurück.</p>\n<p>Du erhältst den Zustand @Compendium[pf2e.conditionitems.4D2KBtexWXa6oUMR]{Ausgelaugt 1}. Dieser Zustand ist kumulativ mit dem Zustand Ausgelaugt, der dir von anderen Effekten zugefügt wird. Du kannst diesen Zustand nur aufheben, indem du die Handlung Fokus erneuern nutzt. Effekte, die normalerweise deinen Zustand Ausgelaugt aufheben würden, reduzieren deinen Zustandswert für Ausgelaugt auf 1. Weiterhin erlangst du Resistenz gegen Gift in Höhe deiner halben Stufe. Du erhältst einen Zustandsbonus von +4 auf Rettungswürfe gegen Gift, Krankheiten und Todeseffekte und wenn du dabei einen Erfolg erzielst, zählt er stattdessen als Kritischer Erfolg.</p><hr />\n<p><em>Hinweis: Der Bonus auf Rettungswürfe wird automatisch angewendet. Die restlichen Effekte musst du manuell zuweisen.</em></p>",
"entries.Effect: Moderate Cosmos Curse.name": "Effekt: Durchschnittlicher Kosmos Fluch",
"entries.Effect: Moderate Cosmos Curse.description": "<p>Dein Körper wird stärker zum Himmel hingezogen. Du hast den Zustand @Compendium[pf2e.conditionitems.MIRkyAjyBeXivMa7]{Kraftlos 2} und hast einen Malus von –3 auf Rettungswürfe und den SG gegen @Compendium[pf2e.actionspf2e.PMbdMWc2QroouFGD]{Ergreifen}, @Compendium[pf2e.actionspf2e.7blmbDrQFNfdT731]{Fortstossen}, und andere Formen erzwungener Bewegung.</p>\n<p>Für Windeffekte wirst du behandelt als wärest du eine Größenkategorie kleiner. Du erhältst einen Zustandsbonus von +2 gegen @Compendium[pf2e.actionspf2e.ge56Lu1xXVFYUnLP]{Zu Fall bringen}, erleidest nur den halben Schaden von Stürzen und erhältst die Auswirkungen der Fertigkeitstalente @Compendium[pf2e.feats-srd.HJYQlmGTdtyGWr6a]{Mächtiger Sprung} und @Compendium[pf2e.feats-srd.ZBhvJ9O8MvBFAlhq]{Schnelles Springen}. Du wiegst nur die Hälfte und sollte dich jemand tragen müssen, ist auch deine Last halbiert.</p><hr />\n<p><em>Hinweis: Der Bonus und die Mali auf RW werden automatisch angewendet. Die restlichen Effekte musst du manuell zuweisen.</em></p>",
"entries.Effect: Moderate Flames Curse.name": "Effekt: Durchschnittlicher Flammen Fluch",
"entries.Effect: Moderate Flames Curse.description": "<p>Rauch und flackernde Visionen von Flammen erfüllen deine Sinne weiter und harmlose Flammen hüllen dich mit ihrem Flackern innerhalb deiner Angriffsfläche ein.</p>\n<p>Du erhältst gegenüber anderen Kreaturen den Zustand @Compendium[pf2e.conditionitems.DmAIPqOBomZ7H95W]{Verborgen}. Da diese Kreaturen aber nicht verflucht sind, können sie ganz normal von Effekten profitieren, die es ihnen ermöglichen, diese Tarnung zu umgehen oder zu reduzieren. Alle anderen Kreaturen und Gegenstände haben für dich den Zustand @Compendium[pf2e.conditionitems.DmAIPqOBomZ7H95W]{Verborgen}. Wenn du jedoch einen Zauber der Kategorie Feuer wirkst, gelingt dir der Einfache Wurf, um ein Ziel mit dem Zustand Verborgen auszuwählen, automatisch, sofern es sich innerhalb von 9 m von dir befindet.</p>\n<p>Jenseits von 9 m zählen alle deine Sinne als ungenau. Dies bedeutet, dass alles, was weiter als 9 m von dir entfernt ist, und was du normalerweise sehen könntest, dir gegenüber den Zustand @Compendium[pf2e.conditionitems.iU0fEDdBp3rXpTMC]{Versteckt} hat.</p><hr />\n<p><em>Hinweis: Du musst die Effekte dieses Fluchs manuell zuweisen.</em></p>",
"entries.Effect: Moderate Life Curse.name": "Effekt: Durchschnittlicher Leben Fluch",
"entries.Effect: Moderate Life Curse.description": "<p>Der Fluss von Lebensenergie von dir weg lässt sich nicht umkehren.</p>\n<p>Effekte, über die du Trefferpunkte zurückerhältst, erleiden einen Zustandsmalus in Höhe deiner halben Stufe (mindestens 1) auf die Anzahl der zurückgewonnenen TP</p>\n<p>Zusätzlich kannst du nicht durch magische Effekte, die von anderen Kreaturen ausgehen, geheilt werden. Wenn du jedoch bewusstlos bist, kann ein magischer Effekt dich auf 1 TP zurückbringen (jedoch nicht höher). Elixiere, Tränke und andere Gegenständer, die Heilung gewähren, wirken normal auf dich. Wenn du Heilung wirkst und alle deine Ziele lebende Kreaturen sind, würfelst du für die Höhe der Heilung mit W12 statt W8.</p>\n<p>Wenn du eine Handlung abschließt, mit der du einen Zauber wirkst, bei dem es sich nicht um einen Zaubertrick handelt, erhält – nach deiner Wahl – entweder eines der Ziele des Zaubers oder die Kreatur, welche sich dir am nächsten befindet Trefferpunkte in Höhe des Zaubergrades zurück. Du kannst dich auf diese Weise jedoch nicht selbst heilen, Diese Heilung hat die Kategorien Heilung, Nekromantie und Positiv, sowie die Kategorie der Tradition des Zaubers.</p>\n<hr />\n<p><em>Hinweis: Du musst die Effekte dieses Fluchs manuell zuweisen.</em></p>",
"entries.Effect: Moderate Lore Curse.name": "Effekt: Durchschnittlicher Wissen Fluch",
"entries.Effect: Moderate Lore Curse.description": "<p>Der Strom von Informationen durch deinen Verstand wächst.</p>\n<p>Du erleidest einen Malus von –4 auf Initiativewürfe, weil die Flut von Informationen darüber, was um dich herum geschieht, deine Fähigkeit, darauf zu reagieren, ausbremst.</p>\n<p>Weil du dieser gewaltigen Menge von Informationen Aufmerksamkeit widmen musst, bist du stets @Compendium[pf2e.conditionitems.AJh5ex99aV6VTggg]{Auf dem Falschen Fuß} betroffen. Zu Beginn deines jeden Zuges kannst du einen Fertigkeitswurf zum @Compendium[pf2e.actionspf2e.KygTSeDvsFoSO6HW]{Wissen abrufen} als freie Aktion ausführen. Dabei kannst du eine Fertigkeit deiner Wahl einsetzen, für die es Wissen abrufen gibt, und dein Ergebnis beträgt automatisch 10 + dein Kompetenzbonus in dieser Fertigkeit (ohne jede sonstige Boni, Mali oder Modifikatoren).</p>\n<hr />\n<p><em>Hinweis: Der Malus auf Initiative-Würfe wird automatisch angewendet. Du musst die restlichen Effekte manuell zuweisen.</em></p>",
"entries.Effect: Moderate Martial Ancestor Curse.name": "Effekt: Durchschnittlicher Kriegerische Ahnen Fluch",
"entries.Effect: Moderate Martial Ancestor Curse.description": "<p>Einer deiner kriegerischen Ahnen erlangt die Oberhand bei deren Einmischung. Dieser vorherrschende Ahne geleitet dich dazu, seine bevorzugte Handlung auszuführen, und du erlangst den Vorteil, der in der Tabelle für den vorherrschenden Ahnen aufgeführt ist. Wenn du versuchst eine Handlung auszuführen, die für einen anderen Ahnen aufgeführt ist, musst du einen erfolgreichen Einfachen Wurf gegen SG 6 ablegen. Bei einem Fehlschlag wendest du die Handlung auf, erzielst aber keinen Effekt. (Du verlierst keinen Zauber, wenn du Zauber wirken nutzen wolltest.) Wenn deine Handlung 1 Minute oder länger dauern würde, ist dies lang genug, dass du die Einmischung unterdrücken kannst, und du musst keinen Einfachen Wurf ablegen.</p>\n<p>Im Kampf oder bei anderen angespannten Situationen, die Runde um Runde abgewickelt werden, versuchen andere Ahnen, Einfluss auf deine Handlungen zu erlangen. Wenn du für Initiative würfelst, und dann am Ende deines jeden Zuges in der Begegnung, würfle [[/r 1d4]] und ändere den vorherrschen Ahnen entsprechend. Sobald die Begegnung endet, erlangt wieder der Ahne die Oberhand, den du als Ersten an diesem Tag ausgewürfelt hast.</p>\n<h4>Einfluss der Ahnen</h4>\n<table class=\"pf2-table\" style=\"width: 100%;\">\n<tbody>\n<tr>\n<th style=\"width: 4.5em;\">1W4</th>\n<th style=\"width: 7.4em;\">Ahne</th>\n<th style=\"width: 9em;\">Bevorzugte Aktion</th>\n<th>Vorteil</th>\n</tr>\n<tr>\n<td>1</td>\n<td>Kriegerisch</td>\n<td>Angriffe</td>\n<td>Du erhältst einen Zustandsbonus von +1 auf Angriffswürfe und einen Zustandsbonus von +2 auf Schadenswürfe.</td>\n</tr>\n<tr>\n<td>2</td>\n<td>Fähig</td>\n<td>Wahrnehmung und Fertigkeits- handlungen</td>\n<td>Du erhältst einen Zustandsbonus von +1 auf Fertigkeitswürfe und Wahrnehmungswürfe.</td>\n</tr>\n<tr>\n<td>3</td>\n<td>Zauberei</td>\n<td>Zauber wirken</td>\n<td>Zauber ohne Wirkungsdauer erhalten einen Zustandsbonus auf Schaden und Heilung in H&ouml;he ihrer Stufe (Zaubertricks ausgenommen).</td>\n</tr>\n<tr>\n<td>4</td>\n<td colspan=\"3\">Du wählst aus, welcher Ahne deine Handlungen geleitet.</td>\n</tr>\n</tbody>\n</table>\n<hr />\n<p><em>Hinweis: Du musst den einfachen Wurf bei der Benutzung einer Aktion eines anderen Ahnen manuell ablegen. Die restlichen Effekte dieses Fluchs werden automatisch angewendet.</em></p>",
"entries.Effect: Moderate Skillful Ancestor Curse.name": "Effekt: Durchschnittlicher Fähiger Ahnen Fluch",
"entries.Effect: Moderate Skillful Ancestor Curse.description": "<p>Einer deiner kriegerischen Ahnen erlangt die Oberhand bei deren Einmischung. Dieser vorherrschende Ahne geleitet dich dazu, seine bevorzugte Handlung auszuführen, und du erlangst den Vorteil, der in der Tabelle für den vorherrschenden Ahnen aufgeführt ist. Wenn du versuchst eine Handlung auszuführen, die für einen anderen Ahnen aufgeführt ist, musst du einen erfolgreichen Einfachen Wurf gegen SG 6 ablegen. Bei einem Fehlschlag wendest du die Handlung auf, erzielst aber keinen Effekt. (Du verlierst keinen Zauber, wenn du Zauber wirken nutzen wolltest.) Wenn deine Handlung 1 Minute oder länger dauern würde, ist dies lang genug, dass du die Einmischung unterdrücken kannst, und du musst keinen Einfachen Wurf ablegen.</p>\n<p>Im Kampf oder bei anderen angespannten Situationen, die Runde um Runde abgewickelt werden, versuchen andere Ahnen, Einfluss auf deine Handlungen zu erlangen. Wenn du für Initiative würfelst, und dann am Ende deines jeden Zuges in der Begegnung, würfle [[/r 1d4]] und ändere den vorherrschen Ahnen entsprechend. Sobald die Begegnung endet, erlangt wieder der Ahne die Oberhand, den du als Ersten an diesem Tag ausgewürfelt hast.</p>\n<h4>Einfluss der Ahnen</h4>\n<table class=\"pf2-table\" style=\"width: 100%;\">\n<tbody>\n<tr>\n<th style=\"width: 4.5em;\">1W4</th>\n<th style=\"width: 7.4em;\">Ahne</th>\n<th style=\"width: 9em;\">Bevorzugte Aktion</th>\n<th>Vorteil</th>\n</tr>\n<tr>\n<td>1</td>\n<td>Kriegerisch</td>\n<td>Angriffe</td>\n<td>Du erhältst einen Zustandsbonus von +1 auf Angriffswürfe und einen Zustandsbonus von +2 auf Schadenswürfe.</td>\n</tr>\n<tr>\n<td>2</td>\n<td>Fähig</td>\n<td>Wahrnehmung und Fertigkeits- handlungen</td>\n<td>Du erhältst einen Zustandsbonus von +1 auf Fertigkeitswürfe und Wahrnehmungswürfe.</td>\n</tr>\n<tr>\n<td>3</td>\n<td>Zauberei</td>\n<td>Zauber wirken</td>\n<td>Zauber ohne Wirkungsdauer erhalten einen Zustandsbonus auf Schaden und Heilung in H&ouml;he ihrer Stufe (Zaubertricks ausgenommen).</td>\n</tr>\n<tr>\n<td>4</td>\n<td colspan=\"3\">Du wählst aus, welcher Ahne deine Handlungen geleitet.</td>\n</tr>\n</tbody>\n</table>\n<hr />\n<p><em>Hinweis: Du musst den einfachen Wurf bei der Benutzung einer Aktion eines anderen Ahnen manuell ablegen. Die restlichen Effekte dieses Fluchs werden automatisch angewendet.</em></p>",
"entries.Effect: Moderate Spellcasting Ancestor Curse.name": "Effekt: Durchschnittlicher Zauberei Ahnen Fluch",
"entries.Effect: Moderate Spellcasting Ancestor Curse.description": "<p>Einer deiner kriegerischen Ahnen erlangt die Oberhand bei deren Einmischung. Dieser vorherrschende Ahne geleitet dich dazu, seine bevorzugte Handlung auszuführen, und du erlangst den Vorteil, der in der Tabelle für den vorherrschenden Ahnen aufgeführt ist. Wenn du versuchst eine Handlung auszuführen, die für einen anderen Ahnen aufgeführt ist, musst du einen erfolgreichen Einfachen Wurf gegen SG 6 ablegen. Bei einem Fehlschlag wendest du die Handlung auf, erzielst aber keinen Effekt. (Du verlierst keinen Zauber, wenn du Zauber wirken nutzen wolltest.) Wenn deine Handlung 1 Minute oder länger dauern würde, ist dies lang genug, dass du die Einmischung unterdrücken kannst, und du musst keinen Einfachen Wurf ablegen.</p>\n<p>Im Kampf oder bei anderen angespannten Situationen, die Runde um Runde abgewickelt werden, versuchen andere Ahnen, Einfluss auf deine Handlungen zu erlangen. Wenn du für Initiative würfelst, und dann am Ende deines jeden Zuges in der Begegnung, würfle [[/r 1d4]] und ändere den vorherrschen Ahnen entsprechend. Sobald die Begegnung endet, erlangt wieder der Ahne die Oberhand, den du als Ersten an diesem Tag ausgewürfelt hast.</p>\n<h4>Einfluss der Ahnen</h4>\n<table class=\"pf2-table\" style=\"width: 100%;\">\n<tbody>\n<tr>\n<th style=\"width: 4.5em;\">1W4</th>\n<th style=\"width: 7.4em;\">Ahne</th>\n<th style=\"width: 9em;\">Bevorzugte Aktion</th>\n<th>Vorteil</th>\n</tr>\n<tr>\n<td>1</td>\n<td>Kriegerisch</td>\n<td>Angriffe</td>\n<td>Du erhältst einen Zustandsbonus von +1 auf Angriffswürfe und einen Zustandsbonus von +2 auf Schadenswürfe.</td>\n</tr>\n<tr>\n<td>2</td>\n<td>Fähig</td>\n<td>Wahrnehmung und Fertigkeits- handlungen</td>\n<td>Du erhältst einen Zustandsbonus von +1 auf Fertigkeitswürfe und Wahrnehmungswürfe.</td>\n</tr>\n<tr>\n<td>3</td>\n<td>Zauberei</td>\n<td>Zauber wirken</td>\n<td>Zauber ohne Wirkungsdauer erhalten einen Zustandsbonus auf Schaden und Heilung in H&ouml;he ihrer Stufe (Zaubertricks ausgenommen).</td>\n</tr>\n<tr>\n<td>4</td>\n<td colspan=\"3\">Du wählst aus, welcher Ahne deine Handlungen geleitet.</td>\n</tr>\n</tbody>\n</table>\n<hr />\n<p><em>Hinweis: Du musst den einfachen Wurf bei der Benutzung einer Aktion eines anderen Ahnen manuell ablegen. Die restlichen Effekte dieses Fluchs werden automatisch angewendet.</em></p>",
"entries.Effect: Moderate Tempest Curse.name": "Effekt: Durchschnittlicher Sturm Fluch",
"entries.Effect: Moderate Tempest Curse.description": "<p>Die Aura eines Wirbelsturms manifestiert sich in einem Umkreis von 3 m in und um deine Angriffsfläche und zusätzlich zum Wind fällt auch Regen darin. Diese Aura löscht kleine, nicht-magische Feuer 1 Runde, nachdem sie entzündet oder in die Aura gebracht wurden. Der wehende Wind legt Fernkampfangriffen mit materieller Munition, die von dir ausgehen oder dich als Ziel haben, einen Situationsmalus von –2 auf.</p>\n<p>In diesem Sturm baut sich elektrische Energie auf, die dich zu einem Blitzableiter macht. Du erhältst Schwäche 5 oder deine halbe Stufe, je nachdem was höher ist, gegen Elektrizität. Für Zauber oder Effekte der Kategorie Elektrizität, die zusätzliche Effekte gegen Kreaturen haben, die Gegenstände aus Metall tragen oder halten, wirst du behandelt, als würdest du Metall tragen. Der sintflutartige Regen gewährt dir jedoch Resistenz gegen Feuer in gleicher Höhe.</p><hr />\n<p><em>Hinweis: Der Malus auf Fernkampfangriffe wird automatisch angewendet. Die restlichen Effekte musst du manuell zuweisen.</em></p>",
"entries.Effect: Nymph Blood Magic (Self).name": "Effekt: Nymphen-Blutmagie (Selbst)",
"entries.Effect: Nymph Blood Magic (Self).description": "<p>Die Anmut von Nymphen untermalt deine Bewegungen und lenkt deine Gegner ab. Dies verleiht dir einen Zustandsbonus von +1 auf Fertigkeitswürfe für Diplomatie.</p>",
"entries.Effect: Nymph Blood Magic (Target).name": "Effekt: Nymphen-Blutmagie (Ziel)",
"entries.Effect: Nymph Blood Magic (Target).description": "<p>Die Anmut von Nymphen untermalt deine Bewegungen und lenkt deine Gegner ab. Dies generiert einer Zustandsmalus von -1 auf die Willenswürfe eines Zieles für 1 Runde.</p>",
"entries.Effect: Panache.name": "Effekt: Elan",
"entries.Effect: Panache.description": "<p>Auf welche Weise du etwas erreichst, ist dir genauso wichtig wie, ob du es überhaupt erreichst. Wenn du eine Handlung mit besonderer Tapferkeit durchführst, kannst du den Schwung dieses Moments nutzen, um spektakuläre, gefährliche Manöver auszuführen. Diese Eigenschaft wird als Elan bezeichnet, und entweder hast du zu einem bestimmten Zeitpunkt Elan, oder du hast ihn nicht.</p>\n<p>Gewährt durch @Compendium[pf2e.classfeatures.LzYi0OuOoypNb6jd]{Elan}</p>\n<p>Implementierte Effekte:</p>\n<ul>\n<li>Aktiviert die Elan-Eigenschaft für Elan-Effekte</li>\n<li>Setzt Token-Effekt</li>\n</ul>",
"entries.Effect: Psychopomp Blood Magic (Self).name": "Effekt: Seelenbegleiter-Blutmagie (Selbst)",
"entries.Effect: Psychopomp Blood Magic (Self).description": "<p>Die Grenze zwischen Leben und Tod verschwimmt für dich. Du erlangst einen Zustandsbonus von +2 auf Zähigkeitswürfe für 1 Runde.</p>",
"entries.Effect: Rage.name": "Effekt: Kampfrausch",
"entries.Effect: Rage.description": "<p><strong>Anforderungen</strong> Du befindest dich nicht im Kampfrausch und besitzt auch nicht den Zustand @Compendium[pf2e.conditionitems.HL2l2VRSaQHu9lUw]{Erschöpft}.</p>\n<hr />\n<p>Du lässt dem in dir brodelndem Zorn freien Lauf und verfällst in Kampfrausch. Du erhältst eine Anzahl an Temporären Trefferpunkten\nin Höhe deiner Stufe plus deines Konstitutionsmodifikators. Diese Raserei währt 1 Minute, außer du erhältst vorher den Zustand Bewusstlos oder kannst keine Gegner mehr wahrnehmen. Du kannst deinen Kampfrausch nicht freiwillig vorzeitig beenden.</p>\n<p>Im Kampfrausch…</p>\n<ul>\n<li>… verursachst du 2 zusätzliche Schadenspunkte mit Nahkampfwaffen und Waffenlosen Angriffen. Dieser zusätzliche Schaden wird halbiert, sollte deine Waffe oder dein Waffenloser Angriff über die Eigenschaft Agil verfügen.</li>\n<li>… erleidest du einen Malus von -1 auf deine RK.</li>\n<li>… kannst du keine Handlungen der Kategorie Konzentration nutzen, sofern sie nicht ebenfalls der Kategorie Kampfrausch angehören. Du kannst im Kampfrausch die Aktion @Compendium[pf2e.actionspf2e.BlAOM2X92SI6HMtJ]{Suchen} anwenden.</li>\n</ul>\n<p>Mit Ende des Kampfrausches verlierst du alle noch verbliebenen Temporären Trefferpunkte aus dem Kampfrausch und kannst die Aktion Kampfrausch 1 Minute lang nicht wieder anwenden.</p>",
"entries.Effect: Shadow Blood Magic (Perception).name": "Effekt: Schatten-Blutmagie (Wahrnehmung)",
"entries.Effect: Shadow Blood Magic (Perception).description": "<p>Die Schatten vertiefen sich um ein Ziel; dies generiert einen Zustandsmalus von -1 auf Wahrnehmung für 1 Runde.</p>",
"entries.Effect: Shadow Blood Magic (Stealth).name": "Effekt: Schatten-Blutmagie (Heimlichkeit)",
"entries.Effect: Shadow Blood Magic (Stealth).description": "<p>Die Schatten vertiefen sich um dich; dies verleiht dir einen Zustandsbonus von +1 auf Fertigkeitswürfe für Heimlichkeit.</p>",
"entries.Effect: Treat Wounds Immunity.name": "Effekt: Immunität gegen Wunden versorgen",
"entries.Effect: Treat Wounds Immunity.description": "<p>Gewährt, wenn jemand @Compendium[pf2e.actionspf2e.1kGNdIIhuglAjIp9]{Wunden versorgen} bei dir anwendet.</p>"
}