{
  "label": "Abstammungsfähigkeiten",
  "entries": {
    "Hillock Halfling": {
      "name": "Hügelhalbling/Hillock Halfling",
      "description": "<p>Deine Leute sind an ein ruhiges Leben in den H&uuml;geln gew&ouml;hnt. Ruhe und Erholung geben euch zus&auml;tzliche Kraft, insbesondere wenn ihr dabei Annehmlichkeiten genie&szlig;en k&ouml;nnt. Wenn du &uuml;ber Nacht Trefferpunkte zur&uuml;ckerlangst, so addiere deine Stufe auf die Anzahl der zur&uuml;ckerlangten Trefferpunkte. Wenn jemand auf dich Heilkunde anwendet, um @Compendium[pf2e.actionspf2e.1kGNdIIhuglAjIp9]{Wunden zu versorgen}, kannst du dabei einen Happen essen, um deine Stufe auf die Anzahl der zur&uuml;ckerlangten Trefferpunkte zu addieren.</p>"
    },
    "Half-Elf": {
      "name": "Halbelf/Half-Elf",
      "description": "<p>Eines deiner Elternteile war entweder ein Elf oder beide waren Halbelfen. Du hast spitze Ohren und andere verr&auml;terische Merkmale einer elfischen Herkunft. Du erh&auml;ltst @Compendium[pf2e.ancestryfeatures.DRtaqOHXTRtGRIUT]{D&auml;mmersicht} und die Kategorie Elf. Du kannst aus den elfischen, halbelfischen und menschlichen Abstammungstalenten w&auml;hlen, wenn du ein Abstammungstalent erh&auml;ltst.</p>"
    },
    "Keen Eyes": {
      "name": "Scharfe Augen/Keen Eyes",
      "description": "<p>Deine scharfen Augen erlauben dir, kleine Details von verborgenen oder sogar unsichtbaren Kreaturen auszumachen, die anderen m&ouml;glicherweise entgehen. Du erh&auml;ltst einen Situationsbonus von +2, wenn du die Aktion @Compendium[pf2e.actionspf2e.BlAOM2X92SI6HMtJ]{Suchen} nutzt, um @Compendium[pf2e.conditionitems.iU0fEDdBp3rXpTMC]{versteckte} oder @Compendium[pf2e.conditionitems.VRSef5y1LmL2Hkjf]{unentdeckte} Kreaturen innerhalb von 9 m Entfernung wahrzunehmen. Wenn du einen Gegner ins Ziel nimmst, welcher dir gegen&uuml;ber den Zustand @Compendium[pf2e.conditionitems.DmAIPqOBomZ7H95W]{Verborgen} oder @Compendium[pf2e.conditionitems.iU0fEDdBp3rXpTMC]{Versteckt} besitzt, so reduziere den SG des Einfachen Wurfes auf 3 bei einem verborgenen und auf 9 bei einem verstecken Ziel.</p>"
    },
    "Wildwood Halfling": {
      "name": "Wildnishalbling/Wildwood Halfling",
      "description": "<p>Du stammst aus den Tiefen eines Dschungels oder Waldes und wei&szlig;t deine Gr&ouml;&szlig;e zu nutzen, um dich durch das Unterholz, Ranken und andere Hindernisse zu winden. Du ignorierst Schwieriges Gel&auml;nde aufgrund von B&auml;umen, Blattwerk und Unterholz.</p>"
    },
    "Thickcoat Shoony": {
      "name": "Dickfellschuni/Thickcoat Shoony",
      "description": "<p>Du bist einer der seltenen Schuni, die aus k&auml;lteren Gegenden stammen. Du erh&auml;ltst K&auml;lteresistenz in H&ouml;he deiner halben Stufe (Minimum 1) und du behandelst K&auml;lteeffekte durch Umwelteinfl&uuml;sse, als ob sie eine Stufe schw&auml;cher w&auml;ren (Unglaubliche K&auml;lte wird Extrem, Extreme K&auml;lte wird Streng und so weiter). F&uuml;r dich ist kein Einfacher Wurf erforderlich, um eine verborgene Kreatur ins Ziel zu nehmen, falls der Zustand @Compendium[pf2e.conditionitems.DmAIPqOBomZ7H95W]{Verborgen} aus Schnee resultiert. Solange du keine sch&uuml;tzende Kleidung tr&auml;gst oder anderweitig Schutz suchst, behandelst du Hitzeeffekte durch Umwelteinfl&uuml;sse als um eine Stufe extremer.</p>"
    },
    "Forge Dwarf": {
      "name": "Schmiedezwerg/Forge Dwarf",
      "description": "<p>Deine Vorfahren lebten in sengenden W&uuml;sten oder vulkanischen Kammern unter der Erde und haben dir ihre beachtliche Anpassung an hei&szlig;e Umgebungen vererbt. Dies verleiht dir Feuerresistenz in H&ouml;he deiner halben Stufe (Minimum 1), zudem behandelst du Umgebungseffekte der Kategorie Hitze als um einen Schritt schw&auml;cher (Unglaubliche Hitze ist f&uuml;r dich nur Extreme Hitze, Extreme Hitze nur Strenge Hitze usw.).</p>"
    },
    "Observant Halfling": {
      "name": "Aufmerksamer Halbling/Observant Halfling",
      "description": "<p>Deine bestens gesch&auml;rften Sinne weisen dich rasch auf Gefahren oder Tricksereien hin. Du erlangst einen Situationsbonus von +1 auf deinen Wahrnehmungs-SG, aber nicht auf deine Wahrnehmungsw&uuml;rfe.</p>"
    },
    "Clawed Catfolk": {
      "name": "Langkrallenamurrun/Clawed Catfolk",
      "description": "<p>Angeh&ouml;rige deiner Familie besitzen besonders lange und scharfe Krallen, mit denen sie blutende Wunden rei&szlig;en k&ouml;nnen. Du erh&auml;ltst einen Waffenlosen Klauenangriff, der 1W6 Hiebschaden verursacht. Deine Klauen geh&ouml;ren der Raufwaffengruppe an und besitzen die Kategorien Agil, Finesse und Waffenlos.</p>"
    },
    "Treedweller Goblin": {
      "name": "Baumgoblin/Treedweller Goblin",
      "description": "<p>Du hast dich ans Leben in bewaldeten Gebieten angepasst. Du erh&auml;ltst in W&auml;ldern und Dschungeln einen Situationsbonus von +2 auf Fertigkeitsw&uuml;rfe f&uuml;r Heimlichkeit zum @Compendium[pf2e.actionspf2e.VMozDqMMuK5kpoX4]{Schleichen} oder @Compendium[pf2e.actionspf2e.XMcnh4cSI32tljXa]{Verstecken}, W&uuml;rfe f&uuml;r &Uuml;berlebenskunst zum @Compendium[pf2e.actionspf2e.49y9Ec4bDii8pcD3]{&Uuml;berleben} und deinen SG f&uuml;r &Uuml;berlebenskunde zum @Compendium[pf2e.actionspf2e.SB7cMECVtE06kByk]{Spuren verwischen}.</p>"
    },
    "Blunt Snout": {
      "name": "Stumpfe Schnauze/Blunt Snout",
      "description": "<p>komplex verzweigtes Sinus-System machen dich Widerstandsf&auml;hig gegen&uuml;ber Ph&auml;nomenen, die die Nase angreifen. Wenn du einen Rettungswurf gegen Bedrohungen durchs Einatmen (wie z.B. eingeatmete Gifte) und Riechbare Effekte (wie z.B. der Gestank von Xulgathen) ablegen musst, z&auml;hlt dein Ergebnis um einen Schritt besser, als du erzielt hast.</p>"
    },
    "Rock Dwarf": {
      "name": "Bergzwerg/Rock Dwarf",
      "description": "<p>Deine Ahnen lebten und arbeiteten in den Bergen und Gebirgen oder in den Tiefen der Erde. Dies verleiht dir die Unbeweglichkeit eines Felsens, wenn du deine F&uuml;&szlig;e fest aufsetzt. Du erh&auml;ltst einen Situationsbonus von +2 auf deinen Reflex- oder Z&auml;higkeits-SG gegen Versuche, dich @Compendium[pf2e.actionspf2e.7blmbDrQFNfdT731]{Fortzusto&szlig;en} oder @Compendium[pf2e.actionspf2e.ge56Lu1xXVFYUnLP]{Zu Fall zu bringen}. Dieser Bonus gilt auch bei Rettungsw&uuml;rfen gegen Zauber und Effekte, welche dir den Zustand @Compendium[pf2e.conditionitems.j91X7x0XSomq8d60]{Liegend} verleihen w&uuml;rden.</p>\n<p>Sollte ein Effekt dich zu einer Fortbewegung von 3 m oder mehr zwingen, so wirst du nur um die halbe Strecke bewegt.</p>"
    },
    "Hold-Scarred Orc": {
      "name": "Narbenork/Hold-Scarred Orc",
      "description": "<p>Du wurdest in einer Orkgemeinschaft gro&szlig;gezogen, die Kraft aus rituellen T&auml;towierungen oder Narben zur Verbesserung ihrer F&auml;higkeiten zieht. Die Zeichen auf deiner Haut symbolisieren deine au&szlig;ergew&ouml;hnliche Abh&auml;rtung und Vitalit&auml;t. Du erlangst durch deine Abstammung 12 TP statt 10 TP und verf&uuml;gst &uuml;ber das Talent @Compendium[pf2e.feats-srd.I0BhPWqYf1bbzEYg]{Unverw&uuml;stlich}.</p>"
    },
    "Tiefling": {
      "name": "Tiefling",
      "description": "<p><em>Sickert der Einfluss eines D&auml;mons, Teufels oder eines anderen Scheusals in die Blutlinie einer sterblichen Familie, f&uuml;hrt dies zur Entstehung eines Tieflings. Die besonderen F&auml;higkeiten ebenso wie das &auml;u&szlig;ere Erscheinungsbild der Tieflinge h&auml;ngen dabei von ihrer Herkunft ab, sind sie doch das finstere Mal der infernalen Ebenen in ihrem Fleisch. Die Abstammungslinien der Tieflinge sind vielf&auml;ltig, wobei die von Teufeln abstammenden H&ouml;llenbruten, die aus dem Einfluss von Daimonen hervorgehenden Grimmbruten und die mit dem Zeichen eines D&auml;monen gebrandmarkten Kluftbruten die am h&auml;ufigsten auftretenden Gebl&uuml;te unter ihnen darstellen.</em></p>\n<hr />\n<p>Zwischen der direkten Einflussnahme eines Scheusals und der Geburt eines Tieflingkindes k&ouml;nnen mehrere Generationen liegen. Vor allem die Tieflingsabk&ouml;mmlinge von ignoranten oder von der Furcht &uuml;bermannten Eltern leiden in der Regel unter einer au&szlig;erordentlich schweren und vom psychischen oder auch physischen Schmerz gepr&auml;gten Kindheit. Aber auch jene Tieflinge, welche die Akzeptanz und Unterst&uuml;tzung ihrer Familien genie&szlig;en, sehen sich in der Gesellschaft f&uuml;r gew&ouml;hnlich mit furchtbaren Vorurteilen und offenkundigen &Auml;ngsten konfrontiert. In manchen F&auml;llen f&uuml;hrt diese st&auml;ndige Ablehnung dazu, dass sich einzelne Tieflinge dem B&ouml;sen zuwenden, w&auml;hrend andere &ndash; trotz oder gerade wegen der harten Herausforderungen, die ihnen dabei begegnen &ndash; sich ihren Platz in der Gesellschaft erk&auml;mpfen und sich ein erf&uuml;llendes Leben aufbauen.</p>\n<p>Wenn du auf der Suche nach einem Charakter bist, durch dessen Adern eine &uuml;bernat&uuml;rlich finstere Kraft flie&szlig;t, der wahrscheinlich &uuml;ber ein einzigartiges &auml;u&szlig;eres Erscheinungsbild verf&uuml;gt und der zu einem komplexen oder unerwarteten Helden heranwachsen kann, triffst du mit einem Tiefling die richtige Wahl.</p>\n<h2>DU K&Ouml;NNTEST...</h2>\n<ul>\n<li>... &uuml;ber ein starkes Selbstvertrauen verf&uuml;gen, da du dich dein ganzes Leben lang immer nur auf dich selbst verlassen konntest.</li>\n<li>... dich den Unterprivilegierten oder Kriminellen auf besondere Weise verbunden f&uuml;hlen oder gar nach Macht und Einfluss in den au&szlig;ergesetzlichen Sph&auml;ren der Gesellschaft streben.</li>\n<li>... das hart erk&auml;mpfte Vertrauen tiefer Freundschaften auf eine Weise sch&auml;tzen, dass dir einige deiner Gef&auml;hrten n&auml;her stehen als so manche Blutsverwandte.</li>\n</ul>\n<h2>ANDERE K&Ouml;NNTEN...</h2>\n<ul>\n<li>... davon ausgehen, dass du dich aufgrund deiner Herkunft in deinem Leben schon zahlreichen Herausforderungen stellen musstest.</li>\n<li>... dich f&uuml;r einen b&ouml;sen Gesandten eines finsteren Kultes, einen Anbeter eines Scheusals oder gar f&uuml;r ein wahres Scheusal halten.</li>\n<li>... meinen, du st&uuml;ndest mit &uuml;beraus m&auml;chtigen Scheusalen im Bunde, und vielleicht sogar mit dir paktieren wollen, um selbst an diese Macht zu gelangen.</li>\n</ul>\n<h2>K&Ouml;RPERLICHE BESCHREIBUNG</h2>\n<p>Kein Tiefling gleicht dem anderen &ndash; selbst Geschwister oder gar Zwillinge bilden dabei keine Ausnahme, da sich der infernale Einfluss ihrer Scheusalabstammung auf au&szlig;ergew&ouml;hnliche und einzigartige Weise manifestiert. In der Regel zeigt sich die ungew&ouml;hnliche Herkunft der Tieflinge in Form von Hufen, H&ouml;rnern, Stummelfl&uuml;geln, einer gespaltenen Zunge oder einem Schweif, wobei diese Variationen niemals ein Ausma&szlig; annehmen, das die Merkmale ihrer humanoiden Abstammung in den Schatten stellt.</p>\n<h2>GESELLSCHAFT</h2>\n<p>Tieflinge f&uuml;gen sich meistens in die Gesellschaft ein, in die sie hineingeboren werden, und &uuml;bernehmen auch deren Kultur. H&auml;ufig werden sie dabei jedoch von eben dieser Gesellschaft in jene Schichten und Rollen gedr&auml;ngt, in denen sich ihr schlechter Ruf &ndash; meist werden sie als nicht vertrauensw&uuml;rdige Kreaturen oder gar als Monster angesehen &ndash; durchaus als n&uuml;tzlich erweisen kann oder schlichtweg ignoriert wird und sich daher nicht negativ auf ihre T&auml;tigkeiten auswirkt. Dennoch k&ouml;nnen Tieflinge trotz ihrer Herkunft Respekt und Anerkennung in einer Gesellschaft erlangen sowie Akzeptanz finden, wenn sie dieses Ziel entschlossen verfolgen und Durchhaltekraft beweisen. In Regionen, in denen Scheusale weithin verehrt werden, f&auml;llt es Tieflingen jedoch wesentlich leichter, ein offenes und selbstbestimmtes Leben zu f&uuml;hren, in dem sie von anderen ohne Vorbehalte respektiert werden und sogar zu au&szlig;erordentlicher Macht gelangen k&ouml;nnen. Doch auch hier gibt es Ausnahmen, wie es beispielsweise in der den Gott Asmodeus verehrenden Nation Cheliax der Fall ist. Dort werden Tieflinge gemeinhin als sch&auml;ndlicher Nachweis f&uuml;r den Kontrollverlust gegen&uuml;ber dem Infernalen erachtet und daher aus der Gemeinschaft versto&szlig;en.</p>\n<h2>GESINNUNG UND RELIGION</h2>\n<p>Die infernale Herkunft eines Tieflings zwingt ihn weder zum Pfad des B&ouml;sen noch zur Grausamkeit. Jeder Tiefling entscheidet letztendlich selbst &uuml;ber seinen Glauben, seine Ziele und seine Pers&ouml;nlichkeit. Tief im Inneren versp&uuml;rt jeder Tiefling dennoch den unterschwelligen Einfluss seines infernalen Ahnen, der jeden Moment ausnutzt, in dem die Welt an sich als grausamer und ungerechter Ort erscheint, um seinen Nachkommen in Versuchung zu f&uuml;hren. Die permanenten Vorurteile, der Hass und die Furcht, die den Tieflingen von den meisten Gesellschaften entgegengebracht werden, treiben sie dem B&ouml;sen meist nur noch weiter in seine Arme. Viele wenden sich daher auch Religionen zu, die von Scheusalen besonders gesch&auml;tzt und bewundert werden, so beispielsweise die Kirchen von Asmodeus oder Lamaschtu. Tieflinge, die f&uuml;r sich trotz allem den Pfad des Guten w&auml;hlen, m&uuml;ssen zahlreiche gesellschaftliche Herausforderungen meistern und Beschimpfungen ertragen. Schnell erkennen sie, dass von ihnen ein weit h&ouml;heres Ma&szlig; an diplomatischen F&auml;higkeiten, Geduld und einf&uuml;hlendem Verst&auml;ndnis gefordert wird, als von Angeh&ouml;rigen anderer Herk&uuml;nfte und Abstammungen, sehen sich Tieflinge doch immer wieder mit Ignoranz und Misstrauen ihnen gegen&uuml;ber konfrontiert. Diese Tieflinge w&auml;hlen daher vorzugsweise Religionen und Philosophien, welche empathisches Einf&uuml;hlungsverm&ouml;gen in den Vordergrund stellen und Vorurteile meiden. Nicht selten m&uuml;ssen sie dabei aber feststellen, dass selbst Anh&auml;nger guter Religionen zuweilen ihre Probleme haben, &uuml;ber die stets an ihre infernale Abstammung erinnernden &auml;u&szlig;eren Merkmale der Tieflinge hinwegzusehen.</p>\n<h2>&Auml;NDERUNGEN</h2>\n<p>Du stammst von Scheusalen ab oder tr&auml;gst das Brandmal der infernalen Reiche in dir. Deine Herkunft manifestiert sich in Form ungew&ouml;hnlicher &auml;u&szlig;erer Merkmale, die deine Herkunft verraten &ndash; in der Regel H&ouml;rner oder ein Schwanz. Neben den Kategorien aus deiner Abstammung erh&auml;ltst du die Kategorie Tiefling und erlangst zudem @Compendium[pf2e.ancestryfeatures.DRtaqOHXTRtGRIUT]{D&auml;mmersicht} (bzw. @Compendium[pf2e.ancestryfeatures.HHVQDp61ehcpdiU8]{Dunkelsicht}, solltest du bereits &uuml;ber D&auml;mmersicht verf&uuml;gen). Wenn du ein Abstammungstalent erlangst, kannst du sowohl aus den Talenten deiner Abstammung als auch aus den folgenden Tieflingtalenten ausw&auml;hlen.</p>"
    },
    "Skilled Heritage": {
      "name": "Geschult/Skilled Heritage",
      "description": "<p>Dein Einfallsreichtum verleiht dir K&ouml;nnen in allen m&ouml;glichen Fertigkeiten. Du erh&auml;ltst f&uuml;r eine Fertigkeit deiner Wahl den Kompetenzgrad Ge&uuml;bt. Mit der 5. Stufe steigt dieser Kompetenzgrad auf Experte.</p>"
    },
    "Wellspring Gnome": {
      "name": "Zaubergnom/Wellspring Gnome",
      "description": "<p>Eine andere Quelle der Magie verf&uuml;gt &uuml;ber mehr Macht &uuml;ber dich als die Naturmagie deiner Feenblutlinie. Diese Verbindung kann zu einer okkulten Ebene oder einem uralten okkulten Lied bestehen, einer Gottheit, einem Celestischen oder einem Scheusal, dem magischen R&uuml;ckstand eines Magierkrieges oder uralter Runenmagie.</p>\n<p>W&auml;hle Arkane, G&ouml;ttliche oder Okkulte Magie. Du erlangst einen Zaubertrick von der Zauberliste der gew&auml;hlten Tradition. Du kannst diesen Zauber als Immanenten Naturzauber beliebig oft wirken. Ein Zaubertrick wird auf einen Zaubergrad gleich deiner halben Stufe erh&ouml;ht (aufgerundet). Solltest du einen Immanenten Naturmagiezauber &uuml;ber ein gnomisches Abstammungstalent erlangen, dann ver&auml;ndere dessen Tradition zu der von dir gew&auml;hlten Tradition.</p>"
    },
    "Mountainkeeper Tengu": {
      "name": "Bergwächtertengu/Mountainkeeper Tengu",
      "description": "<p><span id=\"docs-internal-guid-11f12efa-7fff-e078-516e-02b4416b3602\">Du entstammst einer Linie von asketischen M&ouml;nchen und unterh&auml;ltst daher eine besondere Verbindung zu den Geistern dieser Welt sowie des Gro&szlig;en Jenseits. Du kannst daher beliebig oft den Zaubertrick @Compendium[pf2e.spells-srd.kcelf6IHl3L9VXXg]{Untoten schw&auml;chen} als immanenten Naturzauber wirken. Ein Zaubertrick wird auf einen deiner halben (aufgerundeten) Stufe entsprechenden Grad erh&ouml;ht. Wirkst du einen &uuml;ber eine Herkunft als Tengu oder ein Abstammungstalent der Tengus erlangten Zauber, kannst du frei entscheiden, ob du diesen als g&ouml;ttlichen oder als Naturzauber wirkst.</span></p>"
    },
    "Stormtossed Tengu": {
      "name": "Sturmtengu/Stormtossed Tengu",
      "description": "<p><span id=\"docs-internal-guid-86da5438-7fff-95ca-40da-9c43890897f2\"></span></p>\n<p dir=\"ltr\">M&ouml;glicherweise wurdest du von Hei Feng pers&ouml;nlich gesegnet, vielleicht bist du aber auch einfach w&auml;hrend eines tobenden Sturmes aus deinem Ei geschl&uuml;pft &ndash; jedenfalls verf&uuml;gst du &uuml;ber eine angeborene Resistenz gegen Elektrizit&auml;t, die deiner halben Stufe entspricht (mindestens Elektrizit&auml;tsresistenz 1). Ferner gelingen dir Einfache W&uuml;rfe, um durch Regen oder Nebel @Compendium[pf2e.conditionitems.DmAIPqOBomZ7H95W]{Verborgene} Kreaturen ins Visier zu nehmen, automatisch.</p>"
    },
    "Snow Goblin": {
      "name": "Schneegoblin/Snow Goblin",
      "description": "<p>Du bist an das Leben in eisigen Landen angepasst. Deine Hautfarbe liegt im Bereich zwischen Himmel- und Marineblau, zudem besitzt du blaues Fell. Du erh&auml;ltst K&auml;lteresistenz in H&ouml;he deiner halben Stufe (Minimum 1). Du behandelt Umgebungseffekte der Kategorie K&auml;lte als um einen Schritt schw&auml;cher (Unglaubliche K&auml;lte ist f&uuml;r dich nur Extreme K&auml;lte, Extreme K&auml;lte nur Strenge K&auml;lte usw.)</p>"
    },
    "Sewer Rat": {
      "name": "Kanalisationsysoki/Sewer Rat",
      "description": "<p>Deine Familie lebt bereits seit langem unterirdisch in der Kanalisation einer gro&szlig;en Ortschaft. Gegen die Krankheit Schmutzfieber bist du daher immun. Zudem reduzierst du mit jedem erfolgreichen Rettungswurf gegen ein Gift oder eine Krankheit die Phase um 2 (bzw. um 1 bei einem Gift oder einer Krankheit der Kategorie Ausgepr&auml;gt). Im Falle eines Kritischen Erfolges wird die Phase um 3 (bzw. 2 bei einer ausgepr&auml;gten Krankheit oder Vergiftung) reduziert.</p>"
    },
    "Aquatic Adaptation": {
      "name": "Aquatische Anpassung/Aquatic Adaptation",
      "description": "<p>Deine reptilische Biologie erlaubt es dir, deinen Atem lange Zeit anzuhalten. Du erh&auml;ltst das allgemeine Talent @Compendium[pf2e.feats-srd.aJUXbe9HJVvv0Mxa]{Atemkontrolle} als Bonustalent.</p>"
    },
    "Shadow Rat": {
      "name": "Schattenysoki/Shadow Rat",
      "description": "<p>Deine Ahnen lebten in der Dunkelheit des Untergrundes, wodurch ihr ein dunkles Fell und ein seltsam unnat&uuml;rliches Auftreten entwickelt hat, das Tiere einsch&uuml;chtert und intelligente Kreaturen verunsichert. Du erlangst daher den Kompetenzgrad Ge&uuml;bt in der Fertigkeit Einsch&uuml;chtern und kannst zudem die Fertigkeit Einsch&uuml;chtern zum @Compendium[pf2e.actionspf2e.tHCqgwjtQtzNqVvd]{Bedr&auml;ngen} von Tieren nutzen. Wenn du ein Tier @Compendium[pf2e.actionspf2e.2u915NdUyQan6uKF]{Demoralisierst}, unterliegt dein Wurf keinem Malus, weil ihr &uuml;ber keine gemeinsame Sprache verf&uuml;gt. Solltest du den Kompetenzgrad Ge&uuml;bt in der Fertigkeit Einsch&uuml;chtern bereits durch eine andere Quelle wie deinen Hintergrund oder deine Klasse erhalten, kannst du stattdessen eine andere Fertigkeit deiner Wahl auf den Kompetenzgrad ge&uuml;bt verbessern.</p>\n<p>Dein merkw&uuml;rdiges Auftreten birgt jedoch den Nachteil, dass Tiere dir gegen&uuml;ber anfangs um einen Grad schlechter eingestellt sind &ndash; in der Regel @Compendium[pf2e.conditionitems.I1ffBVISxLr2gC4u]{Unfreundlich} statt @Compendium[pf2e.conditionitems.fuG8dgthlDWfWjIA]{Gleichg&uuml;ltig} bei Haustieren und @Compendium[pf2e.conditionitems.ud7gTLwPeklzYSXG]{Feindselig} anstelle von Unfreundlich bei Wildtieren.</p>"
    },
    "Badlands Orc": {
      "name": "Ödlandork/Badlands Orc",
      "description": "<p>Du stammst aus dem von der sengenden Hitze der Sonne ausgedorrten &Ouml;dland, wo deine langen Beine sowie deine nat&uuml;rliche F&auml;higkeit, den Elementen zu trotzen, nicht nur einmal dein &Uuml;berleben gesichert haben. Daher kannst du doppelt so lange wie gew&ouml;hnliche Kreaturen @Compendium[pf2e.actionspf2e.JuqmIAnkL9hVGai8]{Eilen}, ehe du anhalten musst. Umgebungshitzegefahren behandelst du aufgrund deiner Abh&auml;rtung zudem als um einen Grad geringer, als sie tats&auml;chlich sind.</p>"
    },
    "Versatile Heritage": {
      "name": "Vielseitig/Versatile Heritage",
      "description": "<p>Die Vielseitigkeit und die Ambition der Menschen waren ihr Antrieb zum Aufstieg zum gr&ouml;&szlig;ten Bev&ouml;lkerungsanteil in den meisten Nationen der Welt. W&auml;hle ein Allgemeines Talent, dessen Voraussetzungen du erf&uuml;llst (wie im Falle deines Abstammungstalentes kannst du dieses Allgemeine Talent zu jedem Punkt w&auml;hrend der Charaktererschaffung w&auml;hlen).</p>"
    },
    "Darkvision": {
      "name": "Dunkelsicht/Darkvision",
      "description": "<p>Du kannst in Dunkelheit und bei D&auml;mmerlicht so gut sehen wie bei hellem Licht; bei Dunkelheit siehst du aber nur in Schwarz-wei&szlig;.</p>"
    },
    "Cliffscale Lizardfolk": {
      "name": "Klippeniruxi/Cliffscale Lizardfolk",
      "description": "<p>Deine Zehen eignen sich zum Greifen und Klettern. Du erh&auml;ltst das Fertigkeitstalent @Compendium[pf2e.feats-srd.09PurtIanNUPfNRq]{Kampfkletterer} als Bonustalent. Solange du keine Fu&szlig;bekleidung tr&auml;gst, kannst du die klebrigen Polster an deinen F&uuml;&szlig;en zum Klettern benutzen, womit du deine H&auml;nde frei hast. Wenn du au&szlig;erdem bei einem Fertigkeitswurf f&uuml;r Athletik zum @Compendium[pf2e.actionspf2e.pprgrYQ1QnIDGZiy]{Klettern} einen Erfolg erzielst, erh&auml;ltst du stattdessen einen Kritischen Erfolg.</p>"
    },
    "Strongjaw Kobold": {
      "name": "Schnappzahnkobold/Strongjaw Kobold",
      "description": "<p>Deine Blutlinie ist f&uuml;r ihre kr&auml;ftigen Kiefer und messerscharfen Z&auml;hne bekannt. Du erh&auml;ltst deshalb einen Waffenlosen Bissangriff, der 1W6 Stichschaden verursacht. Deine Kiefer z&auml;hlen zur Raufwaffengruppe und besitzen die Kategorien Finesse und Waffenlos.</p>"
    },
    "Sandstrider Lizardfolk": {
      "name": "Sandläuferiruxi/Sandstrider Lizardfolk",
      "description": "<p>Deine dicken Schuppen helfen dir, Wasser zu speichern und der brennenden Sonne zu widerstehen. Du erh&auml;ltst Feuerresistenz in H&ouml;he deiner halben Stufe (Minimum 1). Hitzeeffekte der Umgebung sind eine Stufe weniger extrem f&uuml;r dich und du kannst zehnmal l&auml;nger als normal durchhalten, ehe du von Hunger oder Durst betroffen wirst. Wenn du jedoch keine Schutzkleidung tr&auml;gst oder einen Unterschlupf suchst, sind K&auml;lteeffekte der Umgebung eine Stufe extremer f&uuml;r dich.</p>"
    },
    "Taloned Tengu": {
      "name": "Krallentengu/Taloned Tengu",
      "description": "<p>Deine Klauen sind so scharf und kr&auml;ftig wie dein Schnabel. Du verf&uuml;gst dadurch &uuml;ber einen Waffenlosen Klauenangriff, der <a class=\"inline-roll roll\" title=\"slashing\" data-mode=\"roll\" data-flavor=\"slashing\" data-formula=\"1d4\"> 1W4</a> Hiebschaden verursacht. Deine Klauen geh&ouml;ren der Raufwaffengruppe an und besitzen die Eigenschaften Agil, Finesse, Vielseitig S sowie Waffenlos.</p>"
    },
    "Chameleon Gnome": {
      "name": "Chamäleongnom/Chameleon Gnome",
      "description": "<p>Deine Haut- und Haarfarbe l&auml;sst sich ver&auml;ndern. M&ouml;glicherweise liegt dies an latenter Magie. Du kannst langsam die Farbe und ihre St&auml;rke ver&auml;ndern und dabei Muster und &auml;hnliches auf deinem K&ouml;rper erzeugen. Kleinere lokale Ver&auml;nderungen erfordern eine Aktion, w&auml;hrend dramatische Ver&auml;nderungen bis zu eine Stunde dauern k&ouml;nnen. W&auml;hrend du schl&auml;fst, ver&auml;ndern sich deine Farben mit deinen Tr&auml;umen, so dass du morgens meistens eine ungew&ouml;hnliche F&auml;rbung aufweist. Entspricht deine F&auml;rbung grob der Umgebung (z.B. Waldgr&uuml;n in einem Wald), kannst du eine Aktion f&uuml;r einfache lokale Ver&auml;nderungen aufwenden, um mit deiner Umgebung zu verschmelzen. Dies verleiht dir einen Situationsbonus von +2 auf Fertigkeitsw&uuml;rfe f&uuml;r Heimlichkeit, solange F&auml;rbung und Muster deines K&ouml;rpers mit dem Hintergrund &uuml;bereinstimmen.</p>"
    },
    "Hunting Catfolk": {
      "name": "Spürnasenamurrun/Hunting Catfolk",
      "description": "<p>Du entstammst einer langen Ahnenreihe &auml;u&szlig;erst f&auml;higer J&auml;ger und Spurenleser, weshalb du einen ausgepr&auml;gten Geruchssinn besitzt. Du erh&auml;ltst einen Geruchssinn (ungenau) mit einer Reichweite von 9 Metern. Mithilfe deines Geruchssinns kannst du die Position einer Kreatur &ndash; wie im Grundregelwerk auf Seite 465 erkl&auml;rt wird &ndash; bestimmen. Der SL verdoppelt die Reichweite in der Regel, wenn die Kreatur gegen die Windrichtung zu dir steht und dessen Geruch daher zu dir getragen wird; folglich wird die Reichweite jedoch halbiert, sollte sich die Kreatur in Windrichtung zu dir befinden, da auf diese Weise ihre Geruchsspur von dir weggeweht wird.</p>\n<p>Ferner erh&auml;ltst du einen Situationsbonus von +2 auf Fertigkeitsw&uuml;rfe zum @Compendium[pf2e.actionspf2e.EA5vuSgJfiHH7plD]{Spuren folgen}, sofern du die fragliche Kreatur oder den Gegenstand zuvor schon einmal gerochen hast.</p>"
    },
    "Charhide Goblin": {
      "name": "Kohlehautgoblin/Charhide Goblin",
      "description": "<p>Deine Ahnen besa&szlig;en stets eine Verbindung zum Feuer und haben dir eine dicke Haut vererbt, welche dir dabei hilft, Flammen zu widerstehen. Du erlangst Feuerresistenz in H&ouml;he deiner halben Stufe (Minimum 1). Du kannst dich auch besser l&ouml;schen &ndash; solltest du unter anhaltendem Feuerschaden leiden, ist der SG des Wurfes zum Aufheben des Schadens 10 statt SG 15 &ndash; und wird auf SG 5 reduziert, sofern eine andere Kreatur eine passende Handlung ausf&uuml;hrt, um dir zu helfen.</p>"
    },
    "Bloodhound Shoony": {
      "name": "Spürnasenschuni/Bloodhound Shoony",
      "description": "<p>Deine Vorfahren waren begabte Spurenleser und du tr&auml;gst die gleiche Begabung f&uuml;r die Jagd auch in dir. Du erlangst einen besonderen Sinn: Geruchssinn (Ungenau) 9 m. Dies bedeutet, dass du deinen Geruchssinn nutzen kannst, um die genaue Position einer Kreatur zu bestimmen, obwohl sie den Zustand @Compendium[pf2e.conditionitems.DmAIPqOBomZ7H95W]{Verborgen} besitzt. Zus&auml;tzlich erh&auml;ltst du einen Situationsbonus von +2 auf Fertigkeitsw&uuml;rfe f&uuml;r &Uuml;berlebenskunst zum Spuren verfolgen von Kreaturen, die du zuvor mit deinem Geruchssinn wahrgenommen hast.</p>"
    },
    "Paddler Shoony": {
      "name": "Sumpfschuni/Paddler Shoony",
      "description": "<p>Du stammst von Schunis ab, die lange und erfolgreich zwischen Schilfgras und Rohrkolben von S&uuml;mpfen und Mooren lebten und sich an die Herausforderung des Lebens nahe sumpfigen, wassergetr&auml;nkten Gebieten angepasst haben. Du ignorierst Schwieriges Gel&auml;nde und Sehr Schwieriges Gel&auml;nde in S&uuml;mpfen. Wenn du bei einen Fertigkeitswurf zum @Compendium[pf2e.actionspf2e.c8TGiZ48ygoSPofx]{Schwimmen} einen Erfolg erzielst, z&auml;hlt dieser als Kritischer Erfolg.</p>"
    },
    "Winter Catfolk": {
      "name": "Schneeamurrun/Winter Catfolk",
      "description": "<p>Du besitzt ein ungew&ouml;hnlich dichtes Fell, das dich vor der K&auml;lte sch&uuml;tzt und dir K&auml;lteresistenz entsprechend deiner halben Stufe &ndash; mindestens aber K&auml;lteresistenz 1 &ndash; gew&auml;hrt. Umgebungsk&auml;lteeffekte werden von dir zudem als eine Stufe geringer behandelt, als sie tats&auml;chlich sind.</p>"
    },
    "Strong-Blooded Dwarf": {
      "name": "Starkblutzwerg/Strong-Blooded Dwarf",
      "description": "<p>Die Widerstandskr&auml;fte deiner Ahnen sind stark in dir vertreten, so dass du Giften besser widerstehen kannst. Du erlangst Giftresistenz in H&ouml;he deiner halben Stufe (Minimum 1); jeder erfolgreiche Rettungswurf gegen ein Leiden der Kategorie Gift reduziert seinen Verlauf um 2 Phasen und im Falle eines Ausgepr&auml;gten Giftes um 1 Phase. Jeder Kritische Erfolg gegen ein anhaltendes Gift reduziert den Verlauf um 3 Phasen (2 Phasen bei einem Ausgepr&auml;gten Gift).</p>"
    },
    "Aasimar": {
      "name": "Aasimar",
      "description": "<p><em>Zahllose Legenden berichten von Romanzen zwischen Sterblichen und Unsterblichen sowie den dabei gezeugten Kindern. Diese als Ebenenabk&ouml;mmlinge bekannten Nachkommen sind Sterbliche, welche die &uuml;bernat&uuml;rliche Essenz einer anderen Ebene erben. Diese manifestiert sich schlie&szlig;lich sowohl in Form k&ouml;rperlicher Merkmale als auch durch ihre au&szlig;erweltlichen Kr&auml;fte. Vermutlich existieren ebenso viele Arten von Ebenenabk&ouml;mmlingen, wie es Kreaturen im Gro&szlig;en Jenseits gibt. Dieser Abschnitt beschr&auml;nkt sich deshalb auf die Regeln f&uuml;r drei davon &ndash; die celestischen Aasimare, die von der Macht von Seelenbegleitern durchtr&auml;nkten D&auml;mmerwandler und die Tieflinge, durch deren Adern infernales Blut flie&szlig;t &ndash; und darunter ausschlie&szlig;lich auf jeweils einige beispielhafte Gebl&uuml;te.</em></p>\n<hr />\n<p>Aasimare werden bereits mit denselben Kr&auml;ften geboren, &uuml;ber die gutm&uuml;tige celestische Wesenheiten verf&uuml;gen. Viele andere Kreaturen halten sie daher mit ihrer enormen Willensst&auml;rke, ihrer unbeschreiblichen Sch&ouml;nheit und ihren angeborenen magischen F&auml;higkeiten f&uuml;r &uuml;berm&auml;&szlig;ig gesegnet. Die meisten Aasimare versp&uuml;ren deshalb h&auml;ufig das Gef&uuml;hl, dass diese angenommenen F&auml;higkeiten &ndash; unabh&auml;ngig davon, ob sie mit diesen aufgrund ihres Gebl&uuml;ts &uuml;berhaupt begabt wurden &ndash; stets einen Keil zwischen sie und ihre engsten Freunde und Familienangeh&ouml;rigen treiben, wecken sie doch bei anderen gerne deren Neid und treiben die Aasimare auf diese Weise in die Einsamkeit. Aasimare mit einer unersch&uuml;tterlich positiven Einstellung stellen sich dieser Herausforderung nur zu gerne, indem sie ihren Gemeinschaften dienen, diese durch ihre Freundlichkeit oder Kunstwerke bereichern oder einfach jenen helfen, die in ihrem Leben weniger Gl&uuml;ck erfahren haben. Manche Aasimare verfolgen hingegen eine dunklere Weltanschauung und riskieren damit, sich selbst in einer endlosen Spirale des Grolls und der Verzweiflung zu verlieren und dabei m&ouml;glicherweise sogar dem Lockruf des B&ouml;sen zu verfallen. Doch selbst dann klammern sich die Vorurteile und Stereotypen, die sich um die Aasimare ranken, noch fest um sie, sodass viele in ihnen lediglich traurige, erl&ouml;sungsbed&uuml;rftige Kreaturen sehen.</p>\n<p>Sowohl die Kr&auml;fte als auch das &auml;u&szlig;ere Erscheinungsbild, die von den celestischen Wesen an die Aasimare weitergegeben werden, variieren sehr stark und h&auml;ngen vom Gebl&uuml;t, also von der pers&ouml;nlichen Ahnenlinie des Aasimars, ab. Die Abk&ouml;mmlinge von Archonten werden in manchen Regionen auch als Ordnungskinder bezeichnet, w&auml;hrend Aasimare mit Engelsblut in ihren Adern als Engelskinder und die Nachkommen der Azatas als Musenkinder bekannt sind.</p>\n<p>Wenn du auf der Suche nach einem Charakter mit celestischen Kr&auml;ften, einzigartigen k&ouml;rperlichen Merkmalen und dem Potential f&uuml;r einen starken Glauben bist, solltest du einen Aasimar spielen.</p>\n<h2>DU K&Ouml;NNTEST...</h2>\n<ul>\n<li>... &uuml;ber ein ausgezeichnetes Modebewusstsein verf&uuml;gen, dich an hochwertig verarbeiteter Handwerkskunst erfreuen oder dich auf ganz nat&uuml;rliche Weise unheimlich grazil bewegen.</li>\n<li>... dich Ausgesto&szlig;enen, Waisen oder anderen Au&szlig;enseitern der Gesellschaft, die meistens von anderen missverstanden oder unterdr&uuml;ckt werden, besonders eng verbunden f&uuml;hlen.</li>\n<li>... ein geliebtes Haustier besitzen oder ein vertrautes Verh&auml;ltnis zu einem Geschwisterteil oder einem Kindheitsfreund haben.</li>\n</ul>\n<h2>ANDERE K&Ouml;NNTEN...</h2>\n<ul>\n<li>... dich f&uuml;r einen &uuml;bernat&uuml;rlichen Gesandten der G&ouml;tter halten oder dich f&uuml;r deine Herkunft sogar lobpreisen.</li>\n<li>... dich verehren oder anbeten, gleichzeitig aber eine Distanz zu dir aufbauen, indem sie dich auf ein Podest erheben.</li>\n<li>... glauben, dass du alle ihre Probleme mit nur einem Fingerschnippen l&ouml;sen k&ouml;nntest.</li>\n</ul>\n<h2>K&Ouml;RPERLICHE BESCHREIBUNG</h2>\n<p>Das Erscheinungsbild eines Aasimars h&auml;ngt ebenso stark von seiner celestischen Herkunft wie von den &auml;u&szlig;eren Merkmalen seiner Eltern ab. Man erkennt Aasimare zwar stets als Angeh&ouml;rige einer humanoiden Abstammung, doch sie verf&uuml;gen auch &uuml;ber einige k&ouml;rperliche Merkmale, die sie eindeutig von gew&ouml;hnlichen Humanoiden unterscheiden. Dies k&ouml;nnen leuchtende Augen, ein schwacher Heiligenschein &uuml;ber ihren K&ouml;pfen, Federn anstelle von Haaren, aus der Stirn wachsende Antennen, ein metallischer Glanz der Haut, das Fehlen eines Bauchnabels, eine seltsam melodische Stimme oder ein angenehm blumiger Duft sein. Zum Stereotyp des Aasimars z&auml;hlt aber auch sein gutes Aussehen und seine pure Sch&ouml;nheit &ndash; eine weitere Mutma&szlig;ung, mit der Aasimare ihr Leben lang immer wieder konfrontiert werden.</p>\n<h2>GESELLSCHAFT</h2>\n<p>In den meisten Regionen sind Aasimare zu weit verstreut, als dass sie eigene Gesellschaften bilden w&uuml;rden. Stattdessen f&uuml;gen sie sich eher in die Gesellschaft und Kultur ihrer sterblichen Elternteile ein und bl&uuml;hen in Gemeinschaften, in denen Freiheit, Gerechtigkeit und H&ouml;flichkeit als die h&ouml;chsten Tugenden gelten, regelrecht auf. Sei es aufgrund ihres angeborenen Charmes und Selbstvertrauens oder durch die unerkl&auml;rliche Neigung anderer, den Worten eines Aasimars bedingungslos ein gr&ouml;&szlig;eres Gewicht zuzusprechen als denen anderer Kreaturen, immer wieder finden sich Aasimare in F&uuml;hrungspositionen oder &auml;hnliche Rollen gedr&auml;ngt, die sie eigentlich gar nicht zu &uuml;bernehmen versuchen. Dadurch sehen sie sich aber auch h&auml;ufig in der Verantwortung, andere mit ihren Taten und Worten nicht &uuml;berm&auml;&szlig;ig zu beeinflussen. Finden sich in einer Region ausreichend Aasimare zusammen, um eine eigene Gemeinschaft zu bilden, zeichnen sich diese durch ihren eisernen Zusammenhalt aus. Dennoch sind solche Gesellschaften gegen&uuml;ber Besuchern stets offen und freundlich gesinnt, lediglich gegen&uuml;ber ausgewiesenen Feinden &uuml;ben Aasimare ohne Z&ouml;gern ihr Verst&auml;ndnis von Gerechtigkeit aus.</p>\n<h2>GESINNUNG UND RELIGION</h2>\n<p>Das celestische Wesen eines Aasimars zwingt diesen nicht automatisch dazu, den Pfad des Guten zu bestreiten oder gar eine bestimmte Religion anzunehmen. Vielmehr steht es jedem Aasimar frei, sich seine eigene Pers&ouml;nlichkeit auszubilden und ohne Einschr&auml;nkungen zu glauben, woran er will. In den meisten F&auml;llen werden Aasimare aber bereits w&auml;hrend der Kindheit und Jugend durch ihre Eltern und die Gesellschaft, in der sie leben, so sozialisiert, dass sie schlie&szlig;lich eine gute Gesinnung entwickeln. Besonders die von ihrer Gesellschaft und ihren Eltern gebotene Sicherheit, Akzeptanz und Unterst&uuml;tzung sowie der unterbewusste Einfluss der celestischen Ebenen lenkt Aasimare in diese Richtung. So erwecken gute Religionen &ndash; insbesondere jene, in denen celestische Gottheiten wie Desna, Ersatil oder Sarenrae verehrt werden &ndash; viel wahrscheinlicher die Aufmerksamkeit eines Aasimars.</p>\n<p>Die wenigen Aasimare, die sich dennoch f&uuml;r den Pfad des B&ouml;sen entscheiden, zeichnen sich durch ihre &uuml;bertriebene Grausamkeit und ihre sadistischen Neigungen aus. Viele mutma&szlig;en, dass diese Aasimare durch ihr b&ouml;sartiges Verhalten versuchen, ihre Entscheidungen zu rechtfertigen und diese nur umso verbissener verfolgen, weil sie sich damit gegen ihr gutm&uuml;tiges celestisches Erbe stellen.</p>\n<h2>&Auml;NDERUNGEN</h2>\n<p>Du bist der Abk&ouml;mmling eines Celestischen oder wurdest von den celestischen Reichen ber&uuml;hrt. Deine Herkunft verleiht dir neben einer nat&uuml;rlichen ehrfurchtgebietenden Ausstrahlung und einer unheimlichen Eleganz auch &auml;u&szlig;ere Merkmale, die auf deinen celestischen Ahnen hindeuten. Zus&auml;tzlich zu den von deiner Abstammung stammenden Kategorien erh&auml;ltst du die Kategorie Aasimar. Ferner gewinnst du die F&auml;higkeit @Compendium[pf2e.ancestryfeatures.DRtaqOHXTRtGRIUT]{D&auml;mmersicht} (bzw. @Compendium[pf2e.ancestryfeatures.HHVQDp61ehcpdiU8]{Dunkelsicht}, solltest du D&auml;mmersicht bereits besitzen). Wenn du ein Abstammungstalent erlangst, kannst du sowohl aus den Talenten deiner Abstammung als auch aus den Aasimartalenten ausw&auml;hlen.</p>"
    },
    "Nine Lives Catfolk": {
      "name": "Glückgesegneter Amurrun/Nine Lives Catfolk",
      "description": "<p>Deine Familie scheint sich von allen m&ouml;glichen Katastrophen wieder zu erholen, was jedoch weniger auf ihre physische Widerstandsf&auml;higkeit und Z&auml;higkeit oder ihre besonderen F&auml;higkeiten zur&uuml;ckzuf&uuml;hren ist, sondern sie vielmehr dem puren Gl&uuml;ck zu verdanken haben. Unter den anderen Amurruni wird sogar gemunkelt, dass du neun Leben h&auml;ttest. Solltest du durch einen Kritischer Treffer eines Angriffes auf 0 TP reduziert werden, erh&auml;ltst du daher lediglich den Zustand @Compendium[pf2e.conditionitems.yZRUzMqrMmfLu0V1]{Sterbend 1} anstelle von Sterbend 2.</p>"
    },
    "Gourd Leshy": {
      "name": "Kürbislesnik/Gourd Leshy",
      "description": "<p>Du besitzt einen gro&szlig;en K&uuml;rbis als Sch&auml;del. Dein Wissen stammt anstelle eines physischen Gehirns aus deinem Geist, sodass du einen praktischeren Nutzen f&uuml;r den Platz in deinem Kopf hast. Du kannst eine Ansammlung von Gegenst&auml;nden von bis zu 1 Last in deinem Kopf lagern. Der SG von Fertigkeitsw&uuml;rfen, um diese Gegenst&auml;nde aus deinem Kopf zu @Compendium[pf2e.actionspf2e.RDXXE7wMrSPCLv5k]{Stehlen}, erh&ouml;ht sich um 4. Wenn du au&szlig;erdem nur einen Gegenstand in deinem Kopf lagerst, kannst du ihn als Teil einer Handlung zur Nutzung des Gegenstandes problemlos herausziehen. Das Hervorholen des Gegenstandes verleiht der anderen Handlung die Kategorie Handhaben.</p>"
    },
    "Spellscale Kobold": {
      "name": "Zauberschuppenkobold/Spellscale Kobold",
      "description": "<p>Durch deine Adern flie&szlig;t ein Funken drakonischer Magie. W&auml;hlen einen Zaubertrick aus der Arkanen Zauberliste, den du schlie&szlig;lich beliebig oft als immanenten arkanen Zauber wirken kannst. Ein Zaubertrick wird auf einen Zaubergrad entsprechend deiner halben Stufe &ndash; der Wert wird dabei aufgerundet &ndash; erh&ouml;ht. Du erlangst zudem den Kompetenzgrad Ge&uuml;bt f&uuml;r Arkane Zauberangriffsw&uuml;rfe sowie deine Zauber-SG und Charisma stellt dein magisches Schl&uuml;sselattribut dar.</p>"
    },
    "Skyborn Tengu": {
      "name": "Flugtengu/Skyborn Tengu",
      "description": "<p>Es mag daran liegen, dass deine Knochen besonders leicht sind, vielleicht bist du aber auch einer der &auml;u&szlig;erst seltenen Tengus, die mit Fl&uuml;geln ausgestattet sind oder du hast schlichtweg eine au&szlig;erordentlich starke Verbindung zu den Geistern des Windes und des Himmels &ndash; all dies k&ouml;nnen Gr&uuml;nde daf&uuml;r sein, dass deine St&uuml;rze stets abgebremst werden. Egal wie tief du also st&uuml;rzt, du erleidest dabei keinen Sturzschaden.</p>"
    },
    "Changeling": {
      "name": "Wechselbalg/Changeling",
      "description": "<p><em>In nahezu allen Kulturen existieren Erz&auml;hlungen und Ger&uuml;chte &uuml;ber Kinder, die von Monstern geraubt und durch deren eigene Brut ersetzt wurden &ndash; die wahren Monster, die hinter diesen Geschichten stecken, sind aber die Vettelm&uuml;tter dieser seltsamen Kinder. Nachdem eine Vettel einen Mann verf&uuml;hrt, benutzt und anschlie&szlig;end entsorgt hat, l&auml;sst sie ihr Wechselbalgkind meistens in der Gemeinschaft des Vaters zur&uuml;ck, damit es dort aufgezogen wird. Ein solches Kind findet sich schlie&szlig;lich mit einer endlosen Reihe an Ablehnungen und pers&ouml;nlichen Herausforderungen konfrontiert, beginnt es sein Leben doch bereits als Waise und kleidet dadurch die Rolle des Au&szlig;enseiters aus.</em></p>\n<hr />\n<p>Wechselb&auml;lger &auml;hneln weitestgehend den Angeh&ouml;rigen der Abstammung ihres Vaters, unterscheiden sich aber unverkennbar durch ihre verschiedenfarbigen Augen von anderen. Eines der Augen entspricht dabei einer von der v&auml;terlichen Erblinie &uuml;bernommene Farbe, w&auml;hrend das zweite stets dem m&uuml;tterlichen Erbe folgt und daher meist einen unnat&uuml;rlichen Farbton wie Violett oder ein strahlendes Gr&uuml;n annimmt. Diese &auml;u&szlig;eren Erscheinungsformen ihrer Vettelherkunft machen es Wechselb&auml;lgern au&szlig;erordentlich schwer, ihr wahres Wesen vor anderen zu verbergen. Obwohl verschiedenfarbige Augen kein Garant f&uuml;r die Abstammung von einer Vettelmutter sind, treten diese doch auch bei gew&ouml;hnlichen Humanoiden auf, kann dieses Zeichen sogar zur Verbannung aus einer Gesellschaft f&uuml;hren. Sobald Wechselb&auml;lger das Erwachsenenalter erreichen, bilden sie schlie&szlig;lich weitere Merkmale und Besonderheiten aus, die sie von ihrer Vettelmutter geerbt haben &ndash; einschlie&szlig;lich ihrer &uuml;bernat&uuml;rlichen F&auml;higkeiten. Am h&auml;ufigsten handelt es sich dabei um Dunkelsicht, klauenartige Fingern&auml;gel und immanente magische F&auml;higkeiten, in manchen F&auml;llen pr&auml;gen Wechselb&auml;lger aber auch noch fremdartigere und spezifischere F&auml;higkeiten ihrer Vettelm&uuml;tter aus.</p>\n<p>Wechselb&auml;lger k&ouml;nnen jedem Geschlecht angeh&ouml;ren, wobei Frauen gegen&uuml;ber dem Ruf der Vetteln &ndash; jenem mentalen Einfluss, der sie dazu dr&auml;ngt, ihr sterbliches Leben hinter sich zu lassen, sich dem Zirkel der Mutter anzuschlie&szlig;en und schlie&szlig;lich m&ouml;glicherweise selbst zu einer Vettel zu werden &ndash; wesentlich anf&auml;lliger sind. Wechselb&auml;lger, die sich ihrer wahren Herkunft bewusst sind, f&uuml;rchten diesen Ruf meist mehr als alles andere und versuchen verzweifelt, diesem zu widerstehen. Andere ihrer Art hingegen, versp&uuml;ren m&ouml;glicherweise diesen zwanghaften Trieb, ohne jemals den in ihrer Herkunft verborgenen Grund daf&uuml;r zu erfahren.</p>\n<h2>DU K&Ouml;NNTEST...</h2>\n<ul>\n<li>... Freunde und Familienangeh&ouml;rige, die dich akzeptieren wie du bist, sch&auml;tzen und mit deinem Leben besch&uuml;tzen.</li>\n<li>... das Wesen deiner Vettelmutter und die von ihr geerbten F&auml;higkeiten besser zu verstehen versuchen oder dich ganz gezielt von deiner Herkunft distanzieren.</li>\n<li>... den Tag, an dem du den Ruf der Vetteln vernimmst, f&uuml;rchten und dabei von der Sorge geplagt werden, diesem m&ouml;glicherweise nachzugeben &ndash; oder bereits t&auml;glich gegen diesen Ruf ank&auml;mpfen.</li>\n</ul>\n<h2>ANDERE K&Ouml;NNTEN...</h2>\n<ul>\n<li>... annehmen, dass du die okkulten K&uuml;nste oder Naturmagie praktizierst und dich m&ouml;glicherweise sogar als Mitglied eines Zirkels sehen.</li>\n<li>... sich dar&uuml;ber Gedanken machen, ob du nicht insgeheim doch ein b&ouml;sartiges Monster bist oder letztendlich zu einem werden und dich gegen sie wenden k&ouml;nntest.</li>\n<li>... deine verschiedenfarbigen Augen bemerken und wilde Spekulationen dar&uuml;ber anstellen.</li>\n</ul>\n<h2>&Auml;NDERUNGEN</h2>\n<p>Deine Mutter ist eine Vettel &ndash; deine verschiedenfarbigen Augen stellen ein offenkundiges Zeichen dieser Verwandtschaft dar. Zudem bist du wahrscheinlich auch schlanker gebaut als die meisten Angeh&ouml;rigen der Abstammung deines Vaters, hast einen ungew&ouml;hnlich blassen Teint und eher dunkle Haare. Durch deine Herkunft erlangst du die Kategorie Wechselbalg sowie @Compendium[pf2e.ancestryfeatures.DRtaqOHXTRtGRIUT]{D&auml;mmersicht} bzw. @Compendium[pf2e.ancestryfeatures.HHVQDp61ehcpdiU8]{Dunkelsicht}, solltest du bereits durch deine Abstammung &uuml;ber D&auml;mmersicht verf&uuml;gen. Immer, wenn du ein Abstammungstalent erh&auml;ltst, kannst du dieses aus den im Folgenden aufgelisteten Wechselbalgtalenten oder aus den der Abstammung deines Vaters zugeordneten Abstammungstalenten w&auml;hlen.</p>"
    },
    "Smokeworker Hobgoblin": {
      "name": "Feuerwerkerhobgoblin/Smokeworker Hobgoblin",
      "description": "<p>Deine Familie besteht seit Generationen aus Alchemisten, Ingenieuren und Wissenschaftlern, die daran, arbeiten Rauch und Feuer auf das Schlachtfeld zu bringen. Du erh&auml;ltst Feuerresistenz in H&ouml;he deiner halben Stufe (Minimum 1). Du bestehst automatisch den Einfachen Wurf gegen SG 5, um eine @Compendium[pf2e.conditionitems.DmAIPqOBomZ7H95W]{Verborgene} Kreatur zu entdecken, wenn diese nur durch Rauch verborgen ist.</p>"
    },
    "Cavern Kobold": {
      "name": "Höhlenkobold/Cavern Kobold",
      "description": "<p>Du bist in einem Koboldbau geschl&uuml;pft, welcher in die steinernen H&ouml;hlen nahe der Oberfl&auml;che gegraben wurde und f&uuml;r unz&auml;hlige deiner Art in engen Tunneln eine Heimat bildete. Dein K&ouml;rper ist flexibel, was es dir erlaubt, dich zu verdrehen und dich durch die engsten Spalten zu quetschen und H&ouml;hlenw&auml;nde hinaufzukraxeln. Wenn du steinerne W&auml;nde, Stalaktiten oder andere nat&uuml;rliche Steinformationen @Compendium[pf2e.actionspf2e.pprgrYQ1QnIDGZiy]{bekletterst}, bewegst du dich bei einem erfolgreichen Wurf mit halber und bei einem Kritischen Erfolg mit normaler Bewegungsrate (und du bewegst bei einem erfolgreichen Wurf auch mit voller Bewegungsrate, sofern du das Talent @Compendium[pf2e.feats-srd.P04Hw8E6WAWARKHP]{Schnelles Klettern} hast). Dies hat keinen Einfluss auf dich, wenn du deine Bewegungsrate zum Klettern zur Fortbewegung verwendest. Wenn du bei einem Fertigkeitswurf f&uuml;r Akrobatik zum @Compendium[pf2e.actionspf2e.kMcV8e5EZUxa6evt]{Hindurchzw&auml;ngen} einen Erfolg erzielst, erzielst du stattdessen einen Kritischen Erfolg.</p>"
    },
    "Twilight Halfling": {
      "name": "Zwielichthalbling/Twilight Halfling",
      "description": "<p>Deine Ahnen haben im Schutz der D&auml;mmerung viele verborgene Taten &ndash; guten wie b&ouml;sen &ndash; ausge&uuml;bt und mit der Zeit die F&auml;higkeit entwickelt, noch besser zu sehen als normale Halblinge. Du erlangst @Compendium[pf2e.ancestryfeatures.DRtaqOHXTRtGRIUT]{D&auml;mmersicht}.</p>"
    },
    "Arctic Elf": {
      "name": "Eiself/Arctic Elf",
      "description": "<p>Du lebst hoch oben im eisigen Norden und besitzt unglaubliche Widerstandkraft gegen kalte Umgebungen, die dir K&auml;lteresistenz in H&ouml;he deiner halben Stufe verleiht (Minimum 1). Du behandelst Umgebungseffekte der Kategorie K&auml;lte als um einen Schritt schw&auml;cher (Unglaubliche K&auml;lte ist f&uuml;r dich nur Extreme K&auml;lte, Extreme K&auml;lte nur Strenge K&auml;lte usw.).</p>"
    },
    "Gutsy Halfling": {
      "name": "Wackerhalbling/Gutsy Halfling",
      "description": "<p>Deine Ahnenreihe ist daf&uuml;r bekannt, einen k&uuml;hlen Kopf zu behalten und der Furcht nicht nachzugeben, wenn die Dinge gegen sie sprechen. Dies macht euch zu weisen Anf&uuml;hrern und manchmal sogar zu Helden. Wenn du bei einem Rettungswurf gegen einen Gef&uuml;hlseffekt einen Erfolg erzielst, z&auml;hlt dieser als Kritischer Erfolg.</p>"
    },
    "Woodland Elf": {
      "name": "Waldelf/Woodland Elf",
      "description": "<p>Du hast dich an das Leben im Wald oder auch dem tiefen Dschungel angepasst und wei&szlig;t, wie man B&auml;ume erklimmt und das Blattwerk zum Vorteil ausnutzt. Wenn du einen Wurf zum @Compendium[pf2e.actionspf2e.pprgrYQ1QnIDGZiy]{Klettern} ablegst, um B&auml;ume, Ranken oder andere Pflanzen zu erklimmen, bewegst du dich bei einem Erfolg um deine halbe Bewegungsrate und bei einem Kritischen Erfolg um deine volle Bewegungsrate (solltest du &uuml;ber @Compendium[pf2e.feats-srd.P04Hw8E6WAWARKHP]{Schnelles Klettern} verf&uuml;gen, bewegst du dich bei einem Erfolg um deine volle Bewegungsrate). Dies alles betrifft dich nicht, solltest du &uuml;ber eine Bewegungsrate f&uuml;r Klettern verf&uuml;gen.</p>\n<p>Wenn du dich in der Gel&auml;ndeart Wald befindest, kannst du stets die Aktion @Compendium[pf2e.actionspf2e.ust1jJSCZQUhBZIz]{In Deckung gehen} nutzen, um Deckung zu erlangen, selbst wenn du dich nicht neben einem Hindernis befindest, das dir Deckung bieten kann.</p>"
    },
    "Dhampir": {
      "name": "Dhampir",
      "description": "<p><em>Viele bezeichnen Vampire als Kinder der Nacht, doch eigentlich steht dieser Titel den Dhampiren zu. Diese sterblichen Abk&ouml;mmlinge von Vampiren stehen n&auml;mlich nicht nur durch ihr &auml;u&szlig;eres Erscheinungsbild, sondern auch mit ihrer gesellschaftlichen Stellung, ihrem Temperament und ihrem Weltbild stets zwischen dem Leben und dem Untod.</em></p>\n<hr />\n<p>Die Geburt eines Dhampirs geht nur unter ganz speziellen Gegebenheiten vonstatten. Nicht nur die Komplexit&auml;t und Seltenheit dieser erforderlichen Umst&auml;nde stachelt dabei die Ger&uuml;chtek&uuml;che an. Es ist vor allem der der Gedanke, dass sterbliche Nachkommen von diesen untoten Monstern abstammen, der ein wahres Schreckbild der Gesellschaft darstellt. Tats&auml;chlich stammen manche Dhampire von sterblichen Wesen ab, die w&auml;hrend ihrer Schwangerschaft in Vampirinnen verwandelt wurden &ndash; andere jedoch sind die Abk&ouml;mmlinge aus der Vereinigung eines Sterblichen mit einem Vampir. Es gibt noch weitere, wenn auch seltenere M&ouml;glichkeiten, die zur Entstehung eines Dhampirs f&uuml;hren. Dazu geh&ouml;ren finstere Rituale oder andere &uuml;bernat&uuml;rliche Einfl&uuml;sse, die einen sterblichen S&auml;ugling mit dem vampirischen Fluch belegen. Aufgrund ihrer Herkunft ist das Leben eines Dhampirs oft voller H&uuml;rden und Herausforderungen, denn nur sehr wenige Vampireltern nehmen sich die Zeit oder hegen auch nur den Wunsch, ihr sterbliches Kind gro&szlig;zuziehen. Die meisten Angeh&ouml;rigen sterblicher Gesellschaften empfinden die bleiche Haut, den durchdringenden Blick sowie die nervenaufreibende Pr&auml;senz der Dhampire bestenfalls als absto&szlig;end.</p>\n<p>Obwohl Dhampire lebende Kreaturen sind, reagieren sie auf dieselbe Weise wie Untote auf Positive und Negative Energie. Aus diesem Grund werden sie von den meisten tiefgl&auml;ubigen Gemeinschaften abgelehnt und versto&szlig;en und wenden sich infolgedessen h&auml;ufig den nekromantischen K&uuml;nsten zu. Zwar sind Dhampire nicht unsterblich, sie altern aber um ein Vielfaches langsamer als die meisten Sterblichen &ndash; ihre Lebenserwartung entspricht dabei in etwa der eines Elfen. Dhampire haben oft Schwierigkeiten dabei, selbst Kinder zu zeugen, zumal die Nachkommen von Dhampiren selbst keine Dhampire sind.</p>\n<p>Ein Dhampir &auml;hnelt weitestgehend einem seiner Vorfahren aus der Ahnenlinie seines sterblichen Elternteiles, erbt jedoch auch einige vampirische Merkmale. So haben sie einen &auml;u&szlig;erst blassen, geradezu geisterhaften Teint und eine unnat&uuml;rlich helle Iris, sodass es fast wirkt, als w&uuml;rden ihre Augen lediglich aus einer stecknadelgro&szlig;en Pupille bestehen. Zudem verf&uuml;gen s&auml;mtliche Dhampire &uuml;ber lange, spitze Eckz&auml;hne, die manchmal sogar nahezu gleich lang werden k&ouml;nnen, wie die von wahren Vampiren. Trotz ihres abschreckenden &Auml;u&szlig;eren verspr&uuml;hen Dhampire eine faszinierende Eleganz, Sch&ouml;nheit und Charme.</p>\n<h2>DU K&Ouml;NNTEST...</h2>\n<ul>\n<li>... dich von deiner Abstammung zu distanzieren versuchen, indem du dich in die Gesellschaft einf&uuml;gst oder sogar selbst Jagd auf Untote machst.</li>\n<li>... kreative Vorsichtsma&szlig;nahmen treffen, um nicht ungewollt der &bdquo;Unterst&uuml;tzung&ldquo; durch heilende Magie ausgesetzt zu werden.</li>\n<li>... vom Anblick, Geruch und Geschmack von Blut fasziniert sein.</li>\n</ul>\n<h2>ANDERE K&Ouml;NNTEN...</h2>\n<ul>\n<li>... sich aufgrund deiner fahlen Haut und deiner spitzen Z&auml;hne verunsichert f&uuml;hlen.</li>\n<li>... &uuml;ber deine Herkunft und Motive r&auml;tseln oder diese sogar romantisieren.</li>\n<li>... sich von deiner nat&uuml;rlichen Eleganz, deinem bezaubernden Charm und deinem blendenden &Auml;u&szlig;eren auf seltsame Weise angezogen f&uuml;hlen.</li>\n</ul>\n<h2>&Auml;NDERUNGEN</h2>\n<p>Als Abk&ouml;mmling eines Vampirs bist du nicht nur gleichzeitig zur H&auml;lfte lebend und dennoch halb untot, sondern auch mit &uuml;bernat&uuml;rlichem Charme und Eleganz gesegnet, w&auml;hrend dein leichenblasser Hautton und deine messerscharfen Eckz&auml;hne, die aus deinem Kiefer herausragen, offensichtlich davon zeugen, dass du doch stets mit einem Bein im Grab stehst. Du erh&auml;ltst zus&auml;tzlich zu den sonstigen Kategorien deiner Abstammung die Kategorie Dhampir. Ferner verf&uuml;gst du &uuml;ber die F&auml;higkeit Heilung durch Negative Energie, wodurch du wie ein Untoter Schaden durch Positive Energie erleidest, aber durch Negative Energieeffekte geheilt wirst. Zudem erlangst du @Compendium[pf2e.ancestryfeatures.DRtaqOHXTRtGRIUT]{D&auml;mmersicht} (bzw. @Compendium[pf2e.ancestryfeatures.HHVQDp61ehcpdiU8]{Dunkelsicht}, solltest du aufgrund deiner Abstammung bereits &uuml;ber D&auml;mmersicht verf&uuml;gen). Wenn du ein Abstammungstalent erh&auml;ltst, kannst du aus den Talenten f&uuml;r deine Abstammung sowie aus den Dhampirtalenten w&auml;hlen.</p>"
    },
    "Ancient Elf": {
      "name": "Ehrwürdiger Elf/Ancient Elf",
      "description": "<p>W&auml;hrend deines langen Lebens hast du dich mit vielen Dingen befasst. W&auml;hle eine andere Klasse als die deine. Du erlangst das Zugangstalent f&uuml;r diese Klasse, selbst wenn du die Stufenvoraussetzungen nicht erf&uuml;llst. Du musst aber alle anderen Voraussetzungen des fraglichen Talents erf&uuml;llen.</p>"
    },
    "Sharp Beak": {
      "name": "Spitzer Schnabel/Sharp Beak",
      "description": "<p>Dank deines spitzen Schnabels bist du niemals wirklich unbewaffnet. Du verf&uuml;gst &uuml;ber einen Waffenlosen Schnabelangriff, mit dem du <a class=\"inline-roll roll\" title=\"piercing\" data-mode=\"roll\" data-flavor=\"piercing\" data-formula=\"1d6\"> 1W6</a> Stichschaden verursachst. Dein Schnabel geh&ouml;rt der Raufwaffengruppe an und hat die Eigenschaften Finesse und Waffenlos.</p>"
    },
    "Deep Orc": {
      "name": "Höhlenork/Deep Orc",
      "description": "<p>Deine schwieligen H&auml;nde und roten Augen zeugen von deinem Leben in der absoluten Finsternis der Bergh&ouml;hlen, in denen du aufgewachsen bist. Dort hast du aber auch gelernt, wie du mit minimalen Ressourcen &uuml;berleben und selbst auf Felsklippen k&auml;mpfen kannst. Du erh&auml;ltst daher die Fertigkeitstalente @Compendium[pf2e.feats-srd.4tTkRyOQ0VuRBac3]{Gel&auml;ndekundiger (Unterirdisch)} und @Compendium[pf2e.feats-srd.09PurtIanNUPfNRq]{Kampfkletterer}.</p>"
    },
    "Warrenbred Hobgoblin": {
      "name": "Tunnelhobgoblin/Warrenbred Hobgoblin",
      "description": "<p>Deine Vorfahren lebten unterirdisch. Deine Ohren sind gr&ouml;&szlig;er als die anderer Hobgoblins und reagieren empfindlich auf Widerhall. Wenn du dich unterirdisch aufh&auml;ltst, kannst du die Aktion @Compendium[pf2e.actionspf2e.BlAOM2X92SI6HMtJ]{Suchen} nutzen, um @Compendium[pf2e.conditionitems.DmAIPqOBomZ7H95W]{Verborgene} Kreaturen im Umkreis von 9 m statt 4,5 m aufzusp&uuml;ren. Wenn du au&szlig;erdem bei einem Fertigkeitswurf f&uuml;r Akrobatik zum @Compendium[pf2e.actionspf2e.kMcV8e5EZUxa6evt]{Hindurchzw&auml;ngen} bei einer Engstelle einen Erfolg erzielst, erh&auml;ltst du stattdessen einen Kritischen Erfolg.</p>"
    },
    "Half-Orc": {
      "name": "Halbork/Half-Orc",
      "description": "<p>Eines deiner Elternteile war entweder ein Ork oder einer oder beide waren Halborks. Du hast eine gr&uuml;nliche Hautfarbe und andere Merkmale einer orkischen Herkunft. Du erh&auml;ltst @Compendium[pf2e.ancestryfeatures.DRtaqOHXTRtGRIUT]{D&auml;mmersicht}&nbsp;und die Kategorie Ork. Du kannst aus den orkischen, halborkischen und menschlichen Abstammungstalenten w&auml;hlen, wenn du ein Abstammungstalent erh&auml;ltst.</p>"
    },
    "Land on Your Feet": {
      "name": "Auf den Füssen landen/Land on Your Feet",
      "description": "<p>Wenn du st&uuml;rzt, erleidest du nur die H&auml;lfte des normalen Schadens und erleidest nicht den Zustand @Compendium[pf2e.conditionitems.j91X7x0XSomq8d60]{Liegend}.</p>"
    },
    "Deep Rat": {
      "name": "Finsterlandysoki/Deep Rat",
      "description": "<p>Deine Vorfahren lebten noch um einiges tiefer unter der Erde als andere Ysokis, sodass diese &uuml;ber mehrere Generationen die F&auml;higkeit entwickelt haben, im Dunkeln sehen zu k&ouml;nnen. Du erh&auml;ltst durch diese Abstammung @Compendium[pf2e.ancestryfeatures.HHVQDp61ehcpdiU8]{Dunkelsicht}.</p>"
    },
    "Anvil Dwarf": {
      "name": "Ambosszwerg/Anvil Dwarf",
      "description": "<p>Du bist ein Nachkomme eines ber&uuml;hmten Handwerkers und hast offenbar sein K&ouml;nnen geerbt. Andere Zwerge k&ouml;nnten dies als Segen deines Ahnen oder des Schmiedevaters selbst erachten. Du erh&auml;ltst den Kompetenzgrad Ge&uuml;bt in Handwerkskunst (oder in einer anderen F&auml;higkeit, solltest du bereits den Grad Ge&uuml;bt in Handwerkskunst besitzen). Du erlangst zudem das Talent Handwerksspezialist und kannst zwei verschiedene Spezialisierungen w&auml;hlen statt nur eine.</p>\n<hr />\n<ul>\n<li>@Compendium[pf2e.feats-srd.XVnpntqV6w94PoOb]{Handwerksspezialist (Alchemie)}</li>\n<li>@Compendium[pf2e.feats-srd.59FN13nU6agKT4oa]{Handwerksspezialist (Buchbinderei)}</li>\n<li>@Compendium[pf2e.feats-srd.YmzLnj4ojlf9INNP]{Handwerksspezialist (Glasbl&auml;serei)}</li>\n<li>@Compendium[pf2e.feats-srd.YvoiGWZhtbHH6NMF]{Handwerksspezialist (Holzarbeit)}</li>\n<li>@Compendium[pf2e.feats-srd.22HUfCajd6IkATOR]{Handwerksspezialist (Kunsthandwerk)}</li>\n<li>@Compendium[pf2e.feats-srd.WddEyALYHfpeUjZB]{Handwerksspezialist (Lederarbeit)}</li>\n<li>@Compendium[pf2e.feats-srd.tbIMWrIRI9P9cubM]{Handwerksspezialist (Schiffsbau)}</li>\n<li>@Compendium[pf2e.feats-srd.S8mPrjJjuObotmjZ]{Handwerksspezialist (Schmiedearbeit)}</li>\n<li>@Compendium[pf2e.feats-srd.B06QKNvKYqxYGwPU]{Handwerksspezialist (Schneiderei)}</li>\n<li>@Compendium[pf2e.feats-srd.TWkwy0uQvTGlgEFG]{Handwerksspezialist (Steinmetzarbeit)}</li>\n<li>@Compendium[pf2e.feats-srd.8XC2xJ7Y1xlr6Xor]{Handwerksspezialist (T&ouml;pferei)}</li>\n<li>@Compendium[pf2e.feats-srd.dTjzxCy9pku5gL0F]{Handwerksspezialist (Webarbeit)}</li>\n</ul>"
    },
    "Longsnout Rat": {
      "name": "Langschnauzenysoki/Longsnout Rat",
      "description": "<p>Innerhalb deiner Familie wird eine besonders lange Schnauze vererbt, wodurch ihr &uuml;ber einen ausgepr&auml;gteren Geruchssinn verf&uuml;gt als die meisten anderen Ysokis. Du erh&auml;ltst dadurch einen Geruchssinn (ungenau) mit 9 Metern Reichweite (S. GRW Seite 465). Mithilfe deines Geruchssinnes kannst du die Position einer Kreatur innerhalb der Reichweite bestimmen. Die Reichweite verdoppelt sich, wenn die Kreatur gegen Windrichtung zu deiner Position steht, sodass dieser ihren Geruch in deine Richtung weht, halbiert sich jedoch, wenn sie sich in der Gegenrichtung befindet.</p>\n<p>Ferner erh&auml;ltst du einen Situationsbonus von +2 auf Fertigkeitsw&uuml;rfe f&uuml;r Wahrnehmung beim @Compendium[pf2e.actionspf2e.BlAOM2X92SI6HMtJ]{Suchen} einer innerhalb der Reichweite deines Geruchssinns befindlichen Kreatur oder eines Gegenstandes.</p>"
    },
    "Irongut Goblin": {
      "name": "Eisenmagengoblin/Irongut Goblin",
      "description": "<p>Du kannst von Nahrung leben, die die meisten anderen Leute als verdorben ansehen w&uuml;rden. Du kannst von minderwertigen Mahlzeiten in einer Ortschaft leben, solange M&uuml;ll frei verf&uuml;gbar ist, ohne auf die Auszeitaktivit&auml;t &Uuml;berleben angewiesen zu sein. Du kannst essen und trinken, selbst wenn du den Zustand @Compendium[pf2e.conditionitems.fesd1n5eVhpCSS18]{Kr&auml;nkelnd} besitzt.</p>\n<p>Du erlangst einen Situationsbonus von +2 auf Rettungsw&uuml;rfe gegen Leiden, gegen Effekte, die dir den Zustand @Compendium[pf2e.conditionitems.fesd1n5eVhpCSS18]{Kr&auml;nkelnd} verleihen w&uuml;rden, und um den Zustand Kr&auml;nkelnd abzusch&uuml;tteln. Wenn du einen Erfolg bei einem Z&auml;higkeitswurf erzielst, der von diesem Bonus profitiert, z&auml;hlt dies als Kritischer Erfolg. All diese Vorteile greifen aber nur, wenn der Zustand oder das Leiden aus etwas von dir Gegessenem resultiert.</p>"
    },
    "Jungle Catfolk": {
      "name": "Waldamurrun/Jungle Catfolk",
      "description": "<p>Du stammst von Dschungelpirschern ab, weshalb es in deiner Natur liegt, dich schnell durch Geb&uuml;sch und Unterholz zu bewegen. Du ignorierst daher durch Unterholz hervorgerufenes Schwieriges Gel&auml;nde und behandelst Sehr schwieriges Gel&auml;nde &ndash; ebenfalls durch Unterholz verursacht &ndash; als Schwieriges Gel&auml;nde.</p>"
    },
    "Seer Elf": {
      "name": "Seherelf/Seer Elf",
      "description": "<p>Dir ist die F&auml;higkeit angeboren, magische Ph&auml;nomene wahrzunehmen und zu verstehen. Du kannst den Zaubertrick @Compendium[pf2e.spells-srd.gpzpAAAJ1Lza2JVl]{Magie entdecken} als Immanenten Arkanen Zauber beliebig oft wirken. Ein Zaubertrick wird auf einen Zaubergrad gleich deiner halben Stufe (aufgerundet) erh&ouml;ht.</p>\n<p>Du erlangst zudem einen Situationsbonus von +1 auf Fertigkeitsw&uuml;rfe zum @Compendium[pf2e.actionspf2e.eReSHVEPCsdkSL4G]{Magie identifizieren} und @Compendium[pf2e.actionspf2e.d9gbpiQjChYDYA2L]{Schrift identifizieren}, so es sich um magische Schrift handelt; die Fertigkeitsnutzungen greifen in der Regel auf die Fertigkeit Arkane K&uuml;nste, Naturkunde, Okkultismus oder Religionskunde zur&uuml;ck.</p>"
    },
    "Razortooth Goblin": {
      "name": "Messerzahngoblin/Razortooth Goblin",
      "description": "<p>Die Mitglieder deiner Familie besitzen eindrucksvolle, als Waffen nutzbare Z&auml;hne. Du erlangst einen Waffenlosen Bissangriff, welcher <a class=\"inline-roll roll\" title=\"piercing\" data-mode=\"roll\" data-flavor=\"piercing\" data-formula=\"1d6\">1W6</a> Punkte Stichschaden verursacht. Dein Biss besitzt die Kategorien Finesse und Waffenlos und geh&ouml;rt der Raufwaffengruppe an.</p>"
    },
    "Jinxed Halfling": {
      "name": "Unglücksbringer-Halbling/Jinxed Halfling",
      "description": "<p>Dem charakteristischen Halblingsgl&uuml;ck beraubt, wurdest du stattdessen mit einer seltsameren Gabe gesegnet, die es dir erm&ouml;glicht, das Schicksal der anderen zu manipulieren. Du erlangst die Aktion @Compendium[pf2e.actionspf2e.hFRHPBj6wjAayNtW]{Ungl&uuml;cksfluch}, kannst jedoch auf keine Weise das Talent @Compendium[pf2e.feats-srd.ZbRVqf14RTJJIZXG]{Halblingsgl&uuml;ck} erhalten.</p>"
    },
    "Jinxed Tengu": {
      "name": "Fluchfressertengu/Jinxed Tengu",
      "description": "<p>Deine Vorfahren wurden bereits mit derart vielen Fl&uuml;chen bedacht, dass diese mittlerweile wie Wassertropfen von deinen Federn abperlen. Gelingt dir ein Rettungswurf gegen einen Fluch- oder Ungl&uuml;ckseffekt, behandelst du diesen daher als Kritischen Erfolg. W&uuml;rdest du den Zustand @Compendium[pf2e.conditionitems.3uh1r86TzbQvosxv]{Todgeweiht} erhalten, kannst du einen <a class=\"inline-roll roll\" title=\"DC 17 flat check\" data-mode=\"roll\" data-flavor=\"DC 17 flat check\" data-formula=\"1d20\"> Einfachen Wurf</a> gegen SG 17 ablegen, um bei einem Erfolg den Zustandswert des Zustandes Todgeweiht um 1 zu reduzieren.</p>"
    },
    "Claws": {
      "name": "Klauen/Claws",
      "description": "<p>Deine scharfen Klauen bieten eine Alternative zu den F&auml;usten, die andere Humanoide in einem Kampf nutzen. Du verf&uuml;gst &uuml;ber einen Waffenlosen Klauenangriff, der 1W4 Punkte Hiebschaden verursacht und die Eigenschaften Agil und Finesse besitzt.</p>"
    },
    "Nomadic Halfling": {
      "name": "Nomadenhalbling/Nomadic Halfling",
      "description": "<p>Deine Ahnen reisen seit Generationen von Ort zu Ort, waren aber nirgends zufrieden genug, um sich dort niederzulassen. Du erlangst zwei zus&auml;tzliche Sprachen deiner Wahl aus den verbreiteten und ungew&ouml;hnlichen Sprachen, die dir verf&uuml;gbar sind. Wann immer du das Talent @Compendium[pf2e.feats-srd.P9HCz0uR6xPHuw72]{Vielsprachig} w&auml;hlst, erlangst du eine weitere neue Sprache.</p>"
    },
    "Tailed Goblin": {
      "name": "Kletterschwanzgoblin/Tailed Goblin",
      "description": "<p>Du verf&uuml;gst &uuml;ber einen kr&auml;ftigen Kletterschwanz - vermutlich stammst du von Affengoblins ab. Du erh&auml;ltst einen Situationsbonus von +2 auf W&uuml;rfe f&uuml;r Athletik, um zu @Compendium[pf2e.actionspf2e.pprgrYQ1QnIDGZiy]{klettern}, du erh&auml;ltst das Fertigkeits-Talent @Compendium[pf2e.feats-srd.09PurtIanNUPfNRq]{Kampfkletterer} und reduzierst die n&ouml;tigen H&auml;nde zum @Compendium[pf2e.actionspf2e.pprgrYQ1QnIDGZiy]{Klettern} oder das Man&ouml;ver @Compendium[pf2e.actionspf2e.ge56Lu1xXVFYUnLP]{Zu-Fall-Bringen} um eins.</p>"
    },
    "Warmarch Hobgoblin": {
      "name": "Kriegsmarschhobgoblin/Warmarch Hobgoblin",
      "description": "<p>Du stammst von umherziehenden S&ouml;ldnern ab, st&auml;ndig auf dem Vormarsch und unterwegs mit Pl&uuml;ndereien f&uuml;r dein Essen sorgend. Wenn du einen Fehlschlag (keinen Kritischen Fehlschlag) bei einem Fertigkeitswurf zum @Compendium[pf2e.actionspf2e.49y9Ec4bDii8pcD3]{&Uuml;berleben} in der Wildnis erzielst, kannst du dich dennoch mit minderwertiger Nahrung versorgen. W&auml;hrend du auf Erkundung bist, kannst du doppelt so lang @Compendium[pf2e.actionspf2e.JuqmIAnkL9hVGai8]{Eilen}, ehe du eine Pause machen musst.</p>"
    },
    "Wintertouched Human": {
      "name": "Winterberührter Mensch/Wintertouched Human",
      "description": "<p>Die Macht des Winters flie&szlig;t durch deine Adern. Diese Herkunft ist am h&auml;ufigsten bei den Jadwiga von Irrisen aufgrund ihrer Abstammung von Baba Jaga und bei einigen Erutaki zu finden, die von Naturgeistern ber&uuml;hrt wurden. Du erh&auml;ltst Resistenz gegen K&auml;lte in H&ouml;he deiner halben Stufe (mindestens 1) und du behandelst Umgebungseffekte von K&auml;lte, als w&auml;ren sie um einen Schritt schw&auml;cher (Unglaubliche K&auml;lte wird zu Extremer K&auml;lte, Extreme K&auml;lte wird zu Gro&szlig;er K&auml;lte usw.).</p>"
    },
    "Venomtail Kobold": {
      "name": "Giftschwanzkobold/Venomtail Kobold",
      "description": "<p>Eine Sporndr&uuml;se in deinem Schwanz sondert t&auml;glich ausreichend Gift f&uuml;r eine einzige gef&auml;hrliche Anwendung ab. Du erh&auml;ltst somit die Aktion @Compendium[pf2e.actionspf2e.ev8OHpBO3xq3Zt08]{Koboldschwanzgift}.</p>"
    },
    "Whisper Elf": {
      "name": "Flüsterelf/Whisper Elf",
      "description": "<p>Deine Ohren sind scharf und imstande, selbst leises Wispern wahrzunehmen. Solange du normal h&ouml;ren kannst, kannst du die Aktion @Compendium[pf2e.actionspf2e.BlAOM2X92SI6HMtJ]{Suchen} nutzen, um unentdeckte Kreaturen in einem 18 m-Kegel anstelle in einem 9 m-Kegel wahrzunehmen. Du erh&auml;ltst zudem einen Situationsbonus von +2, um @Compendium[pf2e.conditionitems.VRSef5y1LmL2Hkjf]{Unentdeckte} Kreaturen aufzusp&uuml;ren, welche du innerhalb von 9 m mittels Suchen h&ouml;ren k&ouml;nntest.</p>"
    },
    "Death Warden Dwarf": {
      "name": "Grufthüterzwerg/Death Warden Dwarf",
      "description": "<p>Deine Vorfahren wachen seit Generationen &uuml;ber Gr&auml;ber und Gr&uuml;fte und haben dir Widerstandskr&auml;fte gegen Nekromantie vererbt. Erzielst du einen Erfolg bei einem Rettungswurf gegen einen Effekt der Kategorie Nekromantie, so z&auml;hlt er als Kritischer Erfolg.</p>"
    },
    "Elemental Heart Dwarf": {
      "name": "Elementherzzwerg/Elemental Heart Dwarf",
      "description": "<p>Aufgrund einer Verbindung zu Torags Schmiede, den Azern der Ebene des Feuers oder einer anderen Quelle, kannst du einen wellenartigen Energiesto&szlig; von dir geben. Die Mbe&rsquo;ke und Taralu des Mwangibeckens halten dies f&uuml;r ein Geschenk der Drachen, der Qarini oder geisterhafter Elementarwesen.</p>\n<p>W&auml;hle eine der folgenden Schadensarten: Elektrizit&auml;t, Feuer, K&auml;lte oder S&auml;ure; diese Wahl kann sp&auml;ter nicht mehr ge&auml;ndert werden. Du erh&auml;ltst die Aktivit&auml;t @Compendium[pf2e.actionspf2e.7qjfYsLNTr17Aftf]{Elementarh&uuml;lle}.</p>"
    },
    "Vivacious Gnome": {
      "name": "Lebhafter Gnom/Vivacious Gnome",
      "description": "<p>Du hast sehr starke Verbindungen zu der Positiven Energie, die durch die Erste Welt flie&szlig;t, was es schwierig macht, deine Lebenskraft mit Negativer Energie anzugreifen. Du erh&auml;ltst Resistenz gegen Negative Energie gleich deiner halben Stufe (Minimum 1). Wenn du den Zustand @Compendium[pf2e.conditionitems.3uh1r86TzbQvosxv]{Todgeweiht} besitzt, betrifft dich der Zustand, als w&auml;re sein Wert um 1 niedriger, als er tats&auml;chlich ist (Todgeweiht 1 hat keine Auswirkung, Todgeweiht 2 bedeutet, du stirbst bei @Compendium[pf2e.conditionitems.yZRUzMqrMmfLu0V1]{Sterbend 3} und so weiter).</p>"
    },
    "Elfbane Hobgoblin": {
      "name": "Elfenbannhobgoblin/Elfbane Hobgoblin",
      "description": "<p>Hobgoblins wurden vor langer Zeit aus den unzuverl&auml;ssigen und fruchtbaren Goblins gez&uuml;chtet, um sie als Armee gegen die Elfen zu nutzen. Obwohl die Elfen sie letztendlich aus dieser Knechtschaft befreiten, haben sich einige Hobgoblins die vererbte Widerstandskraft gegen Magie bewahrt, welche sie als &bdquo;Elfenmagie&ldquo; bezeichnen. Du erh&auml;ltst die Reaktion @Compendium[pf2e.actionspf2e.On5CQjX4euWqToly]{Elfenmagie widerstehen}.</p>"
    },
    "Umbral Gnome": {
      "name": "Schattengnom/Umbral Gnome",
      "description": "<p>M&ouml;glicherweise hast du eine Verbindung zu dunklen oder Schattenfeen, zu dem unterirdisch lebenden Tiefengnomenvolk der Svirfneblin oder zu einer anderen Quelle. Auf jeden Fall kannst du in v&ouml;lliger Dunkelheit sehen. Du erh&auml;ltst @Compendium[pf2e.ancestryfeatures.HHVQDp61ehcpdiU8]{Dunkelsicht}.</p>"
    },
    "Low-Light Vision": {
      "name": "Dämmersicht/Low-Light Vision",
      "description": "<p>Du kannst bei D&auml;mmerlicht ebenso gut sehen wie bei hellem Licht, daher ignorierst du den Zustand @Compendium[pf2e.conditionitems.DmAIPqOBomZ7H95W]{Verborgen}, den andere Kreaturen durch D&auml;mmerlicht erhalten.</p>"
    },
    "Plant Nourishment": {
      "name": "Pflanzenernährung/Plant Nourishment",
      "description": "<p>Du erh&auml;ltst Nahrung auf die gleiche Art wie Pflanzen oder Pilze, die deinem K&ouml;rper &auml;hneln, sie normalerweise erhalten: durch eine Kombination aus Photosynthese, der Aufnahme von Mineralien durch deine Wurzeln oder dem Verzehr verrottender Biomasse. Du musst normalerweise nichts f&uuml;r dein Essen bezahlen. Wenn du dich f&uuml;r gew&ouml;hnlich auf Photosynthese verl&auml;sst und eine Woche ohne Sonnenlicht auskommen musst, beginnst du zu verhungern. Du kannst Nahrung aus speziell formulierten Flaschen mit Sonnenlicht ziehen, statt nat&uuml;rlichem Sonnenlicht, doch diese Flaschen kosten zehnmal so viel wie normaler Proviant (oder 40 SM).</p>"
    },
    "Desert Rat": {
      "name": "Wüstenysoki/Desert Rat",
      "description": "<p>Du stammst aus einer Region, die von endlosen Weiten trockenen Flachlandes gepr&auml;gt war, weshalb du als Reisender aufgewachsen bist. Du bist daher schlanker als andere Ysokis und besitzt l&auml;ngere Gliedma&szlig;en sowie ein sehr kurzes Fell. Solltest du beide H&auml;nde frei haben, kannst du auf allen Vieren mit einer Bewegungsrate von 9 Metern laufen. Ferner behandelst du Hitzeumgebungseffekte als einen Grad weniger extrem und kannst 10 Mal l&auml;nger marschieren als gew&ouml;hnlich, ehe du vom Hunger und Durst beeinflusst wirst. Im Gegenzug wirst du von K&auml;lteumgebungseffekten um einen Grad st&auml;rker beeinflusst als gew&ouml;hnlich, sofern du nicht mit einer geeigneten Schutzkleidung ausgestattet bist oder einen passenden Unterschlupf hast.</p>"
    },
    "Ancient-Blooded Dwarf": {
      "name": "Heldenblutzwerg/Ancient-Blooded Dwarf",
      "description": "<p><span class=\"fontstyle0\">Die zwergischen Helden der alten Zeit konnten die Magie ihrer Feinde einfach absch&uuml;tteln. Du verf&uuml;gst &uuml;ber einen Funken dieser Resistenz. Du erlangst die Reaktion @Compendium[pf2e.actionspf2e.8w6esW689NNbbq3i]{Kraft des Heldenblutes}.</span></p>"
    },
    "Unseen Lizardfolk": {
      "name": "Chamäleoniruxi/Unseen Lizardfolk",
      "description": "<p>Du kannst deine Hautfarbe &auml;ndern um mit deiner Umgebung zu verschmelzen, wobei du kleinere &Auml;nderungen innerhalb einer Aktion machen kannst und drastische Ver&auml;nderungen im Laufe einer Stunde. Wenn du in einem Gebiet bist, dessen F&auml;rbung grob der Umgebung &auml;hnelt (zum Beispiel Waldgr&uuml;n in einem Wald), kannst du die kleine, eine Aktion andauernde Anwendung dieser F&auml;higkeit nutzen, um &ouml;rtlich begrenzte Ver&auml;nderungen durchzuf&uuml;hren, die dir einen Bonus von +2 auf Fertigkeitsw&uuml;rfe f&uuml;r Heimlichkeit verleihen, bis sich die F&auml;rbung oder Musterung deiner Umgebung &auml;ndert.</p>"
    },
    "Rainfall Orc": {
      "name": "Regenwaldork/Rainfall Orc",
      "description": "<p>Du wurdest in einem Regenwald geboren und musstest bereits fr&uuml;h lernen, dass dich nur die verwobenen Baumwipfel und dichtesten Verwachsungen vor den sintflutartigen Regenst&uuml;rmen und Springfluten in dieser Umgebung zu sch&uuml;tzten verm&ouml;gen. Du verf&uuml;gst daher &uuml;ber die besondere F&auml;higkeit, dich rasch durch Dschungelgel&auml;nde zu bewegen und diversen Leiden zu widerstehen, die in feuchten Umgebungen nur allzu h&auml;ufig auftreten. Aufgrund deiner Herkunft erh&auml;ltst du daher einen Situationsbonus von +2 auf Fertigkeitsw&uuml;rfe f&uuml;r Athletik zum @Compendium[pf2e.actionspf2e.pprgrYQ1QnIDGZiy]{Klettern} oder @Compendium[pf2e.actionspf2e.c8TGiZ48ygoSPofx]{Schwimmen} sowie einen Situationsbonus von +1 auf Rettungsw&uuml;rfe gegen Krankheiten.</p>"
    },
    "Cavern Elf": {
      "name": "Höhlenelf/Cavern Elf",
      "description": "<p>Du wurdest in unterirdischen Tunneln oder H&ouml;hlen geboren oder hast dort viele Jahre verbracht. Licht gab es kaum, so dass du &uuml;ber @Compendium[pf2e.ancestryfeatures.HHVQDp61ehcpdiU8]{Dunkelsicht} verf&uuml;gst.</p>"
    },
    "Dragonscaled Kobold": {
      "name": "Drachenschuppenkobold/Dragonscaled Kobold",
      "description": "<p>Deine Schuppen sind besonders farbintensiv und bieten dir sogar einen Teil der Resistenz, welche ein Drache gegen seinen eigenen Odem hat. Du erh&auml;ltst Resistenz entsprechend deiner halben Stufe (Mindestens 1) gegen den Schadenstyp, welcher mit deinem @Compendium[pf2e.ancestryfeatures.egpiSWBrNBb1Fmig]{Drakonischer Patron} assoziiert ist. Verdoppele dies Resistenz gegen Odemwaffen von Drachen.</p>"
    },
    "Draconic Exemplar": {
      "name": "Drakonischer Patron/Draconic Exemplar",
      "description": "<p>Dein Drakonischer Patron verleiht dir schwache Kr&auml;fte. W&auml;hle eine Art des Chromatischen Drachens oder einen Metalldrachen, der deinen Schutzherrn darstellt. Deine Auswahl bestimmt auch deine Schuppenfarbe und dein &auml;u&szlig;eres Erscheinungsbild. Zudem behandeln Drachen zuweilen jene Kobolde besser als andere, die ihnen optisch &auml;hnlichsehen, wobei die im Ermessen des SL liegt. Dein Patron beeinflusst m&ouml;glicherweise auch noch weitere Aspekte, die vor allem deine F&auml;higkeiten betreffen. In diesem Fall greife auf die Tabelle auf dieser Seite zur&uuml;ck.</p>\n<h3><strong>TABELLE 1-1: DRAKONISCHE PATRONE</strong></h3>\n<table style=\"width: 365px; height: 170px;\" border=\"1\">\n<tbody>\n<tr style=\"height: 34px;\">\n<td style=\"width: 61px; height: 34px;\"><strong>Drache</strong></td>\n<td style=\"width: 104px; height: 34px;\"><strong>Odemform</strong></td>\n<td style=\"width: 86px; height: 34px;\"><strong>Odemschaden</strong></td>\n<td style=\"width: 101px; height: 34px;\"><strong>RW</strong></td>\n</tr>\n<tr style=\"height: 17px;\">\n<td style=\"width: 61px; height: 17px;\">Blau</td>\n<td style=\"width: 104px; height: 17px;\">Linie</td>\n<td style=\"width: 86px; height: 17px;\">Elektrizit&auml;t</td>\n<td style=\"width: 101px; height: 17px;\">REF</td>\n</tr>\n<tr style=\"height: 17px;\">\n<td style=\"width: 61px; height: 17px;\">Bronze</td>\n<td style=\"width: 104px; height: 17px;\">Linie</td>\n<td style=\"width: 86px; height: 17px;\">Elektrizit&auml;t</td>\n<td style=\"width: 101px; height: 17px;\">REF</td>\n</tr>\n<tr style=\"height: 17px;\">\n<td style=\"width: 61px; height: 17px;\">Gold</td>\n<td style=\"width: 104px; height: 17px;\">Kegel</td>\n<td style=\"width: 86px; height: 17px;\">Feuer</td>\n<td style=\"width: 101px; height: 17px;\">REF</td>\n</tr>\n<tr style=\"height: 17px;\">\n<td style=\"width: 61px; height: 17px;\">Gr&uuml;n</td>\n<td style=\"width: 104px; height: 17px;\">Kegel</td>\n<td style=\"width: 86px; height: 17px;\">Gift</td>\n<td style=\"width: 101px; height: 17px;\">Z&Auml;H</td>\n</tr>\n<tr style=\"height: 17px;\">\n<td style=\"width: 61px; height: 17px;\">Kupfer</td>\n<td style=\"width: 104px; height: 17px;\">Linie</td>\n<td style=\"width: 86px; height: 17px;\">S&auml;ure</td>\n<td style=\"width: 101px; height: 17px;\">REF</td>\n</tr>\n<tr style=\"height: 17px;\">\n<td style=\"width: 61px; height: 17px;\">Messing</td>\n<td style=\"width: 104px; height: 17px;\">Linie</td>\n<td style=\"width: 86px; height: 17px;\">Feuer</td>\n<td style=\"width: 101px; height: 17px;\">REF</td>\n</tr>\n<tr style=\"height: 17px;\">\n<td style=\"width: 61px; height: 17px;\">Rot</td>\n<td style=\"width: 104px; height: 17px;\">Kegel</td>\n<td style=\"width: 86px; height: 17px;\">Feuer</td>\n<td style=\"width: 101px; height: 17px;\">REF</td>\n</tr>\n<tr style=\"height: 17px;\">\n<td style=\"width: 61px; height: 17px;\">Schwarz</td>\n<td style=\"width: 104px; height: 17px;\">Linie</td>\n<td style=\"width: 86px; height: 17px;\">S&auml;ure</td>\n<td style=\"width: 101px; height: 17px;\">REF</td>\n</tr>\n<tr>\n<td style=\"width: 61px;\">Silber</td>\n<td style=\"width: 104px;\">Kegel</td>\n<td style=\"width: 86px;\">K&auml;lte</td>\n<td style=\"width: 101px;\">REF</td>\n</tr>\n<tr>\n<td style=\"width: 61px;\">Wei&szlig;</td>\n<td style=\"width: 104px;\">Kegel</td>\n<td style=\"width: 86px;\">K&auml;lte</td>\n<td style=\"width: 101px;\">REF</td>\n</tr>\n</tbody>\n</table>\n<p>&nbsp;</p>"
    },
    "Fishseeker Shoony": {
      "name": "Fischerschuni/Fishseeker Shoony",
      "description": "<p>Du stammst aus einer langen Reihe von Fischern und hast die schnellen Reflexe geerbt, die n&ouml;tig sind, um einen guten Fang zu machen. Wenn du bei einem Wurf zum @Compendium[pf2e.actionspf2e.3yoajuKjwHZ9ApUY]{Halt ergreifen} einen Erfolg erzielst, z&auml;hlt dieser als Kritischer Erfolg; wenn du einen Kritischen Fehlschlag erzielst, z&auml;hlt dieser nur als Fehlschlag. Eine Kreatur, die bei einem Wurf zum @Compendium[pf2e.actionspf2e.Dt6B1slsBy8ipJu9]{Entwaffnen} gegen dich einen Fehlschlag erzielt, erh&auml;lt stattdessen einen Kritischen Fehlschlag.</p>"
    },
    "Frilled Lizardfolk": {
      "name": "Krageniruxi/Frilled Lizardfolk",
      "description": "<p>Du kannst deine Halskrause ausbreiten und deine R&uuml;ckenstacheln aufstellen um deine Gegner zu demoralisieren. Wenn du das machst, verliert @Compendium[pf2e.actionspf2e.2u915NdUyQan6uKF]{Demoralisieren} die Kategorie H&ouml;rbar und erh&auml;lt die Kategorie Sichtbar. Du erh&auml;ltst keinen Malus, wenn du versuchst, eine Kreatur zu demoralisieren, die nicht deine Sprache spricht. Zus&auml;tzlich erh&auml;ltst du die Handlung @Compendium[pf2e.actionspf2e.W4M8L9WepGLamlHs]{Bedrohliches Ann&auml;hern}.</p>"
    },
    "Sensate Gnome": {
      "name": "Spürgnom/Sensate Gnome",
      "description": "<p>Du siehst alle Farben kr&auml;ftiger, h&ouml;rst Ger&auml;usche klarer und kannst Ger&uuml;che &auml;u&szlig;erst detailreich wahrnehmen. Du erlangst einen besonderen Sinn: Geruchssinn (Ungenau) 9 m. Dies bedeutet, dass du deinen Geruchssinn nutzen kannst, um die genaue Position einer Kreatur zu bestimmen (siehe auch GRW Seite 456). Der SL kann die Reichweite verdoppeln, sollte die Kreatur dir gegen&uuml;ber im Wind stehen, oder halbieren, sollte es umgekehrt sein. Du erlangst ferner einen Situationsbonus von +2 auf Wahrnehmungsw&uuml;rfe, wenn du versuchst, eine @Compendium[pf2e.conditionitems.VRSef5y1LmL2Hkjf]{Unentdeckte} Kreatur innerhalb der Reichweite deines Geruchssinns zu lokalisieren.</p>"
    },
    "Runtboss Hobgoblin": {
      "name": "Kläfferhobgoblin/Runtboss Hobgoblin",
      "description": "<p>Du entstammst einer langen Reihe von Hobgoblins, die Goblins herumkommandierten. Du bist kleiner als andere Hobgoblins, aber Goblins h&ouml;ren trotzdem auf alle Befehle, die du br&uuml;llst. Du erh&auml;ltst das Fertigkeitstalent @Compendium[pf2e.feats-srd.gUqvezs2zzoTXFAI]{Gruppe bedr&auml;ngen}. Wenn du erfolgreich einen Fertigkeitswurf f&uuml;r Einsch&uuml;chtern zum @Compendium[pf2e.actionspf2e.tHCqgwjtQtzNqVvd]{Bedr&auml;ngen} eines Goblins (jedoch keiner anderen Kreatur der Kategorie Goblin) ablegst, erh&auml;ltst du stattdessen einen Kritischen Erfolg. Wenn du einen Kritischen Fehlschlag w&uuml;rfelst, erh&auml;ltst du stattdessen nur einen normalen Fehlschlag.</p>"
    },
    "Desert Elf": {
      "name": "Wüstenelf/Desert Elf",
      "description": "<p>Du lebst unter der sengenden W&uuml;stensonne und besitzt unglaubliche Widerstandskraft gegen warme Umgebungen. Du erlangst Feuerresistenz in H&ouml;he deiner halben Stufe (Minimum 1) und Umgebungshitzeeffekte sind f&uuml;r dich um einen Schritt weniger schwerwiegend (Unglaubliche Hitze ist f&uuml;r dich nur Extreme Hitze, Extreme Hitze nur Gro&szlig;e Hitze usw.).</p>"
    },
    "Vine Leshy": {
      "name": "Rankenlesnik/Vine Leshy",
      "description": "<p>Die griffigen Ranken, die in deinen K&ouml;rper gewoben wurden, gew&auml;hren dir un&uuml;bertroffenes Kletterk&ouml;nnen. Du brauchst zum @Compendium[pf2e.actionspf2e.pprgrYQ1QnIDGZiy]{Klettern} keine freien H&auml;nde. Wenn du au&szlig;erdem bei einem Fertigkeitswurf f&uuml;r Athletik zum Klettern einen Erfolg erzielst, erh&auml;ltst du stattdessen einen Kritischen Erfolg.</p>"
    },
    "Fey-Touched Gnome": {
      "name": "Feengnom/Fey-Touched Gnome",
      "description": "<p>In deinen Adern flie&szlig;t Feenblut. Du erlangst zus&auml;tzlich zu Gnom und Humanoider die Kategorie Feenwesen. W&auml;hle einen Zaubertrick der Naturzauberliste. Du kannst diesen Zauber als Immanenten Naturzauber beliebig oft wirken. Ein Zaubertrick wird auf einen Zaubergrad gleich deiner halben Stufe erh&ouml;ht (aufgerundet). Du kannst einmal am Tag meditieren, um dich auf die Erste Welt einzustimmen und diesen Zaubertrick gegen einen anderen von derselben Liste auszuwechseln; dies ist eine Aktivit&auml;t, die 10 Minuten erfordert und die Kategorie Konzentration besitzt.</p>"
    },
    "Oathkeeper Dwarf": {
      "name": "Schwurwarerzwerg/Oathkeeper Dwarf",
      "description": "<p>W&auml;hrend deiner Kindheit hast du nicht versucht, etwas mittels L&uuml;gen zu erreichen, und selbst Notl&uuml;gen sind dir sehr unangenehm. Die Gl&auml;ubigen k&ouml;nnten dich f&uuml;r von Kols gesegnet erachten, dem zwergischen Gott der Pflicht. Du erh&auml;ltst einen Situationsbonus von +1 auf Wahrnehmungsw&uuml;rfe zum @Compendium[pf2e.actionspf2e.1xRFPTFtWtGJ9ELw]{Motiv erkennen} und auf den Wahrnehmungs-SG gegen Fertigkeitsw&uuml;rfen zum @Compendium[pf2e.actionspf2e.ewwCglB7XOPLUz72]{L&uuml;gen} dir gegen&uuml;ber. Wenn du die Wahrheit sprichst und andere davon &uuml;berzeugen willst, so erh&auml;ltst du einen Situationsbonus von +2 auf Fertigkeitsw&uuml;rfe f&uuml;r Diplomatie. Zugleich unterliegen deine Fertigkeitsw&uuml;rfe zum L&uuml;gen wie auch dein T&auml;uschungs-SG gegen Motiv erkennen einem Situationsmalus von -4.</p>"
    },
    "Wetlander Lizardfolk": {
      "name": "Sumpfiruxi/Wetlander Lizardfolk",
      "description": "<p>Deine Familie stammt von der h&auml;ufigsten iruxischen Herkunft ab und du bist eine aquatische Umgebung gewohnt. Du erh&auml;ltst eine Bewegungsrate f&uuml;r Schwimmen von 4,50 m.</p>"
    },
    "Duskwalker": {
      "name": "Dämmerwandler/Duskwalker",
      "description": "<p><em>Die ersten D&auml;mmerwandler entstanden infolge eines Abkommens zwischen zwei m&auml;chtigen Seelenbegleitern &ndash; den unsterblichen Besch&uuml;tzern und F&uuml;hrern der Seelen nach dem Tod &ndash;, von denen der eine fest &uuml;berzeugt war, dass einige Seelen, die sich im Erhalt des Kreislaufes von Leben und Tod besonders hervorgetan und selbst ein fr&uuml;hes Ende gefunden haben, in den Genuss einer Wiedergeburt kommen sollten; der andere hingegen hielt daran fest, dass dies eine Entehrung des Kreislaufes von Leben und Tod darstelle und diesen aus der Bahn werfen k&ouml;nnte. Die D&auml;mmerwandler bilden dabei den Kompromiss, der eine friedliche L&ouml;sung dieser Auseinandersetzung erm&ouml;glichen sollte. So wurde die Anzahl dieser Wiedergeburten auf ein vertretbares Ma&szlig; beschr&auml;nkt, weshalb zu jeder Zeit nur eine bestimmte Population an D&auml;mmerwandlern existieren kann.</em></p>\n<hr />\n<p>Die urspr&uuml;nglich von den Seelenbegleitern erschaffenen D&auml;mmerwandler sollten dabei verschiedene Rollen als Unterst&uuml;tzer und Diener der G&ouml;ttin des Todes, Pharasma, sowie ihres Reiches, dem Beinacker, &uuml;bernehmen. Erst seit rund einem Jahrhundert genie&szlig;en die D&auml;mmerwandler ihre zunehmende Entscheidungsfreiheit, wenngleich sich viele von ihnen erst langsam an den Gedanken gew&ouml;hnen, selbst frei &uuml;ber ihr eigenes Schicksal verf&uuml;gen zu k&ouml;nnen. Dass D&auml;mmerwandler nicht geboren, sondern erschaffen werden, versuchen sie h&auml;ufig zu kompensieren, indem sie gezielt nach Gemeinschaften oder Organisationen suchen, die f&uuml;r sie eine Art Familienersatz darstellen. Viele von ihnen haben aber ihr Leben lang Schwierigkeiten dabei, sich in Gesellschaften zu integrieren.</p>\n<p>D&auml;mmerwandler verf&uuml;gen &uuml;ber ein angeborenes tiefgreifendes Verst&auml;ndnis f&uuml;r den Kreislauf von Leben und Tod. In den meisten F&auml;llen manifestiert sich dieses in Form eines starken Respekts f&uuml;r den Lebenskreislauf und zieht D&auml;mmerwandler auf nat&uuml;rliche Weise zur Aus&uuml;bung von T&auml;tigkeiten, die dem Schutz des Kreislaufes von Leben und Tod dienen. So schlagen viele den Weg eines Untotenj&auml;gers ein, w&auml;hrend sich friedliebendere D&auml;mmerwandler gerne f&uuml;r die Besch&auml;ftigung als Hebammen, Bestatter oder Priester entscheiden.</p>\n<p>Wenn du einen Charakter mit einem geheimnisvollen und mysteri&ouml;sen Hintergrund spielen m&ouml;chtest, dich einer bestimmten Gesellschaft oder Organisation anschlie&szlig;en oder gegen Untote in den Kampf ziehen willst, solltest du einen D&auml;mmerwandler spielen.</p>\n<h2>DU K&Ouml;NNTEST...</h2>\n<ul>\n<li>... nach Gelegenheiten suchen, um starke freundschaftliche Bande zu unterschiedlichen Gef&auml;hrten zu kn&uuml;pfen.</li>\n<li>... dich darauf konzentrieren, die Ausbreitung des Untodes einzud&auml;mmen.</li>\n<li>... unbedingt herausfinden wollen, wer du in deinem fr&uuml;heren Leben gewesen bist.</li>\n</ul>\n<h2>ANDERE K&Ouml;NNTEN...</h2>\n<ul>\n<li>... dich f&uuml;r einen Nekromanten halten oder dir ein seltsames Interesse am Tod oder an den Toten unterstellen.</li>\n<li>... wissen wollen, ob du dich an dein fr&uuml;heres Leben erinnerst, oder dich nach den Geheimnissen des Todes und des Jenseits fragen.</li>\n</ul>\n<h2>K&Ouml;RPERLICHE BESCHREIBUNG</h2>\n<p>Als reinkarnierte Seele &uuml;bernimmt ein D&auml;mmerwandler die meisten k&ouml;rperlichen Eigenschaften aus seinem fr&uuml;heren Leben und geh&ouml;rt weiterhin seiner urspr&uuml;nglichen Abstammung an. H&auml;ufig besitzen D&auml;mmerwandler aber auch einen unverwechselbaren aschgrauen oder dunkelblauen Teint. Seltener sind jedoch D&auml;mmerwandler, die aus ungew&ouml;hnlichen Kreaturen wie Drachen hervorgehen. Diese nehmen die Gestalt einer humanoiden Abstammung an, die jedoch &uuml;ber charakteristische Merkmale wie Drachenschuppen oder H&ouml;rner verf&uuml;gen.</p>\n<p>Stirbt ein D&auml;mmerwandler und findet sich vor dem J&uuml;ngsten Gericht wieder, wird innerhalb eines Jahres eine andere verdiente Seele wiedergeboren &ndash; meist weit entfernt vom Geburtsort seines Vorg&auml;ngers. D&auml;mmerwandler erscheinen als Jugendliche oder junge Erwachsene an geheiligten Orten, die eine enge Verbindung zum Tod aufweisen, vorzugsweise in Tempeln oder auf Friedh&ouml;fen. Sie selbst k&ouml;nnen keine Kinder zeugen oder austragen, weshalb die meisten auf andere Weise, beispielsweise durch Adoption, ihre eigenen Familien gr&uuml;nden.</p>\n<h2>GESELLSCHAFT</h2>\n<p>Es ist alles andere als ungew&ouml;hnlich, dass D&auml;mmerwandler w&auml;hrend ihres gesamten Lebens keinem Artgenossen begegnen, sind sie doch &auml;u&szlig;erst seltene Wesen. Sowohl die fremdartigen Umst&auml;nde ihrer Erschaffung als auch das weitverbreitete Gef&uuml;hl der sozialen Isolation und Einsamkeit dr&auml;ngen viele D&auml;mmerwandler zum Leben als Abenteurer.</p>\n<h2>GESINNUNG UND RELIGION</h2>\n<p>Die meisten D&auml;mmerwandler sind Wahrhaft Neutral oder verfolgen eine Gesinnung mit neutraler Komponente. W&auml;hrend der Gro&szlig;teil der D&auml;mmerwandler die G&ouml;ttin Pharasma verehren oder ihr &ndash; ebenso wie ihren Seelenbegleiterherolden &ndash; zumindest Respekt zollen, verm&ouml;gen es grunds&auml;tzlich s&auml;mtliche Gottheiten, die in irgendeiner Weise mit dem Tod, der Gesellschaft oder dem Okkulten in Verbindung stehen, die Aufmerksamkeit und Hingabe eines D&auml;mmerwandlers auf sich zu ziehen.</p>\n<h2>&Auml;NDERUNGEN</h2>\n<p>Dank eines uralten Abkommens wurde deine Seele als D&auml;mmerwandler &ndash; einem Ebenenabk&ouml;mmling mit einer starken Verbindung zu Seelenbegleitern und zum Beinacker &ndash;wiedergeboren. Du erh&auml;ltst daher neben den von deiner Abstammung bestimmten Kategorien die Kategorie D&auml;mmerwandler. Zudem erlangst du @Compendium[pf2e.ancestryfeatures.DRtaqOHXTRtGRIUT]{D&auml;mmersicht} (bzw. @Compendium[pf2e.ancestryfeatures.HHVQDp61ehcpdiU8]{Dunkelsicht}, solltest du bereits &uuml;ber D&auml;mmersicht verf&uuml;gen). Aufgrund deiner Herkunft kann weder dein K&ouml;rper noch dein Geist jemals zu einem Untoten werden. Bei der Wahl eines Abstammungstalentes kannst du dich entweder f&uuml;r ein Talent deiner Abstammung oder f&uuml;r ein D&auml;mmerwandlertalent entscheiden.</p>"
    },
    "Fungus Leshy": {
      "name": "Pilzlesnik/Fungus Leshy",
      "description": "<p>Dein K&ouml;rper wurde aus Pilzen geschaffen, die in den Schatten von H&ouml;hlen und B&auml;umen wuchsen. Du bist in dunklen Kavernen und Tunneln zuhause, so dass du &uuml;ber @Compendium[pf2e.ancestryfeatures.HHVQDp61ehcpdiU8]{Dunkelsicht} verf&uuml;gst.</p>"
    },
    "Unbreakable Goblin": {
      "name": "Dickschädelgoblin/Unbreakable Goblin",
      "description": "<p>Dank eines sehr dicken Sch&auml;dels, biegsamer Knochen oder anderer gemischter Segnungen nimmst du zum Teil weniger Schaden. Du erh&auml;ltst &uuml;ber deine Abstammung 10 Trefferpunkte statt 6 TP. Solltest du fallen, wird der Sturzschaden reduziert, als w&auml;rst du nur die H&auml;lfte der Distanz gest&uuml;rzt.</p>"
    },
    "Leaf Leshy": {
      "name": "Blattlesnik/Leaf Leshy",
      "description": "<p>Dein K&ouml;rper besteht gr&ouml;&szlig;tenteils aus nat&uuml;rlichen Blattwerk - und wie ein Blatt, das von einem Baum f&auml;llt, landest du bei St&uuml;rzen mit besonderer Eleganz. Du erleidest keinen Fallschaden, unabh&auml;ngig davon, wie tief du f&auml;llst.</p>"
    }
  }
}