{
"label": "Verbrauchsgegenstand-Effekte",
"entries.Effect: Antidote (Greater).name": "Effekt: Gegengift (Stark)",
"entries.Effect: Antidote (Greater).description": "<p>Gewährt durch @Compendium[pf2e.equipment-srd.XWkeL34yJK6t5qUE]{Gegengift, Starkes}</p>\n<p>Implementierte Effekte:</p>\n<ul>\n<li>+4 Gegenstandsbonus auf Zähigkeitswürfe gegen Gifte</li>\n</ul>",
"entries.Effect: Antidote (Lesser).name": "Effekt: Gegengift (Schwach)",
"entries.Effect: Antidote (Lesser).description": "<p>Gewährt durch @Compendium[pf2e.equipment-srd.ktjFOp3U0wQD9t0Z]{Gegengift (Schwach)}</p>\n<p>Implementierte Effekte:</p>\n<ul>\n<li>+2 Gegenstandsbonus auf Zähigkeitswürfe gegen Gifte</li>\n</ul>",
"entries.Effect: Antidote (Major).name": "Effekt: Gegengift (Mächtig)",
"entries.Effect: Antidote (Major).description": "<p>Gewährt durch @Compendium[pf2e.equipment-srd.ANzB9WzlGQXDn76G]{Gegengift (Mächtig)}</p>\n<p>Implementierte Effekte:</p>\n<ul>\n<li>+4 Gegenstandsbonus auf Zähigkeitswürfe gegen Gifte</li>\n</ul>\n<p>Nicht implementierte Effekte:</p>\n<ul>\n<li>Wenn du das Gegengift trinkst, kannst du sofort einen Rettungswurf gegen ein auf dich wirkendes Gift der maximal 14. Stufe ausführen. Bei einem Erfolg ist das Gift neutralisiert.</li>\n</ul>",
"entries.Effect: Antidote (Moderate).name": "Effekt: Gegengift (Einfach)",
"entries.Effect: Antidote (Moderate).description": "<p>Gewährt durch @Compendium[pf2e.equipment-srd.AJ1dC7EtTIfBey0M]{Gegengift (Einfach)}</p>\n<p>Implementierte Effekte:</p>\n<ul>\n<li>+3 Gegenstandsbonus auf Zähigkeitswürfe gegen Gifte</li>\n</ul>",
"entries.Effect: Antiplague (Greater).name": "Effekt: Medizin (Stark)",
"entries.Effect: Antiplague (Greater).description": "<p>Gewährt durch @Compendium[pf2e.equipment-srd.ORDaAzMZLrf6Hn8A]{Medizin (Stark)}</p>\n<p>Implementierte Effekte:</p>\n<ul>\n<li>+2 Gegenstandsbonus auf Zähigkeitswürfe gegen Krankheiten; dieser wirkt auf deinen täglichen Rettungswurf gegen das Fortschreiten einer Krankheit.</li>\n</ul>",
"entries.Effect: Antiplague (Lesser).name": "Effekt: Medizin (Schwach)",
"entries.Effect: Antiplague (Lesser).description": "<p>Gewährt durch @Compendium[pf2e.equipment-srd.UqinuuCWePTYGhVO]{Medizin (Schwach)}</p>\n<p>Implementierte Effekte:</p>\n<ul>\n<li>+2 Gegenstandsbonus auf Zähigkeitswürfe gegen Krankheiten; dieser wirkt auf deinen täglichen Rettungswurf gegen das Fortschreiten einer Krankheit.</li>\n</ul>",
"entries.Effect: Antiplague (Major).name": "Effekt: Medizin (Mächtig)",
"entries.Effect: Antiplague (Major).description": "<p>Gewährt durch @Compendium[pf2e.equipment-srd.kajpTXg3oHIJStQa]{Medizin (Mächtig)}</p>\n<p>Implementierte Effekte:</p>\n<ul>\n<li>+2 Gegenstandsbonus auf Zähigkeitswürfe gegen Krankheiten; dieser wirkt auf deinen täglichen Rettungswurf gegen das Fortschreiten einer Krankheit.</li>\n</ul>\n<p>Nicht implementierte Effekte:</p>\n<ul>\n<li>Du kannst sofort einen Rettungswurf gegen eine auf dich wirkende Krankheit der maximal 14. Stufe ausführen. Bei einem Erfolg bist du von der Krankheit geheilt.</li>\n</ul>",
"entries.Effect: Antiplague (Moderate).name": "Effekt: Medizin (Einfach)",
"entries.Effect: Antiplague (Moderate).description": "<p>Gewährt durch @Compendium[pf2e.equipment-srd.biRbqKo2C97XLfQ0]{Medizin (Einfach)}</p>\n<p>Implementierte Effekte:</p>\n<ul>\n<li>+3 Gegenstandsbonus auf Zähigkeitswürfe gegen Krankheiten; dieser wirkt auf deinen täglichen Rettungswurf gegen das Fortschreiten einer Krankheit.</li>\n</ul>",
"entries.Effect: Applereed Mutagen (Greater).name": "Effect: Applereed Mutagen (Greater)",
"entries.Effect: Applereed Mutagen (Greater).description": "<p>Granted by @Compendium[pf2e.equipment-srd.vTEWlRBUD4VzVwxK]{Applereed Mutagen (Greater)}</p>\n<p>Implemented effects:</p>\n<ul>\n<li>+4 item bonus to Athletics checks</li>\n<li>+20 foot status bonus to Speed</li>\n<li>You grow one size category larger</li>\n<li>-1 penalty to AC</li>\n<li>-2 to penalty Reflex saves</li>\n</ul>",
"entries.Effect: Applereed Mutagen (Lesser).name": "Effect: Applereed Mutagen (Lesser)",
"entries.Effect: Applereed Mutagen (Lesser).description": "<p>Granted by @Compendium[pf2e.equipment-srd.0RTsyWutvO42O0zK]{Applereed Mutagen (Lesser)}</p>\n<p>Implemented effects:</p>\n<ul>\n<li>+2 item bonus to Athletics checks</li>\n<li>+10 foot status bonus to Speed</li>\n<li>You grow one size category larger</li>\n<li>-1 penalty to AC</li>\n<li>-2 to penalty Reflex saves</li>\n</ul>",
"entries.Effect: Applereed Mutagen (Moderate).name": "Effect: Applereed Mutagen (Moderate)",
"entries.Effect: Applereed Mutagen (Moderate).description": "<p>Granted by @Compendium[pf2e.equipment-srd.8e37h6HBr4ZyBSGt]{Applereed Mutagen (Moderate)}</p>\n<p>Implemented effects:</p>\n<ul>\n<li>+3 item bonus to Athletics checks</li>\n<li>+15 foot status bonus to Speed</li>\n<li>You grow one size category larger</li>\n<li>-1 penalty to AC</li>\n<li>-2 to penalty Reflex saves</li>\n</ul>",
"entries.Effect: Bestial Mutagen (Greater).name": "Effekt: Bestienmutagen (Stark)",
"entries.Effect: Bestial Mutagen (Greater).description": "<p>Gewährt durch @Compendium[pf2e.equipment-srd.gDheph8YteBtnyKp]{Bestienmutagen (Stark)}</p>\n<p>Implementierte Effekte:</p>\n<ul>\n<li>+3 Gegenstandsbonus auf Athletikwürfe</li>\n<li>+3 Gegenstandsbonus auf waffenlose Angriffswürfe</li>\n<li>Du erhältst einen Waffenlosen Angriff mit den Klauen der Kategorie Agil (1W8 Hieb)</li>\n<li>Du erhältst einen Waffenlosen Angriff mit den Kiefern (1W10 Stich)</li>\n<li>Malus von -1 auf RK</li>\n<li>Malus von -2 auf Reflexwürfe</li>\n</ul>",
"entries.Effect: Bestial Mutagen (Lesser).name": "Effekt: Bestienmutagen (Schwach)",
"entries.Effect: Bestial Mutagen (Lesser).description": "<p>Gewährt durch @Compendium[pf2e.equipment-srd.IQK9N2mEOyAj3iWU]{Bestienmutagen (Schwach)}</p>\n<p>Implementierte Effekte:</p>\n<ul>\n<li>+1 Gegenstandsbonus auf Athletikwürfe</li>\n<li>+1 Gegenstandsbonus auf waffenlose Angriffswürfe</li>\n<li>Du erhältst einen Waffenlosen Angriff mit den Klauen der Kategorie Agil (1W4 Hieb)</li>\n<li>Du erhältst einen Waffenlosen Angriff mit den Kiefern (1W6 Stich)</li>\n<li>Malus von -1 auf RK</li>\n<li>Malus von -2 auf Reflexwürfe</li>\n</ul>",
"entries.Effect: Bestial Mutagen (Major).name": "Effekt: Bestienmutagen (Mächtig)",
"entries.Effect: Bestial Mutagen (Major).description": "<p>Gewährt durch @Compendium[pf2e.equipment-srd.nS75vsM3x5jxlUqn]{Bestienmutagen (Mächtig)}</p>\n<p>Implementierte Effekte:</p>\n<ul>\n<li>+4 Gegenstandsbonus auf Athletikwürfe</li>\n<li>+4 Gegenstandsbonus auf waffenlose Angriffswürfe</li>\n<li>Du erhältst einen Waffenlosen Angriff mit den Klauen der Kategorie Agil (1W8 Hieb)</li>\n<li>Du erhältst einen Waffenlosen Angriff mit den Kiefern (1W10 Stich)</li>\n<li>Malus von -1 auf RK</li>\n<li>Malus von -2 auf Reflexwürfe</li>\n</ul>\n<p>Nicht implementierte Effekte:</p>\n<ul>\n<li>Du erhältst Waffenspezialisierung für Klauen und Kiefer, bzw. – falls du in diesen Waffenlosen Angriffen bereits Waffenspezialisierung hast – Mächtige Waffenspezialisierung.</li>\n</ul>",
"entries.Effect: Bestial Mutagen (Moderate).name": "Effekt: Bestienmutagen (Einfach)",
"entries.Effect: Bestial Mutagen (Moderate).description": "<p>Gewährt durch @Compendium[pf2e.equipment-srd.VISk5uLPVIvNWovB]{Bestienmutagen (Einfach)}</p>\n<p>Implementierte Effekte:</p>\n<ul>\n<li>+2 Gegenstandsbonus auf Athletikwürfe</li>\n<li>+2 Gegenstandsbonus auf waffenlose Angriffswürfe</li>\n<li>Du erhältst einen Waffenlosen Angriff mit den Klauen der Kategorie Agil (1W6 Hieb)</li>\n<li>Du erhältst einen Waffenlosen Angriff mit den Kiefern (1W8 Stich)</li>\n<li>Malus von -1 auf RK</li>\n<li>Malus von -2 auf Reflexwürfe</li>\n</ul>",
"entries.Effect: Bloodhound Mask (Greater).name": "Effekt: Bluthundmaske (Stark)",
"entries.Effect: Bloodhound Mask (Greater).description": "<p>Gewährt durch @Compendium[pf2e.equipment-srd.2x8F5s3PyKzYsRrZ]{Bluthundmaske (Stark)}</p>\n<p>Automatisch angewandte Effekte:</p>\n<ul>\n<li>verleiht dir Ungenauer Sinn (Geruchssinn) mit 18 Meter Reichweite</li>\n<li>+3 Gegenstandsbonus für deinen Fertigkeitswurf auf Überleben</li>\n</ul>",
"entries.Effect: Bloodhound Mask (Lesser).name": "Effekt: Bluthundmaske (Schwach)",
"entries.Effect: Bloodhound Mask (Lesser).description": "<p>Gewährt durch @Compendium[pf2e.equipment-srd.mDJSaarQsIMX7Opi]{Bloodhound Mask (Lesser)}</p>\n<p>Automatisch angewandte Effekte:</p>\n<ul>\n<li>verleiht dir Ungenauer Sinn (Geruchssinn) mit 4,50 Meter Reichweite</li>\n<li>+1 Gegenstandsbonus für deinen Fertigkeitswurf auf Überleben</li>\n</ul>",
"entries.Effect: Bloodhound Mask (Moderate).name": "Effekt: Bluthundmaske (Durchschnittlich)",
"entries.Effect: Bloodhound Mask (Moderate).description": "<p>Gewährt durch @Compendium[pf2e.equipment-srd.qasFfdiZKIczoZ9p]{Bluthundmaske (Durchschnittlich)}</p>\n<p>Automatisch angewandte Effekte:</p>\n<ul>\n<li>verleiht dir Ungenauer Sinn (Geruchssinn) mit 9 Meter Reichweite</li>\n<li>+2 Gegenstandsbonus für deinen Fertigkeitswurf auf Überleben</li>\n</ul>",
"entries.Effect: Boulderhead Bock.name": "Effect: Boulderhead Bock",
"entries.Effect: Boulderhead Bock.description": "<p>Granted by @Compendium[pf2e.equipment-srd.I0eUrgVGl8a2ZjFc]{Boulderhead Bock}.</p>\n<p>Automatically applied effects:</p>\n<ul>\n<li>+1 item bonus to saving throws against effects that would make you stunned or stupefied.</li>\n<li>-2 item penalty to Perception </li>\n</ul>",
"entries.Effect: Bravo's Brew (Greater).name": "Effekt: Draufgängerbräu (Stark)",
"entries.Effect: Bravo's Brew (Greater).description": "<p>Gewährt durch @Compendium[pf2e.equipment-srd.sWPkbSlWAEAStBqD]{Draufgängerbräu (Stark)}</p>\n<p>Implementierte Effekte:</p>\n<ul>\n<li>+1 Gegenstandsbonus auf Willenswürfe</li>\n<li>+2 Gegenstandsbonus auf Willenswürfe gegen Furcht</li>\n</ul>\n<p>Nicht implementierte Effekte:</p>\n<ul>\n<li>Wenn du gegen einen Furchteffekt einen Erfolg erzielst, wird dieser stattdessen als Kritischer Erfolg gezählt.</li>\n</ul>",
"entries.Effect: Bravo's Brew (Lesser).name": "Effekt: Draufgängerbräu (Schwach)",
"entries.Effect: Bravo's Brew (Lesser).description": "<p>Gewährt durch @Compendium[pf2e.equipment-srd.zM9VX3QwM81DzDUA]{Draufgängerbräu (Schwach)}</p>\n<p>Implementierte Effekte:</p>\n<ul>\n<li>+1 Gegenstandsbonus auf Willenswürfe</li>\n<li>+2 Gegenstandsbonus auf Willenswürfe gegen Furcht</li>\n</ul>",
"entries.Effect: Bravo's Brew (Moderate).name": "Effekt: Draufgängerbräu (Einfach)",
"entries.Effect: Bravo's Brew (Moderate).description": "<p>Gewährt durch @Compendium[pf2e.equipment-srd.oCuwJ9IUDAuzsUwa]{Draufgängerbräu (Einfach)}</p>\n<p>Implementierte Effekte:</p>\n<ul>\n<li>+2 Gegenstandsbonus auf Willenswürfe</li>\n<li>+3 Gegenstandsbonus auf Willenswürfe gegen Furcht</li>\n</ul>",
"entries.Effect: Bronze Bull Pendant.name": "Effekt: Bronzebullentalisman",
"entries.Effect: Bronze Bull Pendant.description": "<p>Gewährt durch @Compendium[pf2e.equipment-srd.nXStoLxPrrP2b6WB]{Bronzebullentalisman}</p>\n<hr />\n<p>Automatisch angewendete Effekte:</p>\n<ul>\n<li>Zustandsbonus von +2 auf den Athletikwurf zum Fortstoßen</li>\n</ul>",
"entries.Effect: Cheetah's Elixir (Greater).name": "Effekt: Gepardenelixier (Stark)",
"entries.Effect: Cheetah's Elixir (Greater).description": "<p>Gewährt durch @Compendium[pf2e.equipment-srd.t4X6GDybqLmt7UkN]{Effekt: Gepardenelixier (Stark)}</p>\n<p>Automatisch angewandte Effekte:</p>\n<ul>\n<li>+3 m Zustandsbonus auf Bewegungsrate</li>\n</ul>",
"entries.Effect: Cheetah's Elixir (Lesser).name": "Effekt: Gepardenelixier (Schwach)",
"entries.Effect: Cheetah's Elixir (Lesser).description": "<p>Gewährt durch @Compendium[pf2e.equipment-srd.tyt6rFtv32MZ4DT9]{Gepardenelixier (Schwach)}</p>\n<p>Automatisch angewandte Effekte:</p>\n<ul>\n<li>+1,50 m Zustandsbonus auf Bewegungsrate</li>\n</ul>",
"entries.Effect: Cheetah's Elixir (Moderate).name": "Effekt: Gepardenelixier (Einfach)",
"entries.Effect: Cheetah's Elixir (Moderate).description": "<p>Gewährt durch @Compendium[pf2e.equipment-srd.AqLxu3ir4UGzdOaz]{Gepardenelixier (Einfach)}</p>\n<p>Automatisch angewandte Effekte:</p>\n<ul>\n<li>+3 m Zustandsbonus auf Bewegungsrate</li>\n</ul>",
"entries.Effect: Cognitive Mutagen (Greater).name": "Effekt: Kognitivmutagen (Stark)",
"entries.Effect: Cognitive Mutagen (Greater).description": "<p>Gewährt durch @Compendium[pf2e.equipment-srd.ZGojRKG1yYiVWemR]{Kognitivmutagen (Stark)}</p>\n<p><strong>Implementierte Effekte:</strong></p>\n<ul>\n<li>+3 Gegenstandsbonus auf Fertigkeitswürfe für Arkane Künste, Handwerkskunst, Okkultismus und Gesellschaftskunde</li>\n<li>+3 Gegenstandsbonus auf alle Fertigkeitswürfe zum Wissen abrufen</li>\n<li>-2 auf Waffenangriffe und Waffenlose Angriffswürfe</li>\n<li>-2 auf Fertigkeitswürfe für Athletik und Akrobatik</li>\n</ul>\n<p><strong>Nicht implementierte Effekte:</strong></p>\n<ul>\n<li>+3 Gegenstandsbonus auf Fertigkeitswürfe für Kenntnis</li>\n<li>deine Kritischen Fehlschläge bei Wissen abrufen werden stattdessen zu Fehlschlägen</li>\n<li>du kannst 2 Lasteinheiten weniger als üblich tragen, bevor du den Zustand Belastet erlangst</li>\n<li>die Maximallast, die du tragen kannst, verringert sich um 4</li>\n</ul>",
"entries.Effect: Cognitive Mutagen (Lesser).name": "Effekt: Kognitivmutagen (Schwach)",
"entries.Effect: Cognitive Mutagen (Lesser).description": "<p>Gewährt durch @Compendium[pf2e.equipment-srd.wbr6rkyaVYnDhdgV]{Kognitivmutagen (Schwach)}</p>\n<p><strong>Implementierte Effekte:</strong></p>\n<ul>\n<li>+1 Gegenstandsbonus auf Fertigkeitswürfe für Arkane Künste, Handwerkskunst, Okkultismus und Gesellschaftskunde</li>\n<li>+1 Gegenstandsbonus auf alle Fertigkeitswürfe zum Wissen abrufen</li>\n<li>-2 auf Waffenangriffe und Waffenlose Angriffswürfe</li>\n<li>-2 auf Fertigkeitswürfe für Athletik und Akrobatik</li>\n</ul>\n<p><strong>Nicht implementierte Effekte:</strong></p>\n<ul>\n<li>+1 Gegenstandsbonus auf Fertigkeitswürfe für Kenntnis</li>\n<li>deine Kritischen Fehlschläge bei Wissen abrufen werden stattdessen zu Fehlschlägen</li>\n<li>du kannst 2 Lasteinheiten weniger als üblich tragen, bevor du den Zustand Belastet erlangst</li>\n<li>die Maximallast, die du tragen kannst, verringert sich um 4</li>\n</ul>",
"entries.Effect: Cognitive Mutagen (Major).name": "Effekt: Kognitivmutagen (Mächtig)",
"entries.Effect: Cognitive Mutagen (Major).description": "<p>Gewährt durch @Compendium[pf2e.equipment-srd.VBK9i74dry8yf8f0]{Kognitivmutagen (Mächtig)}</p>\n<p><strong>Implementierte Effekte:</strong></p>\n<ul>\n<li>+4 Gegenstandsbonus auf Fertigkeitswürfe für Arkane Künste, Handwerkskunst, Okkultismus und Gesellschaftskunde</li>\n<li>+4 Gegenstandsbonus auf alle Fertigkeitswürfe zum Wissen abrufen</li>\n<li>-2 auf Waffenangriffe und Waffenlose Angriffswürfe</li>\n<li>-2 auf Fertigkeitswürfe für Athletik und Akrobatik</li>\n</ul>\n<p><strong>Nicht implementierte Effekte:</strong></p>\n<ul>\n<li>+4 Gegenstandsbonus auf Fertigkeitswürfe für Kenntnis</li>\n<li>deine Kritischen Fehlschläge bei Wissen abrufen werden stattdessen zu Fehlschlägen</li>\n<li>du kannst 2 Lasteinheiten weniger als üblich tragen, bevor du den Zustand Belastet erlangst</li>\n<li>die Maximallast, die du tragen kannst, verringert sich um 4</li>\n</ul>",
"entries.Effect: Cognitive Mutagen (Moderate).name": "Effekte: Kognitivmutagen (Einfach)",
"entries.Effect: Cognitive Mutagen (Moderate).description": "<p>Gewährt durch @Compendium[pf2e.equipment-srd.qpzL9UnTi4cDhy6J]{Kognitivmutagen (Einfach)}</p>\n<p><strong>Implementierte Effekte:</strong></p>\n<ul>\n<li>+2 Gegenstandsbonus auf Fertigkeitswürfe für Arkane Künste, Handwerkskunst, Okkultismus und Gesellschaftskunde</li>\n<li>+2 Gegenstandsbonus auf alle Fertigkeitswürfe zum Wissen abrufen</li>\n<li>-2 auf Waffenangriffe und Waffenlose Angriffswürfe</li>\n<li>-2 auf Fertigkeitswürfe für Athletik und Akrobatik</li>\n</ul>\n<p><strong>Nicht implementierte Effekte:</strong></p>\n<ul>\n<li>+2 Gegenstandsbonus auf Fertigkeitswürfe für Kenntnis</li>\n<li>deine Kritischen Fehlschläge bei Wissen abrufen werden stattdessen zu Fehlschlägen</li>\n<li>du kannst 2 Lasteinheiten weniger als üblich tragen, bevor du den Zustand Belastet erlangst</li>\n<li>die Maximallast, die du tragen kannst, verringert sich um 4</li>\n</ul>",
"entries.Effect: Darkvision Elixir (Greater).name": "Effekt: Dunkelsichtelixier (Stark)",
"entries.Effect: Darkvision Elixir (Greater).description": "<p>Gewährt durch @Compendium[pf2e.equipment-srd.bz8Y8bVUe7QfBk9g]{Dunkelsichtelixier (Stark)}</p>\n<p>Implementierte Effekte:</p>\n<ul>\n<li>Du erhältst Dunkelsicht</li>\n</ul>",
"entries.Effect: Darkvision Elixir (Lesser).name": "Effekt: Dunkelsichtelixier (Schwach)",
"entries.Effect: Darkvision Elixir (Lesser).description": "<p>Gewährt durch @Compendium[pf2e.equipment-srd.88pGCHV0uKMskTVO]{Dunkelsichtelixier (Schwach)}</p>\n<p>Implementierte Effekte:</p>\n<ul>\n<li>Du erhältst Dunkelsicht</li>\n</ul>",
"entries.Effect: Darkvision Elixir (Moderate).name": "Effekt: Dunkelsichtelixier (Einfach)",
"entries.Effect: Darkvision Elixir (Moderate).description": "<p>Gewährt durch @Compendium[pf2e.equipment-srd.Y8115p3cmQJBqk5d]{Dunkelsichtelixier (Einfach)}</p>\n<p>Implementierte Effekte:</p>\n<ul>\n<li>Du erhältst Dunkelsicht</li>\n</ul>",
"entries.Effect: Dragon Turtle Scale.name": "Effekt: Drachenschildkrötenschuppe",
"entries.Effect: Dragon Turtle Scale.description": "<p>Gewährt durch @Compendium[pf2e.equipment-srd.GnXKCkgZQG0UmuHz]{Drachenschildkrötenschuppe}</p>\n<hr />\n<p>Automatisch angewendete Effekte:</p>\n<ul>\n<li>erhalte eine Bewegungsrate für Schwimmen in Höhe deiner halben Bewegungsrate am Boden</li>\n</ul>",
"entries.Effect: Drakeheart Mutagen (Greater).name": "Effekt: Drakaherzmutagen (Stark)",
"entries.Effect: Drakeheart Mutagen (Greater).description": "<p>Gewährt durch @Compendium[pf2e.equipment-srd.WuzLBK78DgIt8SsN]{Drakaherzmutagen (Stark)}</p>\n<p><strong>Implementierte Effekte:</strong></p>\n<ul>\n<li>+6 Gegenstandsbonus auf Rüstungsklasse</li>\n<li>Geschicklichkeits-Limit von +2 </li>\n<li>+3 Gegenstandsbonus auf Wahrnehmung</li>\n<li>Malus von -1 auf Willenswürfe, Reflexwürfe und Fertigkeitswürfe zum Wissen abrufen</li>\n</ul>\n<p><strong>Nicht implementierte Effekte:</strong></p>\n<ul>\n<li>Du erhältst die Aktion Endspurt</li>\n</ul>",
"entries.Effect: Drakeheart Mutagen (Lesser).name": "Effekt: Drakaherzmutagen (Schwach)",
"entries.Effect: Drakeheart Mutagen (Lesser).description": "<p>Gewährt durch @Compendium[pf2e.equipment-srd.GS4YvQieBS11JNYR]{Drakaherzmutagen (Schwach)}</p>\n<p><strong>Implementierte Effekte:</strong></p>\n<ul>\n<li>+4 Gegenstandsbonus auf Rüstungsklasse</li>\n<li>Geschicklichkeits-Limit von +2 </li>\n<li>+1 Gegenstandsbonus auf Wahrnehmung</li>\n<li>Malus von -1 auf Willenswürfe, Reflexwürfe und Fertigkeitswürfe zum Wissen abrufen</li>\n</ul>\n<p><strong>Nicht implementierte Effekte:</strong></p>\n<ul>\n<li>Du erhältst die Aktion Endspurt</li>\n</ul>",
"entries.Effect: Drakeheart Mutagen (Major).name": "Effekt: Drakaherzmutagen (Mächtig)",
"entries.Effect: Drakeheart Mutagen (Major).description": "<p>Gewährt durch @Compendium[pf2e.equipment-srd.M4ZOHOlne43ArjOC]{Drakaherzmutagen (Mächtig)}</p>\n<p><strong>Implementierte Effekte:</strong></p>\n<ul>\n<li>+7 Gegenstandsbonus auf Rüstungsklasse</li>\n<li>Geschicklichkeits-Limit von +2 </li>\n<li>+4 Gegenstandsbonus auf Wahrnehmung</li>\n<li>Malus von -1 auf Willenswürfe, Reflexwürfe und Fertigkeitswürfe zum Wissen abrufen</li>\n</ul>\n<p><strong>Nicht implementierte Effekte:</strong></p>\n<ul>\n<li>Du erhältst die Aktion Endspurt</li>\n</ul>",
"entries.Effect: Drakeheart Mutagen (Moderate).name": "Effekt: Drakaherzmutagen (Durchschnittlich)",
"entries.Effect: Drakeheart Mutagen (Moderate).description": "<p>Gewährt durch @Compendium[pf2e.equipment-srd.xY2MogTwH9Fd8UPG]{Drakaherzmutagen (Durchschnittlich)}</p>\n<p><strong>Implementierte Effekte:</strong></p>\n<ul>\n<li>+5 Gegenstandsbonus auf Rüstungsklasse</li>\n<li>Geschicklichkeits-Limit von +2 </li>\n<li>+2 Gegenstandsbonus auf Wahrnehmung</li>\n<li>Malus von -1 auf Willenswürfe, Reflexwürfe und Fertigkeitswürfe zum Wissen abrufen</li>\n</ul>\n<p><strong>Nicht implementierte Effekte:</strong></p>\n<ul>\n<li>Du erhältst die Aktion Endspurt</li>\n</ul>",
"entries.Effect: Eagle Eye Elixir (Greater).name": "Effekt: Adleraugenelixier (Stark)",
"entries.Effect: Eagle Eye Elixir (Greater).description": "<p>Gewährt durch @Compendium[pf2e.equipment-srd.xWCdsGSwLLTeX6tQ]{Adleraugenelixier (Stark)}</p>\n<p>Implementierte Effekte:</p>\n<ul>\n<li>+3 Gegenstandsbonus auf Wahrnehmungswürfe</li>\n<li>+4 Gegenstandsbonus auf Wahrnehmungswürfe um Geheimtüren und Fallen aufzuspüren</li>\n</ul>",
"entries.Effect: Eagle Eye Elixir (Lesser).name": "Effekt: Adleraugenelixier (Schwach)",
"entries.Effect: Eagle Eye Elixir (Lesser).description": "<p>Gewährt durch @Compendium[pf2e.equipment-srd.7Y2yOr4ltpP2tyuL]{Adleraugenelixier (Schwach)}</p>\n<p>Implementierte Effekte:</p>\n<ul>\n<li>+1 Gegenstandsbonus auf Wahrnehmungswürfe</li>\n<li>+2 Gegenstandsbonus auf Wahrnehmungswürfe um Geheimtüren und Fallen aufzuspüren</li>\n</ul>",
"entries.Effect: Eagle Eye Elixir (Major).name": "Effekt: Adleraugenelixier (Mächtig)",
"entries.Effect: Eagle Eye Elixir (Major).description": "<p>Gewährt durch @Compendium[pf2e.equipment-srd.kicNrnZz1KjJYRVI]{Adleraugenelixier (Mächtig)}</p>\n<p>Implementierte Effekte:</p>\n<ul>\n<li>+3 Gegenstandsbonus auf Wahrnehmungswürfe</li>\n<li>+4 Gegenstandsbonus auf Wahrnehmungswürfe um Geheimtüren und Fallen aufzuspüren</li>\n</ul>\n<p>Nicht implementierte Effekte:</p>\n<ul>\n<li>Jedes Mal, wenn du im Umkreis von 3 m an einer Geheimtür oder Falle vorbeikommst, führt der SL automatisch einen Verdeckten Wurf aus, ob du diese entdeckst.</li>\n</ul>",
"entries.Effect: Eagle Eye Elixir (Moderate).name": "Effekt: Adleraugenelixier (Einfach)",
"entries.Effect: Eagle Eye Elixir (Moderate).description": "<p>Gewährt durch @Compendium[pf2e.equipment-srd.lPcnDlBGz5QwCMYw]{Adleraugenelixier (Einfach)}</p>\n<p>Implementierte Effekte:</p>\n<ul>\n<li>+2 Gegenstandsbonus auf Wahrnehmungswürfe</li>\n<li>+3 Gegenstandsbonus auf Wahrnehmungswürfe um Geheimtüren und Fallen aufzuspüren</li>\n</ul>",
"entries.Effect: Elixir of Life (Greater).name": "Effekt: Lebenselixier (Stark)",
"entries.Effect: Elixir of Life (Greater).description": "<p>Gewährt durch @Compendium[pf2e.equipment-srd.mYozcVg9fQY6zO7C]{Lebenselixier (Stark)}</p>\n<p>Implementierte Effekte:</p>\n<ul>\n<li>+2 Gegenstandsbonus auf Rettungswürfe gegen Krankheiten und Gifte</li>\n</ul>\n<p>Nicht implementierte Effekte:</p>\n<ul>\n<li>stellt [[/r 7d6+18]] Trefferpunkte wieder her</li>\n</ul>",
"entries.Effect: Elixir of Life (Lesser).name": "Effekt: Lebenselixier (Schwach)",
"entries.Effect: Elixir of Life (Lesser).description": "<p>Gewährt durch @Compendium[pf2e.equipment-srd.TZUskLT7yvP7N2co]{Lebenselixier (Schwach)}</p>\n<p>Implementierte Effekte:</p>\n<ul>\n<li>+1 Gegenstandsbonus auf Rettungswürfe gegen Krankheiten und Gifte</li>\n</ul>\n<p>Nicht implementierte Effekte:</p>\n<ul>\n<li>stellt [[/r 3d6+6]] Trefferpunkte wieder her</li>\n</ul>",
"entries.Effect: Elixir of Life (Major).name": "Effekt: Lebenselixier (Mächtig)",
"entries.Effect: Elixir of Life (Major).description": "<p>Gewährt durch @Compendium[pf2e.equipment-srd.AmxSqEoFhRLMYd1W]{Lebenselixier (Mächtig)}</p>\n<p>Implementierte Effekte:</p>\n<ul>\n<li>+3 Gegenstandsbonus auf Rettungswürfe gegen Krankheiten und Gifte</li>\n</ul>\n<p>Nicht implementierte Effekte:</p>\n<ul>\n<li>stellt [[/r 8d6+21]] Trefferpunkte wieder her</li>\n</ul>",
"entries.Effect: Elixir of Life (Minor).name": "Effekt: Lebenselixier (Gering)",
"entries.Effect: Elixir of Life (Minor).description": "<p>Gewährt durch @Compendium[pf2e.equipment-srd.hDLbR56Id2OtU318]{Lebenselixier (Gering)}</p>\n<p>Implementierte Effekte:</p>\n<ul>\n<li>+1 Gegenstandsbonus auf Rettungswürfe gegen Krankheiten und Gifte</li>\n</ul>\n<p>Nicht implementierte Effekte:</p>\n<ul>\n<li>stellt [[/r 1d6]] Trefferpunkte wieder her</li>\n</ul>",
"entries.Effect: Elixir of Life (Moderate).name": "Effekt: Lebenselixier (Einfach)",
"entries.Effect: Elixir of Life (Moderate).description": "<p>Gewährt durch @Compendium[pf2e.equipment-srd.c21stU5rhN4F2fZl]{Lebenselixier (Einfach)}</p>\n<p>Implementierte Effekte:</p>\n<ul>\n<li>+2 Gegenstandsbonus auf Rettungswürfe gegen Krankheiten und Gifte</li>\n</ul>\n<p>Nicht implementierte Effekte:</p>\n<ul>\n<li>stellt [[/r 5d6+12]] Trefferpunkte wieder her</li>\n</ul>",
"entries.Effect: Elixir of Life (True).name": "Effekt: Lebenselixier (Wahr)",
"entries.Effect: Elixir of Life (True).description": "<p>Gewährt durch @Compendium[pf2e.equipment-srd.qK964kZz1ALcysOa]{Lebenselixier (Wahr)}</p>\n<p>Implementierte Effekte:</p>\n<ul>\n<li>+4 Gegenstandsbonus auf Rettungswürfe gegen Krankheiten und Gifte</li>\n</ul>\n<p>Nicht implementierte Effekte:</p>\n<ul>\n<li>stellt [[/r 10d6+27]] Trefferpunkte wieder her</li>\n</ul>",
"entries.Effect: Gecko Potion.name": "Effekt: Geckotrank",
"entries.Effect: Gecko Potion.description": "<p>Gewährt durch @Compendium[pf2e.equipment-srd.hGw7Q1y2IEXRGAfv]{Geckotrank}</p>\n<hr />\n<p>Implementierte Effekte:</p>\n<ul>\n<li>+1 auf Fertigkeitswürfe für @Compendium[pf2e.actionspf2e.pprgrYQ1QnIDGZiy]{Klettern}</li>\n<li>+1 auf Fertigkeitswürfe für Diebeskunst zum @Compendium[pf2e.actionspf2e.ijZ0DDFpMkWqaShd]{Gegenstand einstecken}</li>\n<li>+1 Gegenstandsbonus auf Reflex-SG gegen @Compendium[pf2e.actionspf2e.Dt6B1slsBy8ipJu9]{Entwaffnungsversuche}</li>\n</ul>",
"entries.Effect: Juggernaut Mutagen (Greater).name": "Effekt: Abhärtungsmutagen (Stark)",
"entries.Effect: Juggernaut Mutagen (Greater).description": "<p>Gewährt durch @Compendium[pf2e.equipment-srd.TMtQnY6yvIRCpK9v]{Abhärtungsmutagen (Stark)}</p>\n<p>Implementierte Effekte:</p>\n<ul>\n<li>+3 Gegenstandsbonus auf Zähigkeitswürfe</li>\n<li>+30 Temporäre Trefferpunkten</li>\n<li>-2 auf Willenswürfe, Wahrnehmungswürfe und Initiativewürfe</li>\n</ul>\n<p>Nicht implementierte Effekte:</p>\n<ul>\n<li>Wann auch immer du für mindestens 1 volle Minute maximale Trefferpunkte besitzt, gewinnst du diese Temporären Trefferpunkte zurück.</li>\n</ul>",
"entries.Effect: Juggernaut Mutagen (Lesser).name": "Effekt: Abhärtungsmutagen (Schwach)",
"entries.Effect: Juggernaut Mutagen (Lesser).description": "<p>Gewährt durch @Compendium[pf2e.equipment-srd.xE0EdDrf734l2fQH]{Abhärtungsmutagen (Schwach)}</p>\n<p>Implementierte Effekte:</p>\n<ul>\n<li>+1 Gegenstandsbonus auf Zähigkeitswürfe</li>\n<li>+5 Temporäre Trefferpunkten</li>\n<li>-2 auf Willenswürfe, Wahrnehmungswürfe und Initiativewürfe</li>\n</ul>\n<p>Nicht implementierte Effekte:</p>\n<ul>\n<li>Wann auch immer du für mindestens 1 volle Minute maximale Trefferpunkte besitzt, gewinnst du diese Temporären Trefferpunkte zurück.</li>\n</ul>",
"entries.Effect: Juggernaut Mutagen (Major).name": "Effekt: Abhärtungsmutagen (Mächtig)",
"entries.Effect: Juggernaut Mutagen (Major).description": "<p>Gewährt durch @Compendium[pf2e.equipment-srd.1kNp6yOS0aZPBPzZ]{Abhärtungsmutagen (Mächtig)}</p>\n<p>Implementierte Effekte:</p>\n<ul>\n<li>+4 Gegenstandsbonus auf Zähigkeitswürfe</li>\n<li>+45 Temporäre Trefferpunkten</li>\n<li>-2 auf Willenswürfe, Wahrnehmungswürfe und Initiativewürfe</li>\n</ul>\n<p>Nicht implementierte Effekte:</p>\n<ul>\n<li>Wann auch immer du für mindestens 1 volle Minute maximale Trefferpunkte besitzt, gewinnst du diese Temporären Trefferpunkte zurück.</li>\n</ul>",
"entries.Effect: Juggernaut Mutagen (Moderate).name": "Effekt: Abhärtungsmutagen (Einfach)",
"entries.Effect: Juggernaut Mutagen (Moderate).description": "<p>Gewährt durch @Compendium[pf2e.equipment-srd.mj9i9GeQTADByNPZ]{Abhärtungsmutagen (Einfach)}</p>\n<p>Implementierte Effekte:</p>\n<ul>\n<li>+2 Gegenstandsbonus auf Zähigkeitswürfe</li>\n<li>+10 Temporäre Trefferpunkten</li>\n<li>-2 auf Willenswürfe, Wahrnehmungswürfe und Initiativewürfe</li>\n</ul>\n<p>Nicht implementierte Effekte:</p>\n<ul>\n<li>Wann auch immer du für mindestens 1 volle Minute maximale Trefferpunkte besitzt, gewinnst du diese Temporären Trefferpunkte zurück.</li>\n</ul>",
"entries.Effect: Lastwall Soup.name": "Effect: Lastwall Soup",
"entries.Effect: Lastwall Soup.description": "<p>Granted by @Compendium[pf2e.equipment-srd.VeCNWhvEr82ZNoSV]{Lastwall Soup}</p>\n<p>Implemented effects:</p>\n<ul>\n<li>+2 item bonus to Stealth checks against undead</li>\n</ul>\n<p>Unimplemented effects:</p>\n<ul>\n<li>+2 item bonus to Stealth DCs against undead</li>\n</ul>",
"entries.Effect: Potion of Flying (Greater).name": "Effekt: Flugtrank (Stark)",
"entries.Effect: Potion of Flying (Greater).description": "<p>Gewährt durch @Compendium[pf2e.equipment-srd.E999hL7XlAlfZhjK]{Flugtrank (Stark)}</p>\n<p>Automatisch angewandte Effekte:</p>\n<ul>\n<li>Du erhältst eine Bewegungsrate für Fliegen von 12 m</li>\n</ul>",
"entries.Effect: Potion of Flying (Standard).name": "Effekt: Flugtrank (Einfach)",
"entries.Effect: Potion of Flying (Standard).description": "<p>Gewährt durch @Compendium[pf2e.equipment-srd.KlJSw919hpN6V9oK]{Flugtrank (Einfach)}.</p>\n<p>Automatisch angewandte Effekte:</p>\n<ul>\n<li>Du erhältst eine Bewegungsrate für Fliegen von 12 m</li>\n</ul>",
"entries.Effect: Potion of Swimming (Greater).name": "Effekt: Schwimmtrank (Stark)",
"entries.Effect: Potion of Swimming (Greater).description": "<p>Gewährt durch @Compendium[pf2e.equipment-srd.OMJgFmy3jut79Iaj]{Schwimmtrank (Stark)}</p>\n<p>Automatisch angewandte Effekte:</p>\n<ul>\n<li>Du erhältst eine Bewegungsrate für Schwimmen gleich deiner Bewegungsrate für Land</li>\n</ul>",
"entries.Effect: Potion of Swimming (Moderate).name": "Effekt: Schwimmtrank (Einfach)",
"entries.Effect: Potion of Swimming (Moderate).description": "<p>Gewährt durch @Compendium[pf2e.equipment-srd.Eb4dEuV22QVlMumS]{Schwimmtrank (Einfach)}</p>\n<p>Automatisch angewandte Effekte:</p>\n<ul>\n<li>Du erhältst eine Bewegungsrate für Schwimmen gleich deiner Bewegungsrate für Land</li>\n</ul>",
"entries.Effect: Quicksilver Mutagen (Greater).name": "Effekt: Flinkheitsmutagen (Stark)",
"entries.Effect: Quicksilver Mutagen (Greater).description": "<p>Gewährt durch @Compendium[pf2e.equipment-srd.eQDTsetadI8u8Kc0]{Flinkheitsmutagen (Stark)}</p>\n<p>Implementierte Effekte:</p>\n<ul>\n<li>+3 Gegenstandsbonus auf Fertigkeitswürfe für Akrobatik, Diebeskunst und Heimlichkeit</li>\n<li>+3 Gegenstandsbonus auf Reflexwürfe</li>\n<li>+3 Gegenstandsbonus auf Fernkampfangriffswürfe</li>\n<li>+4,50 m Zustandsbonus auf deine Bewegungsrate</li>\n<li>Malus -2 auf Zähigkeitswürfe</li>\n</ul>\n<p>Nicht implementierte Effekte:</p>\n<ul>\n<li>Du nimmst Schaden in Höhe des Doppelten deiner Stufe. Trefferpunkte, die du auf diese Weise verloren hast, kannst du auf keine Weise regenerieren, solange das Mutagen wirkt.</li>\n</ul>",
"entries.Effect: Quicksilver Mutagen (Lesser).name": "Effekt: Flinkheitsmutagen (Schwach)",
"entries.Effect: Quicksilver Mutagen (Lesser).description": "<p>Gewährt durch @Compendium[pf2e.equipment-srd.5MKBwpE401uz4kNN]{Flinkheitsmutagen (Schwach)}</p>\n<p>Implementierte Effekte:</p>\n<ul>\n<li>+1 Gegenstandsbonus auf Fertigkeitswürfe für Akrobatik, Diebeskunst und Heimlichkeit</li>\n<li>+1 Gegenstandsbonus auf Reflexwürfe</li>\n<li>+1 Gegenstandsbonus auf Fernkampfangriffswürfe</li>\n<li>+1,50 m Zustandsbonus auf deine Bewegungsrate</li>\n<li>Malus -2 auf Zähigkeitswürfe</li>\n</ul>\n<p>Nicht implementierte Effekte:</p>\n<ul>\n<li>Du nimmst Schaden in Höhe des Doppelten deiner Stufe. Trefferpunkte, die du auf diese Weise verloren hast, kannst du auf keine Weise regenerieren, solange das Mutagen wirkt.</li>\n</ul>",
"entries.Effect: Quicksilver Mutagen (Major).name": "Effekt: Flinkheitsmutagen (Mächtig)",
"entries.Effect: Quicksilver Mutagen (Major).description": "<p>Gewährt durch @Compendium[pf2e.equipment-srd.4GXzTN6iSDGfYEAi]{Flinkheitsmutagen (Mächtig)}</p>\n<p>Implementierte Effekte:</p>\n<ul>\n<li>+4 Gegenstandsbonus auf Fertigkeitswürfe für Akrobatik, Diebeskunst und Heimlichkeit</li>\n<li>+4 Gegenstandsbonus auf Reflexwürfe</li>\n<li>+4 Gegenstandsbonus auf Fernkampfangriffswürfe</li>\n<li>+6 m Zustandsbonus auf deine Bewegungsrate</li>\n<li>Malus -2 auf Zähigkeitswürfe</li>\n</ul>\n<p>Nicht implementierte Effekte:</p>\n<ul>\n<li>Du nimmst Schaden in Höhe des Doppelten deiner Stufe. Trefferpunkte, die du auf diese Weise verloren hast, kannst du auf keine Weise regenerieren, solange das Mutagen wirkt.</li>\n</ul>",
"entries.Effect: Quicksilver Mutagen (Moderate).name": "Effekt: Flinkheitsmutagen (Einfach)",
"entries.Effect: Quicksilver Mutagen (Moderate).description": "<p>Gewährt durch @Compendium[pf2e.equipment-srd.n52BSbZsnx4Vmt2p]{Flinkheitsmutagen (Einfach)}</p>\n<p>Implementierte Effekte:</p>\n<ul>\n<li>+2 Gegenstandsbonus auf Fertigkeitswürfe für Akrobatik, Diebeskunst und Heimlichkeit</li>\n<li>+2 Gegenstandsbonus auf Reflexwürfe</li>\n<li>+2 Gegenstandsbonus auf Fernkampfangriffswürfe</li>\n<li>+3 m Zustandsbonus auf deine Bewegungsrate</li>\n<li>Malus -2 auf Zähigkeitswürfe</li>\n</ul>\n<p>Nicht implementierte Effekte:</p>\n<ul>\n<li>Du nimmst Schaden in Höhe des Doppelten deiner Stufe. Trefferpunkte, die du auf diese Weise verloren hast, kannst du auf keine Weise regenerieren, solange das Mutagen wirkt.</li>\n</ul>",
"entries.Effect: Salve of Slipperiness.name": "Effekt: Schmieröl",
"entries.Effect: Salve of Slipperiness.description": "<p>Gewährt durch @Compendium[pf2e.equipment-srd.MobYbxEL4KgxVi63]{Schmieröl}</p>\n<hr />\n<p>Automatisch angewandte Effekte:</p>\n<ul>\n<li>Gegenstandsbonus von +2 auf Fertigkeitswürfe für Akrobatik zum Entkommen oder Hindurchzwängen</li>\n</ul>",
"entries.Effect: Sea Touch Elixir (Greater).name": "Effekt: Schwimmhautelixier (Stark)",
"entries.Effect: Sea Touch Elixir (Greater).description": "<p>Gewährt durch @Compendium[pf2e.equipment-srd.i4D4B7tpYv9vMvQY]{Schwimmhautelixier (Stark)}</p>\n<hr />\n<p>Automatisch angewendete Effekte:</p>\n<ul>\n<li>Erhalte eine Bewegungsrate für Schwimmen von 6 m</li>\n</ul>",
"entries.Effect: Sea Touch Elixir (Lesser).name": "Effekt: Schwimmhautelixier (Schwach)",
"entries.Effect: Sea Touch Elixir (Lesser).description": "<p>Gewährt durch @Compendium[pf2e.equipment-srd.zcJgT5RS8p2MEbOB]{Schwimmhautelixier (Schwach)}</p>\n<hr />\n<p>Automatisch angewendete Effekte:</p>\n<ul>\n<li>Erhalte eine Bewegungsrate für Schwimmen von 6 m</li>\n</ul>",
"entries.Effect: Sea Touch Elixir (Moderate).name": "Effekt: Schwimmhautelixier (Einfach)",
"entries.Effect: Sea Touch Elixir (Moderate).description": "<p>Gewährt durch @Compendium[pf2e.equipment-srd.2hc1EEcb3pfr7Hac]{Schwimmhautelixier (Einfach)}</p>\n<hr />\n<p>Automatisch angewendete Effekte:</p>\n<ul>\n<li>Erhalte eine Bewegungsrate für Schwimmen von 6 m</li>\n</ul>",
"entries.Effect: Serene Mutagen (Greater).name": "Effekt: Gleichmutsmutagen (Stark)",
"entries.Effect: Serene Mutagen (Greater).description": "<p>Gewährt durch @Compendium[pf2e.equipment-srd.Yej7lnnDYDZybGqo]{Gleichmutsmutagen (Stark)}</p>\n<p>Implementierte Effekte:</p>\n<ul>\n<li>+3 Gegenstandsbonus auf Willens- und Wahrnehmungswürfe</li>\n<li>+4 Gegenstandsbonus auf Willenswürfe gegen mentale Effekte</li>\n<li>+3 Gegenstandsbonus auf Fertigkeitswürfe für Heilkunde, Naturkunde, Religionskunde und Überlebenskunst</li>\n<li>Malus von -1 auf Angriffswürfe</li>\n</ul>\n<p>Nicht implementierte Effekte:</p>\n<ul>\n<li>Malus von -1 auf den SG der Rettungswürfe gegen deine Angriffszauber</li>\n<li>Malus von -1 pro Schadenswürfel auf den Schaden von Waffenangriffen, Waffenlosen Angriffen und Schadenszaubern</li>\n<li>Wenn du bei einem Willenswurf gegen einen mentalen Effekt einen Erfolg erzielst, zählt das Ergebnis stattdessen als Kritischer Erfolg.</li>\n</ul>",
"entries.Effect: Serene Mutagen (Lesser).name": "Effekt: Gleichmutsmutagen (Schwach)",
"entries.Effect: Serene Mutagen (Lesser).description": "<p>Gewährt durch @Compendium[pf2e.equipment-srd.bOPQDM54W8ZDoULY]{Gleichmutsmutagen (Schwach)}</p>\n<p>Implementierte Effekte:</p>\n<ul>\n<li>+1 Gegenstandsbonus auf Willens- und Wahrnehmungswürfe</li>\n<li>+2 Gegenstandsbonus auf Willenswürfe gegen mentale Effekte</li>\n<li>+1 Gegenstandsbonus auf Fertigkeitswürfe für Heilkunde, Naturkunde, Religionskunde und Überlebenskunst</li>\n<li>Malus von -1 auf Angriffswürfe</li>\n</ul>\n<p>Nicht implementierte Effekte:</p>\n<ul>\n<li>Malus von -1 auf den SG der Rettungswürfe gegen deine Angriffszauber</li>\n<li>Malus von -1 pro Schadenswürfel auf den Schaden von Waffenangriffen, Waffenlosen Angriffen und Schadenszaubern</li>\n</ul>",
"entries.Effect: Serene Mutagen (Major).name": "Effekt: Gleichmutsmutagen (Mächtig)",
"entries.Effect: Serene Mutagen (Major).description": "<p>Gewährt durch @Compendium[pf2e.equipment-srd.ccrdVliTNBh2mNZf]{Gleichmutsmutagen (Mächtig)}</p>\n<p>Implementierte Effekte:</p>\n<ul>\n<li>+4 Gegenstandsbonus auf Willens- und Wahrnehmungswürfe</li>\n<li>+5 Gegenstandsbonus auf Willenswürfe gegen mentale Effekte</li>\n<li>+4 Gegenstandsbonus auf Fertigkeitswürfe für Heilkunde, Naturkunde, Religionskunde und Überlebenskunst</li>\n<li>Malus von -1 auf Angriffswürfe</li>\n</ul>\n<p>Nicht implementierte Effekte:</p>\n<ul>\n<li>Malus von -1 auf den SG der Rettungswürfe gegen deine Angriffszauber</li>\n<li>Malus von -1 pro Schadenswürfel auf den Schaden von Waffenangriffen, Waffenlosen Angriffen und Schadenszaubern</li>\n<li>wenn du bei einem Willenswurf gegen einen mentalen Effekt einen Erfolg erzielst, zählt das Ergebnis stattdessen als Kritischer Erfolg</li>\n<li>deine Kritischen Fehlschläge bei Willenswürfen gegen mentale Effekte zählen stattdessen als normale Fehlschläge</li>\n</ul>",
"entries.Effect: Serene Mutagen (Moderate).name": "Effekt: Gleichmutsmutagen (Einfach)",
"entries.Effect: Serene Mutagen (Moderate).description": "<p>Gewährt durch @Compendium[pf2e.equipment-srd.XEYveTvLH1lJ4jeI]{Gleichmutsmutagen (Einfach)}</p>\n<p>Implementierte Effekte:</p>\n<ul>\n<li>+2 Gegenstandsbonus auf Willens- und Wahrnehmungswürfe</li>\n<li>+3 Gegenstandsbonus auf Willenswürfe gegen mentale Effekte</li>\n<li>+2 Gegenstandsbonus auf Fertigkeitswürfe für Heilkunde, Naturkunde, Religionskunde und Überlebenskunst</li>\n<li>Malus von -1 auf Angriffswürfe</li>\n</ul>\n<p>Nicht implementierte Effekte:</p>\n<ul>\n<li>Malus von -1 auf den SG der Rettungswürfe gegen deine Angriffszauber</li>\n<li>Malus von -1 pro Schadenswürfel auf den Schaden von Waffenangriffen, Waffenlosen Angriffen und Schadenszaubern</li>\n</ul>",
"entries.Effect: Shielding Salve.name": "Effekt: Schildsalbe",
"entries.Effect: Shielding Salve.description": "<p>Gewährt durch @Compendium[pf2e.equipment-srd.EWujUs3YmlBu2jhm]{Schildsalbe}</p>\n<hr />\n<p>Automatisch angewandte Effekte:</p>\n<ul>\n<li>das Ziel erhält einen Situationsbonus von +1 auf RK</li>\n</ul>",
"entries.Effect: Shrinking Potion (Greater).name": "Effekte: Schrumpftrank (Stark)",
"entries.Effect: Shrinking Potion (Greater).description": "<p>Gewährt durch @Compendium[pf2e.equipment-srd.5xsfj30uXMKINxnk]{Schrumpftrank (Stark)}</p>\n<hr />\n<p>Automatisch angewandte Effekte:</p>\n<ul>\n<li>Gegenstandbonus von +2 auf Fertigkeitswürfe für Heimlichkeit</li>\n</ul>",
"entries.Effect: Silvertongue Mutagen (Greater).name": "Effekt: Silberzungenmutagen (Stark)",
"entries.Effect: Silvertongue Mutagen (Greater).description": "<p>Gewährt durch @Compendium[pf2e.equipment-srd.uggpIk6vguWFXVli]{Silberzungenmutagen (Stark)}</p>\n<p>Implementierte Effekte:</p>\n<ul>\n<li>+3 Gegenstandsbonus auf Fertigkeitswürfe für Darbietung, Diplomatie, Einschüchtern und Täuschung</li>\n<li>Gegenstandsmalus von -2 auf Fertigkeitswürfe für Arkane Künste, Gesellschaftskunde, Handwerkskunst und Okkultismus</li>\n</ul>\n<p>Nicht implementierte Effekte:</p>\n<ul>\n<li>deine Kritischen Fehlschläge bei jeder der o.a. Fertigkeiten zählen stattdessen als normale Fehlschlägen</li>\n<li>Gegenstandsmalus von -2 auf Kenntnis</li>\n<li>werde ungeübt in einer Fertigkeit in der du geübt bist</li>\n<li>all deine Fehlschläge bei Würfen zum Wissen abrufen zählen als Kritische Fehlschläge</li>\n</ul>",
"entries.Effect: Silvertongue Mutagen (Lesser).name": "Effekt: Silberzungenmutagen (Schwach)",
"entries.Effect: Silvertongue Mutagen (Lesser).description": "<p>Gewährt durch @Compendium[pf2e.equipment-srd.YwRAHWW8yUI07sy9]{Silberzungenmutagen (Schwach)}</p>\n<p>Implementierte Effekte:</p>\n<ul>\n<li>+1 Gegenstandsbonus auf Fertigkeitswürfe für Darbietung, Diplomatie, Einschüchtern und Täuschung</li>\n<li>Gegenstandsmalus von -2 auf Fertigkeitswürfe für Arkane Künste, Gesellschaftskunde, Handwerkskunst und Okkultismus</li>\n</ul>\n<p>Nicht implementierte Effekte:</p>\n<ul>\n<li>deine Kritischen Fehlschläge bei jeder der o.a. Fertigkeiten zählen stattdessen als normale Fehlschlägen</li>\n<li>Gegenstandsmalus von -2 auf Kenntnis</li>\n<li>werde ungeübt in einer Fertigkeit in der du geübt bist</li>\n<li>all deine Fehlschläge bei Würfen zum Wissen abrufen zählen als Kritische Fehlschläge</li>\n</ul>",
"entries.Effect: Silvertongue Mutagen (Major).name": "Effekt: Silberzungenmutagen (Mächtig)",
"entries.Effect: Silvertongue Mutagen (Major).description": "<p>Gewährt durch @Compendium[pf2e.equipment-srd.uD5vRYVOXNJ53sEE]{Silberzungenmutagen (Mächtig)}</p>\n<p>Implementierte Effekte:</p>\n<ul>\n<li>+4 Gegenstandsbonus auf Fertigkeitswürfe für Darbietung, Diplomatie, Einschüchtern und Täuschung</li>\n<li>Gegenstandsmalus von -2 auf Fertigkeitswürfe für Arkane Künste, Gesellschaftskunde, Handwerkskunst und Okkultismus</li>\n</ul>\n<p>Nicht implementierte Effekte:</p>\n<ul>\n<li>deine Kritischen Fehlschläge bei jeder der o.a. Fertigkeiten zählen stattdessen als normale Fehlschlägen</li>\n<li>Gegenstandsmalus von -2 auf Kenntnis</li>\n<li>werde ungeübt in einer Fertigkeit in der du geübt bist</li>\n<li>all deine Fehlschläge bei Würfen zum Wissen abrufen zählen als Kritische Fehlschläge</li>\n</ul>",
"entries.Effect: Silvertongue Mutagen (Moderate).name": "Effekt: Silberzungenmutagen (Einfach)",
"entries.Effect: Silvertongue Mutagen (Moderate).description": "<p>Gewährt durch @Compendium[pf2e.equipment-srd.lIExlUFBKvBue8hb]{Silberzungenmutagen (Einfach)}</p>\n<p>Implementierte Effekte:</p>\n<ul>\n<li>+2 Gegenstandsbonus auf Fertigkeitswürfe für Darbietung, Diplomatie, Einschüchtern und Täuschung</li>\n<li>Gegenstandsmalus von -2 auf Fertigkeitswürfe für Arkane Künste, Gesellschaftskunde, Handwerkskunst und Okkultismus</li>\n</ul>\n<p>Nicht implementierte Effekte:</p>\n<ul>\n<li>deine Kritischen Fehlschläge bei jeder der o.a. Fertigkeiten zählen stattdessen als normale Fehlschlägen</li>\n<li>Gegenstandsmalus von -2 auf Kenntnis</li>\n<li>werde ungeübt in einer Fertigkeit in der du geübt bist</li>\n<li>all deine Fehlschläge bei Würfen zum Wissen abrufen zählen als Kritische Fehlschläge</li>\n</ul>",
"entries.Effect: Sixfingers Elixir (Greater).name": "Effect: Sixfingers Elixir (Greater)",
"entries.Effect: Sixfingers Elixir (Greater).description": "<p>Granted by @Compendium[pf2e.equipment-srd.6odVabL0WL2H89Ic]{Sixfingers Elixir (Greater)}</p>\n<hr />\n<p>Auomatically applied effects:</p>\n<ul>\n<li>gain a Climb speed of 20 feet</li>\n</ul>",
"entries.Effect: Sixfingers Elixir (Lesser).name": "Effect: Sixfingers Elixir (Lesser)",
"entries.Effect: Sixfingers Elixir (Lesser).description": "<p>Granted by @Compendium[pf2e.equipment-srd.JAOWw2GhupaYoYg9]{Sixfingers Elixir (Lesser)}</p>\n<hr />\n<p>Auomatically applied effects:</p>\n<ul>\n<li>gain a Climb speed of 20 feet</li>\n</ul>",
"entries.Effect: Sixfingers Elixir (Moderate).name": "Effect: Sixfingers Elixir (Moderate)",
"entries.Effect: Sixfingers Elixir (Moderate).description": "<p>Granted by @Compendium[pf2e.equipment-srd.ieVRS2BjiWqauly6]{Sixfingers Elixir (Moderate)}</p>\n<hr />\n<p>Auomatically applied effects:</p>\n<ul>\n<li>gain a Climb speed of 20 feet</li>\n</ul>",
"entries.Effect: Skeptic's Elixir (Greater).name": "Effect: Skeptic's Elixir (Greater)",
"entries.Effect: Skeptic's Elixir (Greater).description": "<p><strong>Duration</strong> 1 hour</p>\n<p><strong>Activate</strong> <span class=\"pf2-icon\">1</span> Interact</p>\n<hr />\n<p>This elixir sharpens your mind and allows you to see through lies, falsehoods, and magical trickery. You gain a +3 item bonus to Perception checks and Perception DCs to notice falsehoods, whether they're spoken lies or written deceit. You gain this same item bonus to Will saves.</p>",
"entries.Effect: Skeptic's Elixir (Lesser).name": "Effect: Skeptic's Elixir (Lesser)",
"entries.Effect: Skeptic's Elixir (Lesser).description": "<p><strong>Duration</strong> 1 minute</p>\n<p><strong>Activate</strong> <span class=\"pf2-icon\">1</span> Interact</p>\n<hr />\n<p>This elixir sharpens your mind and allows you to see through lies, falsehoods, and magical trickery. You gain a +1 item bonus to Perception checks and Perception DCs to notice falsehoods, whether they’re spoken lies or written deceit. You gain this same item bonus to Will saves.</p>",
"entries.Effect: Skeptic's Elixir (Moderate).name": "Effect: Skeptic's Elixir (Moderate)",
"entries.Effect: Skeptic's Elixir (Moderate).description": "<p><strong>Duration</strong> 10 minute</p>\n<p><strong>Activate</strong> <span class=\"pf2-icon\">1</span> Interact</p>\n<hr />\n<p>This elixir sharpens your mind and allows you to see through lies, falsehoods, and magical trickery. You gain a +2 item bonus to Perception checks and Perception DCs to notice falsehoods, whether they're spoken lies or written deceit. You gain this same item bonus to Will saves.</p>",
"entries.Effect: Skinstitch Salve.name": "Effekt: Wundsalbe",
"entries.Effect: Skinstitch Salve.description": "<p>Gewährt durch @Compendium[pf2e.equipment-srd.FgAPV0iLE6R1QMJ5]{Wundsalbe}</p>\n<hr />\n<p>Automatisch angewandte Effekte:</p>\n<ul>\n<li>Gegenstandsbonus von +2 auf deinen Fertigkeitswurf auf Heilkunde</li>\n</ul>",
"entries.Effect: Stone Body Mutagen (Greater).name": "Effekt: Steinkörpermutagen (Stark)",
"entries.Effect: Stone Body Mutagen (Greater).description": "<p>Gewährt durch @Compendium[pf2e.equipment-srd.cqTCg6C0lvYUKQmx]{Steinkörpermutagen (Stark)}</p>\n<p>Implementierte Effekte:</p>\n<ul>\n<li>Malus von -2 auf Reflexwürfe</li>\n<li>-3 m Malus auf Bewegungsrate (Mininum 1,50 m)</li>\n</ul>\n<p>Nicht implementierte Effekte:</p>\n<ul>\n<li>Resistenz 10 gegen körperlichen Schaden (außer Wuchtschaden)</li>\n</ul>",
"entries.Effect: Stone Body Mutagen (Lesser).name": "Effekt: Steinkörpermutagen (Schwach)",
"entries.Effect: Stone Body Mutagen (Lesser).description": "<p>Gewährt durch @Compendium[pf2e.equipment-srd.5ftFTiKY0BMvhzL9]{Steinkörpermutagen (Schwach)}</p>\n<p>Implementierte Effekte:</p>\n<ul>\n<li>Malus von -2 auf Reflexwürfe</li>\n<li>-3 m Malus auf Bewegungsrate (Mininum 1,50 m)</li>\n</ul>\n<p>Nicht implementierte Effekte:</p>\n<ul>\n<li>Resistenz 5 gegen körperlichen Schaden (außer Wuchtschaden)</li>\n</ul>",
"entries.Effect: Stone Body Mutagen (Moderate).name": "Effekt: Steinkörpermutagen (Einfach)",
"entries.Effect: Stone Body Mutagen (Moderate).description": "<p>Gewährt durch @Compendium[pf2e.equipment-srd.FZ6SMwiei6NnEp3e]{Steinkörpermutagen (Einfach)}</p>\n<p>Implementierte Effekte:</p>\n<ul>\n<li>Malus von -2 auf Reflexwürfe</li>\n<li>-3 m Malus auf Bewegungsrate (Mininum 1,50 m)</li>\n</ul>\n<p>Nicht implementierte Effekte:</p>\n<ul>\n<li>Resistenz 5 gegen körperlichen Schaden (außer Wuchtschaden)</li>\n</ul>",
"entries.Effect: Stone Fist Elixir.name": "Effekt: Steinfaustelixier",
"entries.Effect: Stone Fist Elixir.description": "<p>Gewährt durch @Compendium[pf2e.equipment-srd.YcvSw7Zn3oyqlJaw]{Steinfaustelixier}</p>\n<hr />\n<p>Automatisch angewandte Effekte:</p>\n<ul>\n<li>deine Fäuste fügen 1W6 Punkte Wuchtschaden zu und gehören nicht mehr der Kategorie Nichttödlich an</li>\n</ul>",
"entries.Effect: Sun Orchid Poultice.name": "Effect: Sun Orchid Poultice",
"entries.Effect: Sun Orchid Poultice.description": "<p>Granted by @Compendium[pf2e.equipment-srd.1LKJvK9ofzIIkQX3]{Sun Orchid Poultice}</p>\n<hr />\n<p>Automatically applied effects:</p>\n<ul>\n<li>+3 item bonus to saves</li>\n<li>Gain 20 temporary Hit Points</li>\n</ul>",
"entries.Effect: Vermin Repellent Agent (Greater).name": "Effect: Vermin Repellent Agent (Greater)",
"entries.Effect: Vermin Repellent Agent (Greater).description": "<p>Granted by @Compendium[pf2e.equipment-srd.CReWZjAd3szYQ6Mx]{Vermin Repellent Agent (Greater)}</p>\n<hr />\n<p>Automatically applied effects:</p>\n<ul>\n<li>gain a +3 item bonus to Fortitude saving throws against poisons</li>\n</ul>",
"entries.Effect: Vermin Repellent Agent (Lesser).name": "Effect: Vermin Repellent Agent (Lesser)",
"entries.Effect: Vermin Repellent Agent (Lesser).description": "<p>Granted by @Compendium[pf2e.equipment-srd.lgqyRmQ3GZbbxQsD]{Vermin Repellent Agent (Lesser)}</p>\n<hr />\n<p>Automatically applied effects:</p>\n<ul>\n<li>gain a +1 item bonus to Fortitude saving throws against poisons</li>\n</ul>",
"entries.Effect: Vermin Repellent Agent (Major).name": "Effect: Vermin Repellent Agent (Major)",
"entries.Effect: Vermin Repellent Agent (Major).description": "<p>Granted by @Compendium[pf2e.equipment-srd.C6v5p0ZtIUroYlU2]{Vermin Repellent Agent (Major)}</p>\n<hr />\n<p>Automatically applied effects:</p>\n<ul>\n<li>gain a +4 item bonus to Fortitude saving throws against poisons</li>\n</ul>",
"entries.Effect: Vermin Repellent Agent (Moderate).name": "Effect: Vermin Repellent Agent (Moderate)",
"entries.Effect: Vermin Repellent Agent (Moderate).description": "<p>Granted by @Compendium[pf2e.equipment-srd.WGbE7qAGw8O5yH07]{Vermin Repellent Agent (Moderate)}</p>\n<hr />\n<p>Automatically applied effects:</p>\n<ul>\n<li>gain a +2 item bonus to Fortitude saving throws against poisons</li>\n</ul>"
}